12500,0
15625,1
19531,1
24413,1
30516,2
38145,2
47681,3
59601,4
74501,5
93126,7
116407,9
145508,12
181885,15
227356,19
284195,25
355243,32
444053,40
555066,51
693832,64
867290,81
1084112,101
1355140,127
1693925,162
2117406,204
2646757,257
3308446,331
4135557,420
5169446,532
6461807,677
8077258,858
10096572,1083
12620715,1362
15775893,1747
19719866,2197
24649832,2777
30812290,3522
38515362,4456
48144202,5714
60180252,7281
75225315,9025
94031643,11465
