1000,0
2000,0
3000,0
4000,1
5000,2
6000,3
7000,4
8000,6
9000,8
10000,10
11000,12
12000,14
13000,17
14000,20
15000,23
16000,26
17000,30
18000,34
19000,37
20000,42
21000,46
22000,50
23000,55
24000,60
25000,65
26000,70
27000,75
28000,81
29000,86
30000,92
31000,99
32000,105
33000,111
34000,121
35000,129
36000,131
37000,140
38000,148
39000,156
40000,164
41000,172
42000,180
43000,190
44000,196
45000,207
46000,216
47000,225
48000,236
49000,245
50000,254
