200,100000,3657
250,50000,2075
300,25000,1379
350,25000,1581
400,25000,1861
450,25000,1999
500,25000,2196
550,12500,1304
600,12500,1428
650,12500,1550
700,12500,1687
750,12500,1811
800,12500,1891
850,12500,1995
900,12500,2106
950,6250,1096
1000,6250,1150
1050,6250,1266
1100,6250,1362
1150,6250,1425
1200,6250,1626
1250,6250,1592
1300,6250,1616
1350,6250,1677
1400,6250,1740
1450,6250,1820
1500,6250,1850
1550,6250,1899
1600,6250,1976
1650,6250,2036
1700,3125,1040
1750,3125,1059
1800,3125,1099
1850,3125,1146
1900,3125,1144
1950,3125,1166
2000,3125,1206
