1000,0
2000,2
3000,6
4000,11
5000,17
6000,25
7000,34
8000,45
9000,57
10000,69
11000,83
12000,100
13000,116
14000,134
15000,154
16000,171
17000,197
18000,222
19000,246
20000,271
21000,301
22000,329
23000,351
24000,391
25000,423
26000,470
27000,503
28000,530
29000,570
30000,582
31000,561
32000,696
33000,741
34000,782
35000,830
36000,877
37000,866
38000,977
39000,1029
40000,1083
41000,1137
42000,1193
43000,1278
44000,1309
45000,1370
46000,1431
47000,1493
48000,1559
49000,1618
50000,1477
