1000,0
2000,0
3000,0
4000,0
5000,0
6000,0
7000,0
8000,0
9000,0
10000,0
11000,0
12000,0
13000,0
14000,0
15000,0
16000,1
17000,1
18000,1
19000,1
20000,1
21000,1
22000,1
23000,1
24000,1
25000,1
26000,1
27000,1
28000,1
29000,1
30000,2
31000,2
32000,2
33000,2
34000,2
35000,2
36000,2
37000,2
38000,2
39000,2
40000,2
41000,2
42000,2
43000,3
44000,3
45000,3
46000,3
47000,3
48000,3
49000,3
50000,3
