1000,0
2000,0
3000,0
4000,0
5000,1
6000,1
7000,1
8000,1
9000,1
10000,2
11000,2
12000,2
13000,2
14000,3
15000,3
16000,3
17000,3
18000,4
19000,4
20000,4
21000,4
22000,5
23000,5
24000,5
25000,5
26000,5
27000,6
28000,6
29000,6
30000,6
31000,6
32000,7
33000,7
34000,8
35000,8
36000,8
37000,8
38000,9
39000,9
40000,9
41000,9
42000,10
43000,10
44000,10
45000,10
46000,11
47000,11
48000,11
49000,11
50000,12
