5,20000000,8671
10,10000000,11606
15,5000000,9767
20,2500000,7123
25,1250000,4681
30,625000,2745
35,312500,1843
40,312500,2038
45,156250,1184
50,156250,1290
55,156250,1417
60,156250,1541
65,156250,1662
70,156250,1960
75,156250,2099
80,78125,1137
85,78125,1223
90,78125,1267
95,78125,1338
100,78125,1473
105,78125,1521
110,78125,1523
115,78125,1609
120,78125,1674
125,78125,1686
130,78125,1806
135,78125,1980
140,78125,2074
145,39062,1109
150,39062,1135
155,39062,1149
160,39062,1229
165,39062,1295
170,39062,1278
175,39062,1313
180,39062,1353
185,39062,1375
190,39062,1415
195,39062,1475
200,39062,1519
