5,20000000,282
10,20000000,843
15,20000000,1696
20,20000000,2776
25,10000000,1850
30,10000000,2204
35,5000000,1396
40,5000000,1563
45,5000000,1700
50,5000000,2417
55,2500000,1382
60,2500000,1135
65,2500000,1600
70,2500000,1579
75,2500000,1944
80,2500000,1912
85,2500000,2254
90,1250000,1234
95,1250000,1401
100,1250000,1440
105,1250000,1447
110,1250000,1830
115,1250000,1620
120,1250000,1740
125,1250000,2037
130,625000,1027
135,625000,1148
140,625000,1368
145,625000,1198
150,625000,1174
155,625000,1467
160,625000,1243
165,625000,1240
170,625000,1714
175,625000,1811
180,625000,1455
185,625000,1863
190,625000,1820
195,625000,2383
200,312500,1004
