%!PS-Adobe-3.0 EPSF-3.0
%%DocumentNeededResources: font Helvetica
%%+ font Helvetica-Bold
%%+ font Helvetica-Oblique
%%+ font Helvetica-BoldOblique
%%+ font Symbol
%%Title: R Graphics Output
%%Creator: R Software
%%Pages: (atend)
%%BoundingBox: 0 0 425 283
%%EndComments
%%BeginProlog
/bp  { gs sRGB gs } def
% begin .ps.prolog
/gs  { gsave } bind def
/gr  { grestore } bind def
/ep  { showpage gr gr } bind def
/m   { moveto } bind def
/l  { rlineto } bind def
/np  { newpath } bind def
/cp  { closepath } bind def
/f   { fill } bind def
/o   { stroke } bind def
/c   { newpath 0 360 arc } bind def
/r   { 4 2 roll moveto 1 copy 3 -1 roll exch 0 exch rlineto 0 rlineto -1 mul 0 exch rlineto closepath } bind def
/p1  { stroke } bind def
/p2  { gsave bg fill grestore newpath } bind def
/p3  { gsave bg fill grestore stroke } bind def
/p6  { gsave bg eofill grestore newpath } bind def
/p7  { gsave bg eofill grestore stroke } bind def
/t   { 5 -2 roll moveto gsave rotate
       1 index stringwidth pop
       mul neg 0 rmoveto show grestore } bind def
/ta  { 4 -2 roll moveto gsave rotate show } bind def
/tb  { 2 -1 roll 0 rmoveto show } bind def
/cl  { grestore gsave newpath 3 index 3 index moveto 1 index
       4 -1 roll lineto  exch 1 index lineto lineto
       closepath clip newpath } bind def
/rgb { setrgbcolor } bind def
/s   { scalefont setfont } bind def
% end   .ps.prolog
/sRGB { [ /CIEBasedABC
          << /DecodeLMN
               [ { dup 0.03928 le
                        {12.92321 div}
                        {0.055 add 1.055 div 2.4 exp }
                     ifelse
                 } bind dup dup
               ]
             /MatrixLMN [0.412457 0.212673 0.019334
                         0.357576 0.715152 0.119192
                         0.180437 0.072175 0.950301]
             /WhitePoint [0.9505 1.0 1.0890]
           >>
         ] setcolorspace } bind def
/srgb { setcolor } bind def
%%IncludeResource: font Helvetica
/Helvetica findfont
dup length dict begin
  {1 index /FID ne {def} {pop pop} ifelse} forall
  /Encoding ISOLatin1Encoding def
  currentdict
  end
/Font1 exch definefont pop
%%IncludeResource: font Helvetica-Bold
/Helvetica-Bold findfont
dup length dict begin
  {1 index /FID ne {def} {pop pop} ifelse} forall
  /Encoding ISOLatin1Encoding def
  currentdict
  end
/Font2 exch definefont pop
%%IncludeResource: font Helvetica-Oblique
/Helvetica-Oblique findfont
dup length dict begin
  {1 index /FID ne {def} {pop pop} ifelse} forall
  /Encoding ISOLatin1Encoding def
  currentdict
  end
/Font3 exch definefont pop
%%IncludeResource: font Helvetica-BoldOblique
/Helvetica-BoldOblique findfont
dup length dict begin
  {1 index /FID ne {def} {pop pop} ifelse} forall
  /Encoding ISOLatin1Encoding def
  currentdict
  end
/Font4 exch definefont pop
%%IncludeResource: font Symbol
/Symbol findfont
dup length dict begin
  {1 index /FID ne {def} {pop pop} ifelse} forall
  currentdict
  end
/Font5 exch definefont pop
%%EndProlog
%%Page: 1 1
bp
0.00 0.00 425.20 283.46 cl
0.00 0.00 425.20 283.46 cl
0.00 0.00 425.20 283.46 cl
0.00 0.00 425.20 283.46 cl
0.00 0.00 425.20 283.46 cl
0.00 0.00 425.20 283.46 cl
0.00 0.00 425.20 283.46 cl
0.00 0.00 425.20 283.46 cl
0.00 0.00 425.20 283.46 cl
0.00 0.00 425.20 283.46 cl
/bg { 1 1 1 srgb } def
1 1 1 srgb
1.07 setlinewidth
[] 0 setdash
1 setlinecap
1 setlinejoin
10.00 setmiterlimit
0.00 0.00 425.20 283.46 r p3
0.00 0.00 425.20 283.46 cl
50.31 30.25 341.59 277.99 cl
/bg { 0.9216 0.9216 0.9216 srgb } def
50.31 30.25 291.28 247.73 r p2
1 1 1 srgb
0.53 setlinewidth
[] 0 setdash
0 setlinecap
1 setlinejoin
10.00 setmiterlimit
np
50.31 84.31 m
291.28 0 l
o
np
50.31 169.91 m
291.28 0 l
o
np
50.31 255.51 m
291.28 0 l
o
np
98.72 30.25 m
0 247.74 l
o
np
169.13 30.25 m
0 247.74 l
o
np
239.54 30.25 m
0 247.74 l
o
np
309.95 30.25 m
0 247.74 l
o
1.07 setlinewidth
[] 0 setdash
np
50.31 41.51 m
291.28 0 l
o
np
50.31 127.11 m
291.28 0 l
o
np
50.31 212.71 m
291.28 0 l
o
np
63.51 30.25 m
0 247.74 l
o
np
133.93 30.25 m
0 247.74 l
o
np
204.34 30.25 m
0 247.74 l
o
np
274.75 30.25 m
0 247.74 l
o
0.9725 0.4627 0.4275 srgb
1.00 setmiterlimit
np
63.55 41.60 m
0.01 0.07 l
0.01 0.08 l
0.01 0.14 l
0.02 0.22 l
0.02 0.34 l
0.03 0.55 l
0.03 0.86 l
0.04 1.31 l
0.06 2.18 l
0.06 3.75 l
0.08 5.10 l
0.11 8.51 l
0.12 13.23 l
0.16 19.42 l
0.20 33.59 l
0.25 47.97 l
0.32 87.80 l
o
0.7176 0.6235 0 srgb
np
63.55 41.51 m
0.01 0.02 l
0.01 0 l
0.01 0 l
0.02 0.02 l
0.02 0.01 l
0.03 0.02 l
0.03 0.02 l
0.04 0.01 l
0.06 0.04 l
0.06 0.03 l
0.08 0.05 l
0.11 0.07 l
0.12 0.09 l
0.16 0.10 l
0.20 0.14 l
0.25 0.17 l
0.32 0.20 l
0.39 0.26 l
0.49 0.34 l
0.61 0.40 l
0.76 0.53 l
0.95 0.68 l
1.20 0.91 l
1.49 0.98 l
1.86 1.40 l
2.33 1.69 l
2.91 2.30 l
3.64 2.79 l
4.55 4.11 l
5.69 3.95 l
7.11 5.72 l
8.89 7.21 l
11.10 10.46 l
13.89 9.95 l
17.36 14.75 l
21.69 18.27 l
27.12 24.40 l
33.90 28.11 l
42.37 38.76 l
o
0 0.7294 0.2196 srgb
np
63.55 41.51 m
0.01 0 l
0.01 0.02 l
0.01 0 l
0.02 0.02 l
0.02 0 l
0.03 0.01 l
0.03 0.02 l
0.04 0.02 l
0.06 0.03 l
0.06 0.04 l
0.08 0.03 l
0.11 0.07 l
0.12 0.07 l
0.16 0.08 l
0.20 0.12 l
0.25 0.16 l
0.32 0.18 l
0.39 0.23 l
0.49 0.29 l
0.61 0.37 l
0.76 0.45 l
0.95 0.60 l
1.20 0.79 l
1.49 0.92 l
1.86 1.20 l
2.33 1.59 l
2.91 2.12 l
3.64 2.49 l
4.55 3.22 l
5.69 4.10 l
7.11 5.09 l
8.89 6.40 l
11.10 8.37 l
13.89 10.33 l
17.36 13.23 l
21.69 16.90 l
27.12 20.82 l
33.90 27.06 l
42.37 34.79 l
52.97 42.46 l
o
0 0.7490 0.7686 srgb
np
63.55 41.56 m
0.01 0.02 l
0.01 0.07 l
0.01 0.07 l
0.02 0.13 l
0.02 0.21 l
0.03 0.34 l
0.03 0.53 l
0.04 0.94 l
0.06 1.60 l
0.06 2.65 l
0.08 4.02 l
0.11 6.59 l
0.12 13.10 l
0.16 17.91 l
0.20 22.34 l
0.25 40.27 l
0.32 64.26 l
o
0.3804 0.6118 1 srgb
np
63.55 41.51 m
0.01 0.02 l
0.01 0 l
0.01 0 l
0.02 0.02 l
0.02 0 l
0.03 0.01 l
0.03 0.02 l
0.04 0.02 l
0.06 0.03 l
0.06 0.04 l
0.08 0.05 l
0.11 0.05 l
0.12 0.07 l
0.16 0.10 l
0.20 0.12 l
0.25 0.14 l
0.32 0.18 l
0.39 0.23 l
0.49 0.29 l
0.61 0.34 l
0.76 0.45 l
0.95 0.59 l
1.20 0.72 l
1.49 0.91 l
1.86 1.27 l
2.33 1.52 l
2.91 1.92 l
3.64 2.48 l
4.55 3.10 l
5.69 3.85 l
7.11 4.78 l
8.89 6.59 l
11.10 7.70 l
13.89 9.93 l
17.36 12.76 l
21.69 15.99 l
27.12 21.53 l
33.90 26.83 l
42.37 29.86 l
52.97 41.77 l
o
0.9608 0.3922 0.8902 srgb
np
63.55 41.51 m
0.01 0.02 l
0.01 0 l
0.01 0 l
0.02 0.02 l
0.02 0 l
0.03 0.01 l
0.03 0.02 l
0.04 0.02 l
0.06 0.03 l
0.06 0.04 l
0.08 0.05 l
0.11 0.05 l
0.12 0.07 l
0.16 0.12 l
0.20 0.12 l
0.25 0.13 l
0.32 0.21 l
0.39 0.20 l
0.49 0.31 l
0.61 0.41 l
0.76 0.45 l
0.95 0.60 l
1.20 0.85 l
1.49 0.93 l
1.86 1.16 l
2.33 1.94 l
2.91 1.79 l
3.64 2.54 l
4.55 3.61 l
5.69 3.95 l
7.11 5.65 l
8.89 5.65 l
11.10 8.38 l
13.89 10.37 l
17.36 13.39 l
21.69 17.05 l
27.12 21.67 l
33.90 27.07 l
42.37 35.03 l
52.97 42.11 l
o
0.00 0.00 425.20 283.46 cl
0.00 0.00 425.20 283.46 cl
0.00 0.00 425.20 283.46 cl
0.00 0.00 425.20 283.46 cl
0.00 0.00 425.20 283.46 cl
0.00 0.00 425.20 283.46 cl
0.00 0.00 425.20 283.46 cl
0.00 0.00 425.20 283.46 cl
0.00 0.00 425.20 283.46 cl
0.00 0.00 425.20 283.46 cl
0.00 0.00 425.20 283.46 cl
0.00 0.00 425.20 283.46 cl
0.00 0.00 425.20 283.46 cl
0.00 0.00 425.20 283.46 cl
0.00 0.00 425.20 283.46 cl
0.00 0.00 425.20 283.46 cl
/Font1 findfont 9 s
0.3020 0.3020 0.3020 srgb
45.38 38.28 (0) 1 0 t
45.38 123.88 (5000) 1 0 t
45.38 209.48 (10000) 1 0 t
0.00 0.00 425.20 283.46 cl
0.00 0.00 425.20 283.46 cl
0.2000 0.2000 0.2000 srgb
1.07 setlinewidth
[] 0 setdash
0 setlinecap
1 setlinejoin
10.00 setmiterlimit
np
47.57 41.51 m
2.74 0 l
o
np
47.57 127.11 m
2.74 0 l
o
np
47.57 212.71 m
2.74 0 l
o
0.00 0.00 425.20 283.46 cl
0.00 0.00 425.20 283.46 cl
0.00 0.00 425.20 283.46 cl
0.00 0.00 425.20 283.46 cl
0.00 0.00 425.20 283.46 cl
0.00 0.00 425.20 283.46 cl
0.00 0.00 425.20 283.46 cl
0.00 0.00 425.20 283.46 cl
0.00 0.00 425.20 283.46 cl
0.00 0.00 425.20 283.46 cl
0.2000 0.2000 0.2000 srgb
1.07 setlinewidth
[] 0 setdash
0 setlinecap
1 setlinejoin
10.00 setmiterlimit
np
63.51 27.51 m
0 2.74 l
o
np
133.93 27.51 m
0 2.74 l
o
np
204.34 27.51 m
0 2.74 l
o
np
274.75 27.51 m
0 2.74 l
o
0.00 0.00 425.20 283.46 cl
0.00 0.00 425.20 283.46 cl
/Font1 findfont 9 s
0.3020 0.3020 0.3020 srgb
63.51 18.86 (0.0e+00) .5 0 t
133.93 18.86 (2.5e+07) .5 0 t
204.34 18.86 (5.0e+07) .5 0 t
274.75 18.86 (7.5e+07) .5 0 t
0.00 0.00 425.20 283.46 cl
0.00 0.00 425.20 283.46 cl
0.00 0.00 425.20 283.46 cl
0.00 0.00 425.20 283.46 cl
0.00 0.00 425.20 283.46 cl
0.00 0.00 425.20 283.46 cl
/Font1 findfont 11 s
0 0 0 srgb
195.95 5.48 (n) .5 0 t
0.00 0.00 425.20 283.46 cl
0.00 0.00 425.20 283.46 cl
/Font1 findfont 11 s
0 0 0 srgb
13.38 154.12 (t_ms) .5 90 t
0.00 0.00 425.20 283.46 cl
0.00 0.00 425.20 283.46 cl
0.00 0.00 425.20 283.46 cl
0.00 0.00 425.20 283.46 cl
0.00 0.00 425.20 283.46 cl
0.00 0.00 425.20 283.46 cl
0.00 0.00 425.20 283.46 cl
0.00 0.00 425.20 283.46 cl
/bg { 1 1 1 srgb } def
352.93 90.50 66.79 127.24 r p2
0.00 0.00 425.20 283.46 cl
0.00 0.00 425.20 283.46 cl
/Font1 findfont 11 s
0 0 0 srgb
358.60 204.17 (colour) 0 0 t
0.00 0.00 425.20 283.46 cl
0.00 0.00 425.20 283.46 cl
/bg { 0.9490 0.9490 0.9490 srgb } def
1 1 1 srgb
1.07 setlinewidth
[] 0 setdash
1 setlinecap
1 setlinejoin
10.00 setmiterlimit
358.60 182.57 17.28 17.28 r p3
0.00 0.00 425.20 283.46 cl
0.00 0.00 425.20 283.46 cl
0.9725 0.4627 0.4275 srgb
1.07 setlinewidth
[] 0 setdash
0 setlinecap
1 setlinejoin
10.00 setmiterlimit
np
360.33 191.21 m
13.82 0 l
o
0.00 0.00 425.20 283.46 cl
0.00 0.00 425.20 283.46 cl
0.9725 0.4627 0.4275 srgb
1.07 setlinewidth
[] 0 setdash
0 setlinecap
1 setlinejoin
10.00 setmiterlimit
np
360.33 191.21 m
13.82 0 l
o
0.00 0.00 425.20 283.46 cl
0.00 0.00 425.20 283.46 cl
0.9725 0.4627 0.4275 srgb
1.07 setlinewidth
[] 0 setdash
0 setlinecap
1 setlinejoin
10.00 setmiterlimit
np
360.33 191.21 m
13.82 0 l
o
0.00 0.00 425.20 283.46 cl
0.00 0.00 425.20 283.46 cl
0.9725 0.4627 0.4275 srgb
1.07 setlinewidth
[] 0 setdash
0 setlinecap
1 setlinejoin
10.00 setmiterlimit
np
360.33 191.21 m
13.82 0 l
o
0.00 0.00 425.20 283.46 cl
0.00 0.00 425.20 283.46 cl
0.9725 0.4627 0.4275 srgb
1.07 setlinewidth
[] 0 setdash
0 setlinecap
1 setlinejoin
10.00 setmiterlimit
np
360.33 191.21 m
13.82 0 l
o
0.00 0.00 425.20 283.46 cl
0.00 0.00 425.20 283.46 cl
0.9725 0.4627 0.4275 srgb
1.07 setlinewidth
[] 0 setdash
0 setlinecap
1 setlinejoin
10.00 setmiterlimit
np
360.33 191.21 m
13.82 0 l
o
0.00 0.00 425.20 283.46 cl
0.00 0.00 425.20 283.46 cl
/bg { 0.9490 0.9490 0.9490 srgb } def
1 1 1 srgb
1.07 setlinewidth
[] 0 setdash
1 setlinecap
1 setlinejoin
10.00 setmiterlimit
358.60 165.29 17.28 17.28 r p3
0.00 0.00 425.20 283.46 cl
0.00 0.00 425.20 283.46 cl
0.7176 0.6235 0 srgb
1.07 setlinewidth
[] 0 setdash
0 setlinecap
1 setlinejoin
10.00 setmiterlimit
np
360.33 173.93 m
13.82 0 l
o
0.00 0.00 425.20 283.46 cl
0.00 0.00 425.20 283.46 cl
0.7176 0.6235 0 srgb
1.07 setlinewidth
[] 0 setdash
0 setlinecap
1 setlinejoin
10.00 setmiterlimit
np
360.33 173.93 m
13.82 0 l
o
0.00 0.00 425.20 283.46 cl
0.00 0.00 425.20 283.46 cl
0.7176 0.6235 0 srgb
1.07 setlinewidth
[] 0 setdash
0 setlinecap
1 setlinejoin
10.00 setmiterlimit
np
360.33 173.93 m
13.82 0 l
o
0.00 0.00 425.20 283.46 cl
0.00 0.00 425.20 283.46 cl
0.7176 0.6235 0 srgb
1.07 setlinewidth
[] 0 setdash
0 setlinecap
1 setlinejoin
10.00 setmiterlimit
np
360.33 173.93 m
13.82 0 l
o
0.00 0.00 425.20 283.46 cl
0.00 0.00 425.20 283.46 cl
0.7176 0.6235 0 srgb
1.07 setlinewidth
[] 0 setdash
0 setlinecap
1 setlinejoin
10.00 setmiterlimit
np
360.33 173.93 m
13.82 0 l
o
0.00 0.00 425.20 283.46 cl
0.00 0.00 425.20 283.46 cl
0.7176 0.6235 0 srgb
1.07 setlinewidth
[] 0 setdash
0 setlinecap
1 setlinejoin
10.00 setmiterlimit
np
360.33 173.93 m
13.82 0 l
o
0.00 0.00 425.20 283.46 cl
0.00 0.00 425.20 283.46 cl
/bg { 0.9490 0.9490 0.9490 srgb } def
1 1 1 srgb
1.07 setlinewidth
[] 0 setdash
1 setlinecap
1 setlinejoin
10.00 setmiterlimit
358.60 148.01 17.28 17.28 r p3
0.00 0.00 425.20 283.46 cl
0.00 0.00 425.20 283.46 cl
0 0.7294 0.2196 srgb
1.07 setlinewidth
[] 0 setdash
0 setlinecap
1 setlinejoin
10.00 setmiterlimit
np
360.33 156.65 m
13.82 0 l
o
0.00 0.00 425.20 283.46 cl
0.00 0.00 425.20 283.46 cl
0 0.7294 0.2196 srgb
1.07 setlinewidth
[] 0 setdash
0 setlinecap
1 setlinejoin
10.00 setmiterlimit
np
360.33 156.65 m
13.82 0 l
o
0.00 0.00 425.20 283.46 cl
0.00 0.00 425.20 283.46 cl
0 0.7294 0.2196 srgb
1.07 setlinewidth
[] 0 setdash
0 setlinecap
1 setlinejoin
10.00 setmiterlimit
np
360.33 156.65 m
13.82 0 l
o
0.00 0.00 425.20 283.46 cl
0.00 0.00 425.20 283.46 cl
0 0.7294 0.2196 srgb
1.07 setlinewidth
[] 0 setdash
0 setlinecap
1 setlinejoin
10.00 setmiterlimit
np
360.33 156.65 m
13.82 0 l
o
0.00 0.00 425.20 283.46 cl
0.00 0.00 425.20 283.46 cl
0 0.7294 0.2196 srgb
1.07 setlinewidth
[] 0 setdash
0 setlinecap
1 setlinejoin
10.00 setmiterlimit
np
360.33 156.65 m
13.82 0 l
o
0.00 0.00 425.20 283.46 cl
0.00 0.00 425.20 283.46 cl
0 0.7294 0.2196 srgb
1.07 setlinewidth
[] 0 setdash
0 setlinecap
1 setlinejoin
10.00 setmiterlimit
np
360.33 156.65 m
13.82 0 l
o
0.00 0.00 425.20 283.46 cl
0.00 0.00 425.20 283.46 cl
/bg { 0.9490 0.9490 0.9490 srgb } def
1 1 1 srgb
1.07 setlinewidth
[] 0 setdash
1 setlinecap
1 setlinejoin
10.00 setmiterlimit
358.60 130.73 17.28 17.28 r p3
0.00 0.00 425.20 283.46 cl
0.00 0.00 425.20 283.46 cl
0 0.7490 0.7686 srgb
1.07 setlinewidth
[] 0 setdash
0 setlinecap
1 setlinejoin
10.00 setmiterlimit
np
360.33 139.37 m
13.82 0 l
o
0.00 0.00 425.20 283.46 cl
0.00 0.00 425.20 283.46 cl
0 0.7490 0.7686 srgb
1.07 setlinewidth
[] 0 setdash
0 setlinecap
1 setlinejoin
10.00 setmiterlimit
np
360.33 139.37 m
13.82 0 l
o
0.00 0.00 425.20 283.46 cl
0.00 0.00 425.20 283.46 cl
0 0.7490 0.7686 srgb
1.07 setlinewidth
[] 0 setdash
0 setlinecap
1 setlinejoin
10.00 setmiterlimit
np
360.33 139.37 m
13.82 0 l
o
0.00 0.00 425.20 283.46 cl
0.00 0.00 425.20 283.46 cl
0 0.7490 0.7686 srgb
1.07 setlinewidth
[] 0 setdash
0 setlinecap
1 setlinejoin
10.00 setmiterlimit
np
360.33 139.37 m
13.82 0 l
o
0.00 0.00 425.20 283.46 cl
0.00 0.00 425.20 283.46 cl
0 0.7490 0.7686 srgb
1.07 setlinewidth
[] 0 setdash
0 setlinecap
1 setlinejoin
10.00 setmiterlimit
np
360.33 139.37 m
13.82 0 l
o
0.00 0.00 425.20 283.46 cl
0.00 0.00 425.20 283.46 cl
0 0.7490 0.7686 srgb
1.07 setlinewidth
[] 0 setdash
0 setlinecap
1 setlinejoin
10.00 setmiterlimit
np
360.33 139.37 m
13.82 0 l
o
0.00 0.00 425.20 283.46 cl
0.00 0.00 425.20 283.46 cl
/bg { 0.9490 0.9490 0.9490 srgb } def
1 1 1 srgb
1.07 setlinewidth
[] 0 setdash
1 setlinecap
1 setlinejoin
10.00 setmiterlimit
358.60 113.45 17.28 17.28 r p3
0.00 0.00 425.20 283.46 cl
0.00 0.00 425.20 283.46 cl
0.3804 0.6118 1 srgb
1.07 setlinewidth
[] 0 setdash
0 setlinecap
1 setlinejoin
10.00 setmiterlimit
np
360.33 122.09 m
13.82 0 l
o
0.00 0.00 425.20 283.46 cl
0.00 0.00 425.20 283.46 cl
0.3804 0.6118 1 srgb
1.07 setlinewidth
[] 0 setdash
0 setlinecap
1 setlinejoin
10.00 setmiterlimit
np
360.33 122.09 m
13.82 0 l
o
0.00 0.00 425.20 283.46 cl
0.00 0.00 425.20 283.46 cl
0.3804 0.6118 1 srgb
1.07 setlinewidth
[] 0 setdash
0 setlinecap
1 setlinejoin
10.00 setmiterlimit
np
360.33 122.09 m
13.82 0 l
o
0.00 0.00 425.20 283.46 cl
0.00 0.00 425.20 283.46 cl
0.3804 0.6118 1 srgb
1.07 setlinewidth
[] 0 setdash
0 setlinecap
1 setlinejoin
10.00 setmiterlimit
np
360.33 122.09 m
13.82 0 l
o
0.00 0.00 425.20 283.46 cl
0.00 0.00 425.20 283.46 cl
0.3804 0.6118 1 srgb
1.07 setlinewidth
[] 0 setdash
0 setlinecap
1 setlinejoin
10.00 setmiterlimit
np
360.33 122.09 m
13.82 0 l
o
0.00 0.00 425.20 283.46 cl
0.00 0.00 425.20 283.46 cl
0.3804 0.6118 1 srgb
1.07 setlinewidth
[] 0 setdash
0 setlinecap
1 setlinejoin
10.00 setmiterlimit
np
360.33 122.09 m
13.82 0 l
o
0.00 0.00 425.20 283.46 cl
0.00 0.00 425.20 283.46 cl
/bg { 0.9490 0.9490 0.9490 srgb } def
1 1 1 srgb
1.07 setlinewidth
[] 0 setdash
1 setlinecap
1 setlinejoin
10.00 setmiterlimit
358.60 96.17 17.28 17.28 r p3
0.00 0.00 425.20 283.46 cl
0.00 0.00 425.20 283.46 cl
0.9608 0.3922 0.8902 srgb
1.07 setlinewidth
[] 0 setdash
0 setlinecap
1 setlinejoin
10.00 setmiterlimit
np
360.33 104.81 m
13.82 0 l
o
0.00 0.00 425.20 283.46 cl
0.00 0.00 425.20 283.46 cl
0.9608 0.3922 0.8902 srgb
1.07 setlinewidth
[] 0 setdash
0 setlinecap
1 setlinejoin
10.00 setmiterlimit
np
360.33 104.81 m
13.82 0 l
o
0.00 0.00 425.20 283.46 cl
0.00 0.00 425.20 283.46 cl
0.9608 0.3922 0.8902 srgb
1.07 setlinewidth
[] 0 setdash
0 setlinecap
1 setlinejoin
10.00 setmiterlimit
np
360.33 104.81 m
13.82 0 l
o
0.00 0.00 425.20 283.46 cl
0.00 0.00 425.20 283.46 cl
0.9608 0.3922 0.8902 srgb
1.07 setlinewidth
[] 0 setdash
0 setlinecap
1 setlinejoin
10.00 setmiterlimit
np
360.33 104.81 m
13.82 0 l
o
0.00 0.00 425.20 283.46 cl
0.00 0.00 425.20 283.46 cl
0.9608 0.3922 0.8902 srgb
1.07 setlinewidth
[] 0 setdash
0 setlinecap
1 setlinejoin
10.00 setmiterlimit
np
360.33 104.81 m
13.82 0 l
o
0.00 0.00 425.20 283.46 cl
0.00 0.00 425.20 283.46 cl
0.9608 0.3922 0.8902 srgb
1.07 setlinewidth
[] 0 setdash
0 setlinecap
1 setlinejoin
10.00 setmiterlimit
np
360.33 104.81 m
13.82 0 l
o
0.00 0.00 425.20 283.46 cl
0.00 0.00 425.20 283.46 cl
/Font1 findfont 9 s
0 0 0 srgb
378.04 187.98 (gcc_bf) 0 0 t
0.00 0.00 425.20 283.46 cl
0.00 0.00 425.20 283.46 cl
/Font1 findfont 9 s
0 0 0 srgb
378.04 170.70 (gcc_ms2) 0 0 t
0.00 0.00 425.20 283.46 cl
0.00 0.00 425.20 283.46 cl
/Font1 findfont 9 s
0 0 0 srgb
378.04 153.42 (gcc_ms3) 0 0 t
0.00 0.00 425.20 283.46 cl
0.00 0.00 425.20 283.46 cl
/Font1 findfont 9 s
0 0 0 srgb
378.04 136.14 (icc_bf) 0 0 t
0.00 0.00 425.20 283.46 cl
0.00 0.00 425.20 283.46 cl
/Font1 findfont 9 s
0 0 0 srgb
378.04 118.86 (icc_ms2) 0 0 t
0.00 0.00 425.20 283.46 cl
0.00 0.00 425.20 283.46 cl
/Font1 findfont 9 s
0 0 0 srgb
378.04 101.58 (icc_ms3) 0 0 t
0.00 0.00 425.20 283.46 cl
0.00 0.00 425.20 283.46 cl
0.00 0.00 425.20 283.46 cl
0.00 0.00 425.20 283.46 cl
0.00 0.00 425.20 283.46 cl
0.00 0.00 425.20 283.46 cl
0.00 0.00 425.20 283.46 cl
0.00 0.00 425.20 283.46 cl
0.00 0.00 425.20 283.46 cl
0.00 0.00 425.20 283.46 cl
ep
%%Trailer
%%Pages: 1
%%EOF
