%!PS-Adobe-3.0 EPSF-3.0
%%DocumentNeededResources: font Helvetica
%%+ font Helvetica-Bold
%%+ font Helvetica-Oblique
%%+ font Helvetica-BoldOblique
%%+ font Symbol
%%Title: R Graphics Output
%%Creator: R Software
%%Pages: (atend)
%%BoundingBox: 0 0 425 283
%%EndComments
%%BeginProlog
/bp  { gs sRGB gs } def
% begin .ps.prolog
/gs  { gsave } bind def
/gr  { grestore } bind def
/ep  { showpage gr gr } bind def
/m   { moveto } bind def
/l  { rlineto } bind def
/np  { newpath } bind def
/cp  { closepath } bind def
/f   { fill } bind def
/o   { stroke } bind def
/c   { newpath 0 360 arc } bind def
/r   { 4 2 roll moveto 1 copy 3 -1 roll exch 0 exch rlineto 0 rlineto -1 mul 0 exch rlineto closepath } bind def
/p1  { stroke } bind def
/p2  { gsave bg fill grestore newpath } bind def
/p3  { gsave bg fill grestore stroke } bind def
/p6  { gsave bg eofill grestore newpath } bind def
/p7  { gsave bg eofill grestore stroke } bind def
/t   { 5 -2 roll moveto gsave rotate
       1 index stringwidth pop
       mul neg 0 rmoveto show grestore } bind def
/ta  { 4 -2 roll moveto gsave rotate show } bind def
/tb  { 2 -1 roll 0 rmoveto show } bind def
/cl  { grestore gsave newpath 3 index 3 index moveto 1 index
       4 -1 roll lineto  exch 1 index lineto lineto
       closepath clip newpath } bind def
/rgb { setrgbcolor } bind def
/s   { scalefont setfont } bind def
% end   .ps.prolog
/sRGB { [ /CIEBasedABC
          << /DecodeLMN
               [ { dup 0.03928 le
                        {12.92321 div}
                        {0.055 add 1.055 div 2.4 exp }
                     ifelse
                 } bind dup dup
               ]
             /MatrixLMN [0.412457 0.212673 0.019334
                         0.357576 0.715152 0.119192
                         0.180437 0.072175 0.950301]
             /WhitePoint [0.9505 1.0 1.0890]
           >>
         ] setcolorspace } bind def
/srgb { setcolor } bind def
%%IncludeResource: font Helvetica
/Helvetica findfont
dup length dict begin
  {1 index /FID ne {def} {pop pop} ifelse} forall
  /Encoding ISOLatin1Encoding def
  currentdict
  end
/Font1 exch definefont pop
%%IncludeResource: font Helvetica-Bold
/Helvetica-Bold findfont
dup length dict begin
  {1 index /FID ne {def} {pop pop} ifelse} forall
  /Encoding ISOLatin1Encoding def
  currentdict
  end
/Font2 exch definefont pop
%%IncludeResource: font Helvetica-Oblique
/Helvetica-Oblique findfont
dup length dict begin
  {1 index /FID ne {def} {pop pop} ifelse} forall
  /Encoding ISOLatin1Encoding def
  currentdict
  end
/Font3 exch definefont pop
%%IncludeResource: font Helvetica-BoldOblique
/Helvetica-BoldOblique findfont
dup length dict begin
  {1 index /FID ne {def} {pop pop} ifelse} forall
  /Encoding ISOLatin1Encoding def
  currentdict
  end
/Font4 exch definefont pop
%%IncludeResource: font Symbol
/Symbol findfont
dup length dict begin
  {1 index /FID ne {def} {pop pop} ifelse} forall
  currentdict
  end
/Font5 exch definefont pop
%%EndProlog
%%Page: 1 1
bp
0.00 0.00 425.20 283.46 cl
0.00 0.00 425.20 283.46 cl
0.00 0.00 425.20 283.46 cl
0.00 0.00 425.20 283.46 cl
0.00 0.00 425.20 283.46 cl
0.00 0.00 425.20 283.46 cl
0.00 0.00 425.20 283.46 cl
0.00 0.00 425.20 283.46 cl
0.00 0.00 425.20 283.46 cl
0.00 0.00 425.20 283.46 cl
/bg { 1 1 1 srgb } def
1 1 1 srgb
1.07 setlinewidth
[] 0 setdash
1 setlinecap
1 setlinejoin
10.00 setmiterlimit
0.00 0.00 425.20 283.46 r p3
0.00 0.00 425.20 283.46 cl
40.30 30.25 347.09 277.99 cl
/bg { 0.9216 0.9216 0.9216 srgb } def
40.30 30.25 306.79 247.73 r p2
1 1 1 srgb
0.53 setlinewidth
[] 0 setdash
0 setlinecap
1 setlinejoin
10.00 setmiterlimit
np
40.30 68.04 m
306.79 0 l
o
np
40.30 121.09 m
306.79 0 l
o
np
40.30 174.15 m
306.79 0 l
o
np
40.30 227.20 m
306.79 0 l
o
np
77.01 30.25 m
0 247.74 l
o
np
133.93 30.25 m
0 247.74 l
o
np
190.85 30.25 m
0 247.74 l
o
np
247.77 30.25 m
0 247.74 l
o
np
304.69 30.25 m
0 247.74 l
o
1.07 setlinewidth
[] 0 setdash
np
40.30 41.51 m
306.79 0 l
o
np
40.30 94.56 m
306.79 0 l
o
np
40.30 147.62 m
306.79 0 l
o
np
40.30 200.67 m
306.79 0 l
o
np
40.30 253.73 m
306.79 0 l
o
np
48.55 30.25 m
0 247.74 l
o
np
105.47 30.25 m
0 247.74 l
o
np
162.39 30.25 m
0 247.74 l
o
np
219.31 30.25 m
0 247.74 l
o
np
276.23 30.25 m
0 247.74 l
o
np
333.15 30.25 m
0 247.74 l
o
0 0.7490 0.7686 srgb
1.00 setmiterlimit
np
54.25 41.51 m
5.69 0 l
5.69 0 l
5.69 0 l
5.69 0 l
5.69 0 l
5.70 0 l
5.69 0.27 l
5.69 0 l
5.69 0 l
5.69 0.26 l
5.70 0 l
5.69 0.27 l
5.69 0 l
5.69 0.26 l
5.69 0.27 l
5.69 0 l
5.70 0.26 l
5.69 0.27 l
5.69 0.26 l
5.69 0.27 l
5.69 0.26 l
5.70 0 l
5.69 0.27 l
5.69 0.53 l
5.69 0.26 l
5.69 0.27 l
5.69 0.27 l
5.70 0.53 l
5.69 0.26 l
5.69 0.27 l
5.69 0.53 l
5.69 0.26 l
5.70 0.53 l
5.69 0.27 l
5.69 0.53 l
5.69 0.53 l
5.69 0.26 l
5.70 0.53 l
5.69 0.54 l
5.69 0.79 l
5.69 0.27 l
5.69 0.53 l
5.69 0.53 l
5.70 0.53 l
5.69 0.53 l
5.69 0.53 l
5.69 0.80 l
5.69 0.53 l
5.70 0.79 l
o
0.3804 0.6118 1 srgb
np
54.25 41.51 m
5.69 0.27 l
5.69 0.26 l
5.69 0.53 l
5.69 0.80 l
5.69 0.79 l
5.70 1.06 l
5.69 1.33 l
5.69 1.33 l
5.69 1.32 l
5.69 1.86 l
5.70 1.86 l
5.69 1.85 l
5.69 2.13 l
5.69 2.38 l
5.69 2.39 l
5.69 2.65 l
5.70 2.39 l
5.69 2.92 l
5.69 2.92 l
5.69 3.18 l
5.69 3.18 l
5.70 3.45 l
5.69 3.45 l
5.69 3.98 l
5.69 3.98 l
5.69 4.24 l
5.69 3.98 l
5.70 4.25 l
5.69 4.51 l
5.69 4.77 l
5.69 5.04 l
5.69 4.78 l
5.70 5.30 l
5.69 5.04 l
5.69 5.04 l
5.69 6.63 l
5.69 5.04 l
5.70 6.10 l
5.69 6.64 l
5.69 5.57 l
5.69 6.36 l
5.69 6.90 l
5.69 6.37 l
5.70 7.16 l
5.69 6.63 l
5.69 9.29 l
5.69 5.30 l
5.69 7.96 l
5.70 7.16 l
o
0.9608 0.3922 0.8902 srgb
np
54.25 41.51 m
5.69 0 l
5.69 0 l
5.69 0.27 l
5.69 0.26 l
5.69 0.27 l
5.70 0.26 l
5.69 0.53 l
5.69 0.53 l
5.69 0.53 l
5.69 0.53 l
5.70 0.53 l
5.69 0.80 l
5.69 0.80 l
5.69 0.79 l
5.69 0.80 l
5.69 1.06 l
5.70 1.06 l
5.69 0.80 l
5.69 1.32 l
5.69 1.06 l
5.69 1.06 l
5.70 1.33 l
5.69 1.33 l
5.69 1.32 l
5.69 1.33 l
5.69 1.33 l
5.69 1.59 l
5.70 1.32 l
5.69 1.60 l
5.69 1.85 l
5.69 1.59 l
5.69 1.60 l
5.70 2.65 l
5.69 2.12 l
5.69 0.53 l
5.69 2.39 l
5.69 2.12 l
5.70 2.12 l
5.69 2.13 l
5.69 2.12 l
5.69 2.12 l
5.69 2.65 l
5.69 1.59 l
5.70 2.92 l
5.69 2.39 l
5.69 2.39 l
5.69 2.91 l
5.69 2.39 l
5.70 2.39 l
o
0.9725 0.4627 0.4275 srgb
np
54.25 41.51 m
5.69 0 l
5.69 0 l
5.69 0 l
5.69 0 l
5.69 0.27 l
5.70 0 l
5.69 0.26 l
5.69 0 l
5.69 0.27 l
5.69 0.26 l
5.70 0.27 l
5.69 0.26 l
5.69 0.27 l
5.69 0.26 l
5.69 0.27 l
5.69 0.26 l
5.70 0.53 l
5.69 0.27 l
5.69 0.53 l
5.69 0.27 l
5.69 0.53 l
5.70 0.53 l
5.69 0.53 l
5.69 0.53 l
5.69 0.53 l
5.69 0.53 l
5.69 0.53 l
5.70 0.53 l
5.69 0.80 l
5.69 0.53 l
5.69 0.79 l
5.69 0.80 l
5.70 0.53 l
5.69 0.53 l
5.69 1.06 l
5.69 0.80 l
5.69 0.79 l
5.70 0.53 l
5.69 1.06 l
5.69 0.80 l
5.69 0.79 l
5.69 1.07 l
5.69 0.53 l
5.70 1.06 l
5.69 1.06 l
5.69 1.06 l
5.69 0.53 l
5.69 1.06 l
5.70 1.06 l
o
0.7176 0.6235 0 srgb
np
54.25 41.51 m
5.69 0.27 l
5.69 0.53 l
5.69 0.53 l
5.69 0.79 l
5.69 1.06 l
5.70 1.33 l
5.69 1.33 l
5.69 1.59 l
5.69 1.86 l
5.69 1.85 l
5.70 2.12 l
5.69 2.39 l
5.69 2.65 l
5.69 2.39 l
5.69 2.65 l
5.69 2.92 l
5.70 3.19 l
5.69 3.44 l
5.69 3.98 l
5.69 3.19 l
5.69 3.71 l
5.70 4.24 l
5.69 3.98 l
5.69 -0.53 l
5.69 12.74 l
5.69 1.85 l
5.69 5.04 l
5.70 4.51 l
5.69 5.84 l
5.69 5.57 l
5.69 5.84 l
5.69 5.30 l
5.70 6.10 l
5.69 6.10 l
5.69 6.37 l
5.69 6.37 l
5.69 6.63 l
5.70 7.16 l
5.69 1.86 l
5.69 9.28 l
5.69 2.39 l
5.69 16.18 l
5.69 7.43 l
5.70 8.22 l
5.69 8.49 l
5.69 7.69 l
5.69 -3.18 l
5.69 19.36 l
5.70 10.61 l
o
0 0.7294 0.2196 srgb
np
54.25 41.51 m
5.69 0 l
5.69 0.27 l
5.69 0.26 l
5.69 0.27 l
5.69 0.53 l
5.70 0.53 l
5.69 0.53 l
5.69 0.53 l
5.69 0.79 l
5.69 1.07 l
5.70 0.79 l
5.69 1.06 l
5.69 1.06 l
5.69 1.33 l
5.69 1.06 l
5.69 1.33 l
5.70 1.32 l
5.69 1.60 l
5.69 1.59 l
5.69 1.32 l
5.69 1.86 l
5.70 1.86 l
5.69 1.59 l
5.69 2.12 l
5.69 1.86 l
5.69 1.85 l
5.69 2.13 l
5.70 2.38 l
5.69 2.13 l
5.69 2.38 l
5.69 2.66 l
5.69 2.12 l
5.70 3.18 l
5.69 2.39 l
5.69 2.39 l
5.69 2.91 l
5.69 4.25 l
5.70 1.59 l
5.69 4.25 l
5.69 1.85 l
5.69 3.19 l
5.69 3.44 l
5.69 3.19 l
5.70 6.36 l
5.69 2.66 l
5.69 1.32 l
5.69 4.25 l
5.69 5.57 l
5.70 2.12 l
o
0.00 0.00 425.20 283.46 cl
0.00 0.00 425.20 283.46 cl
0.00 0.00 425.20 283.46 cl
0.00 0.00 425.20 283.46 cl
0.00 0.00 425.20 283.46 cl
0.00 0.00 425.20 283.46 cl
0.00 0.00 425.20 283.46 cl
0.00 0.00 425.20 283.46 cl
0.00 0.00 425.20 283.46 cl
0.00 0.00 425.20 283.46 cl
0.00 0.00 425.20 283.46 cl
0.00 0.00 425.20 283.46 cl
0.00 0.00 425.20 283.46 cl
0.00 0.00 425.20 283.46 cl
0.00 0.00 425.20 283.46 cl
0.00 0.00 425.20 283.46 cl
/Font1 findfont 9 s
0.3020 0.3020 0.3020 srgb
35.37 38.28 (0) 1 0 t
35.37 91.33 (200) 1 0 t
35.37 144.39 (400) 1 0 t
35.37 197.44 (600) 1 0 t
35.37 250.50 (800) 1 0 t
0.00 0.00 425.20 283.46 cl
0.00 0.00 425.20 283.46 cl
0.2000 0.2000 0.2000 srgb
1.07 setlinewidth
[] 0 setdash
0 setlinecap
1 setlinejoin
10.00 setmiterlimit
np
37.56 41.51 m
2.74 0 l
o
np
37.56 94.56 m
2.74 0 l
o
np
37.56 147.62 m
2.74 0 l
o
np
37.56 200.67 m
2.74 0 l
o
np
37.56 253.73 m
2.74 0 l
o
0.00 0.00 425.20 283.46 cl
0.00 0.00 425.20 283.46 cl
0.00 0.00 425.20 283.46 cl
0.00 0.00 425.20 283.46 cl
0.00 0.00 425.20 283.46 cl
0.00 0.00 425.20 283.46 cl
0.00 0.00 425.20 283.46 cl
0.00 0.00 425.20 283.46 cl
0.00 0.00 425.20 283.46 cl
0.00 0.00 425.20 283.46 cl
0.2000 0.2000 0.2000 srgb
1.07 setlinewidth
[] 0 setdash
0 setlinecap
1 setlinejoin
10.00 setmiterlimit
np
48.55 27.51 m
0 2.74 l
o
np
105.47 27.51 m
0 2.74 l
o
np
162.39 27.51 m
0 2.74 l
o
np
219.31 27.51 m
0 2.74 l
o
np
276.23 27.51 m
0 2.74 l
o
np
333.15 27.51 m
0 2.74 l
o
0.00 0.00 425.20 283.46 cl
0.00 0.00 425.20 283.46 cl
/Font1 findfont 9 s
0.3020 0.3020 0.3020 srgb
48.55 18.86 (0) .5 0 t
105.47 18.86 (10000) .5 0 t
162.39 18.86 (20000) .5 0 t
219.31 18.86 (30000) .5 0 t
276.23 18.86 (40000) .5 0 t
333.15 18.86 (50000) .5 0 t
0.00 0.00 425.20 283.46 cl
0.00 0.00 425.20 283.46 cl
0.00 0.00 425.20 283.46 cl
0.00 0.00 425.20 283.46 cl
0.00 0.00 425.20 283.46 cl
0.00 0.00 425.20 283.46 cl
/Font1 findfont 11 s
0 0 0 srgb
193.70 5.48 (n) .5 0 t
0.00 0.00 425.20 283.46 cl
0.00 0.00 425.20 283.46 cl
/Font1 findfont 11 s
0 0 0 srgb
13.38 154.12 (icc_bf) .5 90 t
0.00 0.00 425.20 283.46 cl
0.00 0.00 425.20 283.46 cl
0.00 0.00 425.20 283.46 cl
0.00 0.00 425.20 283.46 cl
0.00 0.00 425.20 283.46 cl
0.00 0.00 425.20 283.46 cl
0.00 0.00 425.20 283.46 cl
0.00 0.00 425.20 283.46 cl
/bg { 1 1 1 srgb } def
358.43 90.50 61.29 127.24 r p2
0.00 0.00 425.20 283.46 cl
0.00 0.00 425.20 283.46 cl
/Font1 findfont 11 s
0 0 0 srgb
364.10 204.17 (colour) 0 0 t
0.00 0.00 425.20 283.46 cl
0.00 0.00 425.20 283.46 cl
/bg { 0.9490 0.9490 0.9490 srgb } def
1 1 1 srgb
1.07 setlinewidth
[] 0 setdash
1 setlinecap
1 setlinejoin
10.00 setmiterlimit
364.10 182.57 17.28 17.28 r p3
0.00 0.00 425.20 283.46 cl
0.00 0.00 425.20 283.46 cl
0.9725 0.4627 0.4275 srgb
1.07 setlinewidth
[] 0 setdash
0 setlinecap
1 setlinejoin
10.00 setmiterlimit
np
365.83 191.21 m
13.82 0 l
o
0.00 0.00 425.20 283.46 cl
0.00 0.00 425.20 283.46 cl
0.9725 0.4627 0.4275 srgb
1.07 setlinewidth
[] 0 setdash
0 setlinecap
1 setlinejoin
10.00 setmiterlimit
np
365.83 191.21 m
13.82 0 l
o
0.00 0.00 425.20 283.46 cl
0.00 0.00 425.20 283.46 cl
0.9725 0.4627 0.4275 srgb
1.07 setlinewidth
[] 0 setdash
0 setlinecap
1 setlinejoin
10.00 setmiterlimit
np
365.83 191.21 m
13.82 0 l
o
0.00 0.00 425.20 283.46 cl
0.00 0.00 425.20 283.46 cl
0.9725 0.4627 0.4275 srgb
1.07 setlinewidth
[] 0 setdash
0 setlinecap
1 setlinejoin
10.00 setmiterlimit
np
365.83 191.21 m
13.82 0 l
o
0.00 0.00 425.20 283.46 cl
0.00 0.00 425.20 283.46 cl
0.9725 0.4627 0.4275 srgb
1.07 setlinewidth
[] 0 setdash
0 setlinecap
1 setlinejoin
10.00 setmiterlimit
np
365.83 191.21 m
13.82 0 l
o
0.00 0.00 425.20 283.46 cl
0.00 0.00 425.20 283.46 cl
0.9725 0.4627 0.4275 srgb
1.07 setlinewidth
[] 0 setdash
0 setlinecap
1 setlinejoin
10.00 setmiterlimit
np
365.83 191.21 m
13.82 0 l
o
0.00 0.00 425.20 283.46 cl
0.00 0.00 425.20 283.46 cl
/bg { 0.9490 0.9490 0.9490 srgb } def
1 1 1 srgb
1.07 setlinewidth
[] 0 setdash
1 setlinecap
1 setlinejoin
10.00 setmiterlimit
364.10 165.29 17.28 17.28 r p3
0.00 0.00 425.20 283.46 cl
0.00 0.00 425.20 283.46 cl
0.7176 0.6235 0 srgb
1.07 setlinewidth
[] 0 setdash
0 setlinecap
1 setlinejoin
10.00 setmiterlimit
np
365.83 173.93 m
13.82 0 l
o
0.00 0.00 425.20 283.46 cl
0.00 0.00 425.20 283.46 cl
0.7176 0.6235 0 srgb
1.07 setlinewidth
[] 0 setdash
0 setlinecap
1 setlinejoin
10.00 setmiterlimit
np
365.83 173.93 m
13.82 0 l
o
0.00 0.00 425.20 283.46 cl
0.00 0.00 425.20 283.46 cl
0.7176 0.6235 0 srgb
1.07 setlinewidth
[] 0 setdash
0 setlinecap
1 setlinejoin
10.00 setmiterlimit
np
365.83 173.93 m
13.82 0 l
o
0.00 0.00 425.20 283.46 cl
0.00 0.00 425.20 283.46 cl
0.7176 0.6235 0 srgb
1.07 setlinewidth
[] 0 setdash
0 setlinecap
1 setlinejoin
10.00 setmiterlimit
np
365.83 173.93 m
13.82 0 l
o
0.00 0.00 425.20 283.46 cl
0.00 0.00 425.20 283.46 cl
0.7176 0.6235 0 srgb
1.07 setlinewidth
[] 0 setdash
0 setlinecap
1 setlinejoin
10.00 setmiterlimit
np
365.83 173.93 m
13.82 0 l
o
0.00 0.00 425.20 283.46 cl
0.00 0.00 425.20 283.46 cl
0.7176 0.6235 0 srgb
1.07 setlinewidth
[] 0 setdash
0 setlinecap
1 setlinejoin
10.00 setmiterlimit
np
365.83 173.93 m
13.82 0 l
o
0.00 0.00 425.20 283.46 cl
0.00 0.00 425.20 283.46 cl
/bg { 0.9490 0.9490 0.9490 srgb } def
1 1 1 srgb
1.07 setlinewidth
[] 0 setdash
1 setlinecap
1 setlinejoin
10.00 setmiterlimit
364.10 148.01 17.28 17.28 r p3
0.00 0.00 425.20 283.46 cl
0.00 0.00 425.20 283.46 cl
0 0.7294 0.2196 srgb
1.07 setlinewidth
[] 0 setdash
0 setlinecap
1 setlinejoin
10.00 setmiterlimit
np
365.83 156.65 m
13.82 0 l
o
0.00 0.00 425.20 283.46 cl
0.00 0.00 425.20 283.46 cl
0 0.7294 0.2196 srgb
1.07 setlinewidth
[] 0 setdash
0 setlinecap
1 setlinejoin
10.00 setmiterlimit
np
365.83 156.65 m
13.82 0 l
o
0.00 0.00 425.20 283.46 cl
0.00 0.00 425.20 283.46 cl
0 0.7294 0.2196 srgb
1.07 setlinewidth
[] 0 setdash
0 setlinecap
1 setlinejoin
10.00 setmiterlimit
np
365.83 156.65 m
13.82 0 l
o
0.00 0.00 425.20 283.46 cl
0.00 0.00 425.20 283.46 cl
0 0.7294 0.2196 srgb
1.07 setlinewidth
[] 0 setdash
0 setlinecap
1 setlinejoin
10.00 setmiterlimit
np
365.83 156.65 m
13.82 0 l
o
0.00 0.00 425.20 283.46 cl
0.00 0.00 425.20 283.46 cl
0 0.7294 0.2196 srgb
1.07 setlinewidth
[] 0 setdash
0 setlinecap
1 setlinejoin
10.00 setmiterlimit
np
365.83 156.65 m
13.82 0 l
o
0.00 0.00 425.20 283.46 cl
0.00 0.00 425.20 283.46 cl
0 0.7294 0.2196 srgb
1.07 setlinewidth
[] 0 setdash
0 setlinecap
1 setlinejoin
10.00 setmiterlimit
np
365.83 156.65 m
13.82 0 l
o
0.00 0.00 425.20 283.46 cl
0.00 0.00 425.20 283.46 cl
/bg { 0.9490 0.9490 0.9490 srgb } def
1 1 1 srgb
1.07 setlinewidth
[] 0 setdash
1 setlinecap
1 setlinejoin
10.00 setmiterlimit
364.10 130.73 17.28 17.28 r p3
0.00 0.00 425.20 283.46 cl
0.00 0.00 425.20 283.46 cl
0 0.7490 0.7686 srgb
1.07 setlinewidth
[] 0 setdash
0 setlinecap
1 setlinejoin
10.00 setmiterlimit
np
365.83 139.37 m
13.82 0 l
o
0.00 0.00 425.20 283.46 cl
0.00 0.00 425.20 283.46 cl
0 0.7490 0.7686 srgb
1.07 setlinewidth
[] 0 setdash
0 setlinecap
1 setlinejoin
10.00 setmiterlimit
np
365.83 139.37 m
13.82 0 l
o
0.00 0.00 425.20 283.46 cl
0.00 0.00 425.20 283.46 cl
0 0.7490 0.7686 srgb
1.07 setlinewidth
[] 0 setdash
0 setlinecap
1 setlinejoin
10.00 setmiterlimit
np
365.83 139.37 m
13.82 0 l
o
0.00 0.00 425.20 283.46 cl
0.00 0.00 425.20 283.46 cl
0 0.7490 0.7686 srgb
1.07 setlinewidth
[] 0 setdash
0 setlinecap
1 setlinejoin
10.00 setmiterlimit
np
365.83 139.37 m
13.82 0 l
o
0.00 0.00 425.20 283.46 cl
0.00 0.00 425.20 283.46 cl
0 0.7490 0.7686 srgb
1.07 setlinewidth
[] 0 setdash
0 setlinecap
1 setlinejoin
10.00 setmiterlimit
np
365.83 139.37 m
13.82 0 l
o
0.00 0.00 425.20 283.46 cl
0.00 0.00 425.20 283.46 cl
0 0.7490 0.7686 srgb
1.07 setlinewidth
[] 0 setdash
0 setlinecap
1 setlinejoin
10.00 setmiterlimit
np
365.83 139.37 m
13.82 0 l
o
0.00 0.00 425.20 283.46 cl
0.00 0.00 425.20 283.46 cl
/bg { 0.9490 0.9490 0.9490 srgb } def
1 1 1 srgb
1.07 setlinewidth
[] 0 setdash
1 setlinecap
1 setlinejoin
10.00 setmiterlimit
364.10 113.45 17.28 17.28 r p3
0.00 0.00 425.20 283.46 cl
0.00 0.00 425.20 283.46 cl
0.3804 0.6118 1 srgb
1.07 setlinewidth
[] 0 setdash
0 setlinecap
1 setlinejoin
10.00 setmiterlimit
np
365.83 122.09 m
13.82 0 l
o
0.00 0.00 425.20 283.46 cl
0.00 0.00 425.20 283.46 cl
0.3804 0.6118 1 srgb
1.07 setlinewidth
[] 0 setdash
0 setlinecap
1 setlinejoin
10.00 setmiterlimit
np
365.83 122.09 m
13.82 0 l
o
0.00 0.00 425.20 283.46 cl
0.00 0.00 425.20 283.46 cl
0.3804 0.6118 1 srgb
1.07 setlinewidth
[] 0 setdash
0 setlinecap
1 setlinejoin
10.00 setmiterlimit
np
365.83 122.09 m
13.82 0 l
o
0.00 0.00 425.20 283.46 cl
0.00 0.00 425.20 283.46 cl
0.3804 0.6118 1 srgb
1.07 setlinewidth
[] 0 setdash
0 setlinecap
1 setlinejoin
10.00 setmiterlimit
np
365.83 122.09 m
13.82 0 l
o
0.00 0.00 425.20 283.46 cl
0.00 0.00 425.20 283.46 cl
0.3804 0.6118 1 srgb
1.07 setlinewidth
[] 0 setdash
0 setlinecap
1 setlinejoin
10.00 setmiterlimit
np
365.83 122.09 m
13.82 0 l
o
0.00 0.00 425.20 283.46 cl
0.00 0.00 425.20 283.46 cl
0.3804 0.6118 1 srgb
1.07 setlinewidth
[] 0 setdash
0 setlinecap
1 setlinejoin
10.00 setmiterlimit
np
365.83 122.09 m
13.82 0 l
o
0.00 0.00 425.20 283.46 cl
0.00 0.00 425.20 283.46 cl
/bg { 0.9490 0.9490 0.9490 srgb } def
1 1 1 srgb
1.07 setlinewidth
[] 0 setdash
1 setlinecap
1 setlinejoin
10.00 setmiterlimit
364.10 96.17 17.28 17.28 r p3
0.00 0.00 425.20 283.46 cl
0.00 0.00 425.20 283.46 cl
0.9608 0.3922 0.8902 srgb
1.07 setlinewidth
[] 0 setdash
0 setlinecap
1 setlinejoin
10.00 setmiterlimit
np
365.83 104.81 m
13.82 0 l
o
0.00 0.00 425.20 283.46 cl
0.00 0.00 425.20 283.46 cl
0.9608 0.3922 0.8902 srgb
1.07 setlinewidth
[] 0 setdash
0 setlinecap
1 setlinejoin
10.00 setmiterlimit
np
365.83 104.81 m
13.82 0 l
o
0.00 0.00 425.20 283.46 cl
0.00 0.00 425.20 283.46 cl
0.9608 0.3922 0.8902 srgb
1.07 setlinewidth
[] 0 setdash
0 setlinecap
1 setlinejoin
10.00 setmiterlimit
np
365.83 104.81 m
13.82 0 l
o
0.00 0.00 425.20 283.46 cl
0.00 0.00 425.20 283.46 cl
0.9608 0.3922 0.8902 srgb
1.07 setlinewidth
[] 0 setdash
0 setlinecap
1 setlinejoin
10.00 setmiterlimit
np
365.83 104.81 m
13.82 0 l
o
0.00 0.00 425.20 283.46 cl
0.00 0.00 425.20 283.46 cl
0.9608 0.3922 0.8902 srgb
1.07 setlinewidth
[] 0 setdash
0 setlinecap
1 setlinejoin
10.00 setmiterlimit
np
365.83 104.81 m
13.82 0 l
o
0.00 0.00 425.20 283.46 cl
0.00 0.00 425.20 283.46 cl
0.9608 0.3922 0.8902 srgb
1.07 setlinewidth
[] 0 setdash
0 setlinecap
1 setlinejoin
10.00 setmiterlimit
np
365.83 104.81 m
13.82 0 l
o
0.00 0.00 425.20 283.46 cl
0.00 0.00 425.20 283.46 cl
/Font1 findfont 9 s
0 0 0 srgb
383.54 187.98 (gcc_bf) 0 0 t
0.00 0.00 425.20 283.46 cl
0.00 0.00 425.20 283.46 cl
/Font1 findfont 9 s
0 0 0 srgb
383.54 170.70 (gcc_is1) 0 0 t
0.00 0.00 425.20 283.46 cl
0.00 0.00 425.20 283.46 cl
/Font1 findfont 9 s
0 0 0 srgb
383.54 153.42 (gcc_is2) 0 0 t
0.00 0.00 425.20 283.46 cl
0.00 0.00 425.20 283.46 cl
/Font1 findfont 9 s
0 0 0 srgb
383.54 136.14 (icc_bf) 0 0 t
0.00 0.00 425.20 283.46 cl
0.00 0.00 425.20 283.46 cl
/Font1 findfont 9 s
0 0 0 srgb
383.54 118.86 (icc_is1) 0 0 t
0.00 0.00 425.20 283.46 cl
0.00 0.00 425.20 283.46 cl
/Font1 findfont 9 s
0 0 0 srgb
383.54 101.58 (icc_is2) 0 0 t
0.00 0.00 425.20 283.46 cl
0.00 0.00 425.20 283.46 cl
0.00 0.00 425.20 283.46 cl
0.00 0.00 425.20 283.46 cl
0.00 0.00 425.20 283.46 cl
0.00 0.00 425.20 283.46 cl
0.00 0.00 425.20 283.46 cl
0.00 0.00 425.20 283.46 cl
0.00 0.00 425.20 283.46 cl
0.00 0.00 425.20 283.46 cl
ep
%%Trailer
%%Pages: 1
%%EOF
