%!PS-Adobe-3.0 EPSF-3.0
%%DocumentNeededResources: font Helvetica
%%+ font Helvetica-Bold
%%+ font Helvetica-Oblique
%%+ font Helvetica-BoldOblique
%%+ font Symbol
%%Title: R Graphics Output
%%Creator: R Software
%%Pages: (atend)
%%BoundingBox: 0 0 425 283
%%EndComments
%%BeginProlog
/bp  { gs sRGB gs } def
% begin .ps.prolog
/gs  { gsave } bind def
/gr  { grestore } bind def
/ep  { showpage gr gr } bind def
/m   { moveto } bind def
/l  { rlineto } bind def
/np  { newpath } bind def
/cp  { closepath } bind def
/f   { fill } bind def
/o   { stroke } bind def
/c   { newpath 0 360 arc } bind def
/r   { 4 2 roll moveto 1 copy 3 -1 roll exch 0 exch rlineto 0 rlineto -1 mul 0 exch rlineto closepath } bind def
/p1  { stroke } bind def
/p2  { gsave bg fill grestore newpath } bind def
/p3  { gsave bg fill grestore stroke } bind def
/p6  { gsave bg eofill grestore newpath } bind def
/p7  { gsave bg eofill grestore stroke } bind def
/t   { 5 -2 roll moveto gsave rotate
       1 index stringwidth pop
       mul neg 0 rmoveto show grestore } bind def
/ta  { 4 -2 roll moveto gsave rotate show } bind def
/tb  { 2 -1 roll 0 rmoveto show } bind def
/cl  { grestore gsave newpath 3 index 3 index moveto 1 index
       4 -1 roll lineto  exch 1 index lineto lineto
       closepath clip newpath } bind def
/rgb { setrgbcolor } bind def
/s   { scalefont setfont } bind def
% end   .ps.prolog
/sRGB { [ /CIEBasedABC
          << /DecodeLMN
               [ { dup 0.03928 le
                        {12.92321 div}
                        {0.055 add 1.055 div 2.4 exp }
                     ifelse
                 } bind dup dup
               ]
             /MatrixLMN [0.412457 0.212673 0.019334
                         0.357576 0.715152 0.119192
                         0.180437 0.072175 0.950301]
             /WhitePoint [0.9505 1.0 1.0890]
           >>
         ] setcolorspace } bind def
/srgb { setcolor } bind def
%%IncludeResource: font Helvetica
/Helvetica findfont
dup length dict begin
  {1 index /FID ne {def} {pop pop} ifelse} forall
  /Encoding ISOLatin1Encoding def
  currentdict
  end
/Font1 exch definefont pop
%%IncludeResource: font Helvetica-Bold
/Helvetica-Bold findfont
dup length dict begin
  {1 index /FID ne {def} {pop pop} ifelse} forall
  /Encoding ISOLatin1Encoding def
  currentdict
  end
/Font2 exch definefont pop
%%IncludeResource: font Helvetica-Oblique
/Helvetica-Oblique findfont
dup length dict begin
  {1 index /FID ne {def} {pop pop} ifelse} forall
  /Encoding ISOLatin1Encoding def
  currentdict
  end
/Font3 exch definefont pop
%%IncludeResource: font Helvetica-BoldOblique
/Helvetica-BoldOblique findfont
dup length dict begin
  {1 index /FID ne {def} {pop pop} ifelse} forall
  /Encoding ISOLatin1Encoding def
  currentdict
  end
/Font4 exch definefont pop
%%IncludeResource: font Symbol
/Symbol findfont
dup length dict begin
  {1 index /FID ne {def} {pop pop} ifelse} forall
  currentdict
  end
/Font5 exch definefont pop
%%EndProlog
%%Page: 1 1
bp
0.00 0.00 425.20 283.46 cl
0.00 0.00 425.20 283.46 cl
0.00 0.00 425.20 283.46 cl
0.00 0.00 425.20 283.46 cl
0.00 0.00 425.20 283.46 cl
0.00 0.00 425.20 283.46 cl
0.00 0.00 425.20 283.46 cl
0.00 0.00 425.20 283.46 cl
0.00 0.00 425.20 283.46 cl
0.00 0.00 425.20 283.46 cl
/bg { 1 1 1 srgb } def
1 1 1 srgb
1.07 setlinewidth
[] 0 setdash
1 setlinecap
1 setlinejoin
10.00 setmiterlimit
0.00 0.00 425.20 283.46 r p3
0.00 0.00 425.20 283.46 cl
51.29 30.25 360.60 277.99 cl
/bg { 0.9216 0.9216 0.9216 srgb } def
51.29 30.25 309.31 247.73 r p2
1 1 1 srgb
0.53 setlinewidth
[] 0 setdash
0 setlinecap
1 setlinejoin
10.00 setmiterlimit
np
51.29 84.31 m
309.31 0 l
o
np
51.29 169.91 m
309.31 0 l
o
np
51.29 255.51 m
309.31 0 l
o
np
102.70 30.25 m
0 247.74 l
o
np
177.47 30.25 m
0 247.74 l
o
np
252.24 30.25 m
0 247.74 l
o
np
327.01 30.25 m
0 247.74 l
o
1.07 setlinewidth
[] 0 setdash
np
51.29 41.51 m
309.31 0 l
o
np
51.29 127.11 m
309.31 0 l
o
np
51.29 212.71 m
309.31 0 l
o
np
65.31 30.25 m
0 247.74 l
o
np
140.08 30.25 m
0 247.74 l
o
np
214.85 30.25 m
0 247.74 l
o
np
289.62 30.25 m
0 247.74 l
o
0.9725 0.4627 0.4275 srgb
1.00 setmiterlimit
np
65.35 41.60 m
0.01 0.07 l
0.01 0.08 l
0.02 0.14 l
0.02 0.22 l
0.02 0.34 l
0.03 0.55 l
0.03 0.86 l
0.05 1.31 l
0.05 2.18 l
0.07 3.75 l
0.09 5.10 l
0.11 8.51 l
0.13 13.23 l
0.17 19.42 l
0.22 33.59 l
0.26 47.97 l
0.33 87.80 l
o
0.7176 0.6235 0 srgb
np
65.35 42.45 m
0.01 0.52 l
0.01 0.78 l
0.02 1.24 l
0.02 1.91 l
0.02 3.10 l
0.03 3.91 l
0.03 7.73 l
0.05 13.91 l
0.05 14.50 l
0.07 29.82 l
0.09 43.62 l
0.11 74.68 l
o
0 0.7294 0.2196 srgb
np
65.35 41.90 m
0.01 0.21 l
0.01 0.36 l
0.02 0.53 l
0.02 0.84 l
0.02 1.27 l
0.03 2.03 l
0.03 3.19 l
0.05 4.95 l
0.05 7.77 l
0.07 12.02 l
0.09 18.95 l
0.11 29.53 l
0.13 46.52 l
0.17 71.66 l
o
0 0.7490 0.7686 srgb
np
65.35 41.55 m
0.01 0.01 l
0.01 0.02 l
0.02 0.02 l
0.02 0.01 l
0.02 0.06 l
0.03 0.03 l
0.03 0.03 l
0.05 0.09 l
0.05 0.08 l
0.07 0.09 l
0.09 0.15 l
0.11 0.16 l
0.13 0.17 l
0.17 0.31 l
0.22 0.31 l
0.26 0.41 l
0.33 0.53 l
0.42 0.63 l
0.52 0.74 l
0.65 1.11 l
0.81 1.30 l
1.01 1.49 l
1.27 2.07 l
1.58 2.81 l
1.98 3.00 l
2.47 3.44 l
3.09 6.33 l
3.87 6.34 l
4.83 6.38 l
6.04 13.03 l
7.55 12.21 l
9.44 21.38 l
11.79 20.00 l
14.75 28.29 l
18.43 22.91 l
23.03 51.99 l
o
0.3804 0.6118 1 srgb
np
65.35 41.51 m
0.01 0.02 l
0.01 0 l
0.02 0 l
0.02 0.02 l
0.02 0.01 l
0.03 0.02 l
0.03 0.02 l
0.05 0.01 l
0.05 0.04 l
0.07 0.03 l
0.09 0.05 l
0.11 0.07 l
0.13 0.09 l
0.17 0.10 l
0.22 0.14 l
0.26 0.17 l
0.33 0.20 l
0.42 0.26 l
0.52 0.34 l
0.65 0.40 l
0.81 0.53 l
1.01 0.68 l
1.27 0.91 l
1.58 0.98 l
1.98 1.40 l
2.47 1.69 l
3.09 2.30 l
3.87 2.79 l
4.83 4.11 l
6.04 3.95 l
7.55 5.72 l
9.44 7.21 l
11.79 10.46 l
14.75 9.95 l
18.43 14.75 l
23.03 18.27 l
28.80 24.40 l
36.00 28.11 l
44.99 38.76 l
o
0.9608 0.3922 0.8902 srgb
np
65.35 41.51 m
0.01 0 l
0.01 0.02 l
0.02 0 l
0.02 0.02 l
0.02 0 l
0.03 0.01 l
0.03 0.02 l
0.05 0.02 l
0.05 0.03 l
0.07 0.04 l
0.09 0.03 l
0.11 0.07 l
0.13 0.07 l
0.17 0.08 l
0.22 0.12 l
0.26 0.16 l
0.33 0.18 l
0.42 0.23 l
0.52 0.29 l
0.65 0.37 l
0.81 0.45 l
1.01 0.60 l
1.27 0.79 l
1.58 0.92 l
1.98 1.20 l
2.47 1.59 l
3.09 2.12 l
3.87 2.49 l
4.83 3.22 l
6.04 4.10 l
7.55 5.09 l
9.44 6.40 l
11.79 8.37 l
14.75 10.33 l
18.43 13.23 l
23.03 16.90 l
28.80 20.82 l
36.00 27.06 l
44.99 34.79 l
56.25 42.46 l
o
/bg { 0.3804 0.6118 1 srgb } def
0.3804 0.6118 1 srgb
0.71 setlinewidth
[] 0 setdash
1 setlinecap
10.00 setmiterlimit
65.35 41.51 1.95 c p3
65.36 41.53 1.95 c p3
65.37 41.53 1.95 c p3
65.39 41.53 1.95 c p3
65.41 41.55 1.95 c p3
65.43 41.56 1.95 c p3
65.46 41.58 1.95 c p3
65.49 41.60 1.95 c p3
65.54 41.61 1.95 c p3
65.59 41.65 1.95 c p3
65.66 41.68 1.95 c p3
65.75 41.73 1.95 c p3
65.86 41.80 1.95 c p3
65.99 41.89 1.95 c p3
66.16 41.99 1.95 c p3
66.38 42.13 1.95 c p3
66.64 42.30 1.95 c p3
66.97 42.50 1.95 c p3
67.39 42.76 1.95 c p3
67.91 43.10 1.95 c p3
68.56 43.50 1.95 c p3
69.37 44.03 1.95 c p3
70.38 44.71 1.95 c p3
71.65 45.62 1.95 c p3
73.23 46.60 1.95 c p3
75.21 48.00 1.95 c p3
77.68 49.69 1.95 c p3
80.77 51.99 1.95 c p3
84.64 54.78 1.95 c p3
89.47 58.89 1.95 c p3
95.51 62.84 1.95 c p3
103.06 68.56 1.95 c p3
112.50 75.77 1.95 c p3
124.29 86.23 1.95 c p3
139.04 96.18 1.95 c p3
157.47 110.93 1.95 c p3
180.50 129.20 1.95 c p3
209.30 153.60 1.95 c p3
245.30 181.71 1.95 c p3
290.29 220.47 1.95 c p3
/bg { 0 0.7490 0.7686 srgb } def
0 0.7490 0.7686 srgb
65.35 41.55 1.95 c p3
65.36 41.56 1.95 c p3
65.37 41.58 1.95 c p3
65.39 41.60 1.95 c p3
65.41 41.61 1.95 c p3
65.43 41.67 1.95 c p3
65.46 41.70 1.95 c p3
65.49 41.73 1.95 c p3
65.54 41.82 1.95 c p3
65.59 41.90 1.95 c p3
65.66 41.99 1.95 c p3
65.75 42.14 1.95 c p3
65.86 42.30 1.95 c p3
65.99 42.47 1.95 c p3
66.16 42.78 1.95 c p3
66.38 43.09 1.95 c p3
66.64 43.50 1.95 c p3
66.97 44.03 1.95 c p3
67.39 44.66 1.95 c p3
67.91 45.40 1.95 c p3
68.56 46.51 1.95 c p3
69.37 47.81 1.95 c p3
70.38 49.30 1.95 c p3
71.65 51.37 1.95 c p3
73.23 54.18 1.95 c p3
75.21 57.18 1.95 c p3
77.68 60.62 1.95 c p3
80.77 66.95 1.95 c p3
84.64 73.29 1.95 c p3
89.47 79.67 1.95 c p3
95.51 92.70 1.95 c p3
103.06 104.91 1.95 c p3
112.50 126.29 1.95 c p3
124.29 146.29 1.95 c p3
139.04 174.58 1.95 c p3
157.47 197.49 1.95 c p3
180.50 249.48 1.95 c p3
/bg { 0.9608 0.3922 0.8902 srgb } def
0.9608 0.3922 0.8902 srgb
65.35 41.51 1.95 c p3
65.36 41.51 1.95 c p3
65.37 41.53 1.95 c p3
65.39 41.53 1.95 c p3
65.41 41.55 1.95 c p3
65.43 41.55 1.95 c p3
65.46 41.56 1.95 c p3
65.49 41.58 1.95 c p3
65.54 41.60 1.95 c p3
65.59 41.63 1.95 c p3
65.66 41.67 1.95 c p3
65.75 41.70 1.95 c p3
65.86 41.77 1.95 c p3
65.99 41.84 1.95 c p3
66.16 41.92 1.95 c p3
66.38 42.04 1.95 c p3
66.64 42.20 1.95 c p3
66.97 42.38 1.95 c p3
67.39 42.61 1.95 c p3
67.91 42.90 1.95 c p3
68.56 43.27 1.95 c p3
69.37 43.72 1.95 c p3
70.38 44.32 1.95 c p3
71.65 45.11 1.95 c p3
73.23 46.03 1.95 c p3
75.21 47.23 1.95 c p3
77.68 48.82 1.95 c p3
80.77 50.94 1.95 c p3
84.64 53.43 1.95 c p3
89.47 56.65 1.95 c p3
95.51 60.75 1.95 c p3
103.06 65.84 1.95 c p3
112.50 72.24 1.95 c p3
124.29 80.61 1.95 c p3
139.04 90.94 1.95 c p3
157.47 104.17 1.95 c p3
180.50 121.07 1.95 c p3
209.30 141.89 1.95 c p3
245.30 168.95 1.95 c p3
290.29 203.74 1.95 c p3
346.54 246.20 1.95 c p3
0.00 0.00 425.20 283.46 cl
0.00 0.00 425.20 283.46 cl
0.00 0.00 425.20 283.46 cl
0.00 0.00 425.20 283.46 cl
0.00 0.00 425.20 283.46 cl
0.00 0.00 425.20 283.46 cl
0.00 0.00 425.20 283.46 cl
0.00 0.00 425.20 283.46 cl
0.00 0.00 425.20 283.46 cl
0.00 0.00 425.20 283.46 cl
0.00 0.00 425.20 283.46 cl
0.00 0.00 425.20 283.46 cl
0.00 0.00 425.20 283.46 cl
0.00 0.00 425.20 283.46 cl
0.00 0.00 425.20 283.46 cl
0.00 0.00 425.20 283.46 cl
/Font1 findfont 9 s
0.3020 0.3020 0.3020 srgb
46.36 38.28 (0) 1 0 t
46.36 123.88 (5000) 1 0 t
46.36 209.48 (10000) 1 0 t
0.00 0.00 425.20 283.46 cl
0.00 0.00 425.20 283.46 cl
0.2000 0.2000 0.2000 srgb
1.07 setlinewidth
[] 0 setdash
0 setlinecap
1 setlinejoin
10.00 setmiterlimit
np
48.55 41.51 m
2.74 0 l
o
np
48.55 127.11 m
2.74 0 l
o
np
48.55 212.71 m
2.74 0 l
o
0.00 0.00 425.20 283.46 cl
0.00 0.00 425.20 283.46 cl
0.00 0.00 425.20 283.46 cl
0.00 0.00 425.20 283.46 cl
0.00 0.00 425.20 283.46 cl
0.00 0.00 425.20 283.46 cl
0.00 0.00 425.20 283.46 cl
0.00 0.00 425.20 283.46 cl
0.00 0.00 425.20 283.46 cl
0.00 0.00 425.20 283.46 cl
0.2000 0.2000 0.2000 srgb
1.07 setlinewidth
[] 0 setdash
0 setlinecap
1 setlinejoin
10.00 setmiterlimit
np
65.31 27.51 m
0 2.74 l
o
np
140.08 27.51 m
0 2.74 l
o
np
214.85 27.51 m
0 2.74 l
o
np
289.62 27.51 m
0 2.74 l
o
0.00 0.00 425.20 283.46 cl
0.00 0.00 425.20 283.46 cl
/Font1 findfont 9 s
0.3020 0.3020 0.3020 srgb
65.31 18.86 (0.0e+00) .5 0 t
140.08 18.86 (2.5e+07) .5 0 t
214.85 18.86 (5.0e+07) .5 0 t
289.62 18.86 (7.5e+07) .5 0 t
0.00 0.00 425.20 283.46 cl
0.00 0.00 425.20 283.46 cl
0.00 0.00 425.20 283.46 cl
0.00 0.00 425.20 283.46 cl
0.00 0.00 425.20 283.46 cl
0.00 0.00 425.20 283.46 cl
/Font1 findfont 11 s
0 0 0 srgb
205.95 5.48 (n) .5 0 t
0.00 0.00 425.20 283.46 cl
0.00 0.00 425.20 283.46 cl
/Font1 findfont 11 s
0 0 0 srgb
13.38 154.12 (t\(ms\)) .5 90 t
0.00 0.00 425.20 283.46 cl
0.00 0.00 425.20 283.46 cl
0.00 0.00 425.20 283.46 cl
0.00 0.00 425.20 283.46 cl
0.00 0.00 425.20 283.46 cl
0.00 0.00 425.20 283.46 cl
0.00 0.00 425.20 283.46 cl
0.00 0.00 425.20 283.46 cl
/bg { 1 1 1 srgb } def
371.94 90.50 47.78 127.24 r p2
0.00 0.00 425.20 283.46 cl
0.00 0.00 425.20 283.46 cl
/Font1 findfont 11 s
0 0 0 srgb
377.61 204.17 (colour) 0 0 t
0.00 0.00 425.20 283.46 cl
0.00 0.00 425.20 283.46 cl
/bg { 0.9490 0.9490 0.9490 srgb } def
1 1 1 srgb
1.07 setlinewidth
[] 0 setdash
1 setlinecap
1 setlinejoin
10.00 setmiterlimit
377.61 182.57 17.28 17.28 r p3
0.00 0.00 425.20 283.46 cl
0.00 0.00 425.20 283.46 cl
0.9725 0.4627 0.4275 srgb
1.07 setlinewidth
[] 0 setdash
0 setlinecap
1 setlinejoin
10.00 setmiterlimit
np
379.34 191.21 m
13.82 0 l
o
0.00 0.00 425.20 283.46 cl
0.00 0.00 425.20 283.46 cl
0.9725 0.4627 0.4275 srgb
1.07 setlinewidth
[] 0 setdash
0 setlinecap
1 setlinejoin
10.00 setmiterlimit
np
379.34 191.21 m
13.82 0 l
o
0.00 0.00 425.20 283.46 cl
0.00 0.00 425.20 283.46 cl
0.9725 0.4627 0.4275 srgb
1.07 setlinewidth
[] 0 setdash
0 setlinecap
1 setlinejoin
10.00 setmiterlimit
np
379.34 191.21 m
13.82 0 l
o
0.00 0.00 425.20 283.46 cl
0.00 0.00 425.20 283.46 cl
0.9725 0.4627 0.4275 srgb
1.07 setlinewidth
[] 0 setdash
0 setlinecap
1 setlinejoin
10.00 setmiterlimit
np
379.34 191.21 m
13.82 0 l
o
0.00 0.00 425.20 283.46 cl
0.00 0.00 425.20 283.46 cl
0.9725 0.4627 0.4275 srgb
1.07 setlinewidth
[] 0 setdash
0 setlinecap
1 setlinejoin
10.00 setmiterlimit
np
379.34 191.21 m
13.82 0 l
o
0.00 0.00 425.20 283.46 cl
0.00 0.00 425.20 283.46 cl
0.9725 0.4627 0.4275 srgb
1.07 setlinewidth
[] 0 setdash
0 setlinecap
1 setlinejoin
10.00 setmiterlimit
np
379.34 191.21 m
13.82 0 l
o
0.00 0.00 425.20 283.46 cl
0.00 0.00 425.20 283.46 cl
/bg { 0.9725 0.4627 0.4275 srgb } def
0.9725 0.4627 0.4275 srgb
0.71 setlinewidth
[] 0 setdash
1 setlinecap
1 setlinejoin
10.00 setmiterlimit
386.25 191.21 1.95 c p3
0.00 0.00 425.20 283.46 cl
0.00 0.00 425.20 283.46 cl
/bg { 0.9725 0.4627 0.4275 srgb } def
0.9725 0.4627 0.4275 srgb
0.71 setlinewidth
[] 0 setdash
1 setlinecap
1 setlinejoin
10.00 setmiterlimit
386.25 191.21 1.95 c p3
0.00 0.00 425.20 283.46 cl
0.00 0.00 425.20 283.46 cl
/bg { 0.9725 0.4627 0.4275 srgb } def
0.9725 0.4627 0.4275 srgb
0.71 setlinewidth
[] 0 setdash
1 setlinecap
1 setlinejoin
10.00 setmiterlimit
386.25 191.21 1.95 c p3
0.00 0.00 425.20 283.46 cl
0.00 0.00 425.20 283.46 cl
/bg { 0.9490 0.9490 0.9490 srgb } def
1 1 1 srgb
1.07 setlinewidth
[] 0 setdash
1 setlinecap
1 setlinejoin
10.00 setmiterlimit
377.61 165.29 17.28 17.28 r p3
0.00 0.00 425.20 283.46 cl
0.00 0.00 425.20 283.46 cl
0.7176 0.6235 0 srgb
1.07 setlinewidth
[] 0 setdash
0 setlinecap
1 setlinejoin
10.00 setmiterlimit
np
379.34 173.93 m
13.82 0 l
o
0.00 0.00 425.20 283.46 cl
0.00 0.00 425.20 283.46 cl
0.7176 0.6235 0 srgb
1.07 setlinewidth
[] 0 setdash
0 setlinecap
1 setlinejoin
10.00 setmiterlimit
np
379.34 173.93 m
13.82 0 l
o
0.00 0.00 425.20 283.46 cl
0.00 0.00 425.20 283.46 cl
0.7176 0.6235 0 srgb
1.07 setlinewidth
[] 0 setdash
0 setlinecap
1 setlinejoin
10.00 setmiterlimit
np
379.34 173.93 m
13.82 0 l
o
0.00 0.00 425.20 283.46 cl
0.00 0.00 425.20 283.46 cl
0.7176 0.6235 0 srgb
1.07 setlinewidth
[] 0 setdash
0 setlinecap
1 setlinejoin
10.00 setmiterlimit
np
379.34 173.93 m
13.82 0 l
o
0.00 0.00 425.20 283.46 cl
0.00 0.00 425.20 283.46 cl
0.7176 0.6235 0 srgb
1.07 setlinewidth
[] 0 setdash
0 setlinecap
1 setlinejoin
10.00 setmiterlimit
np
379.34 173.93 m
13.82 0 l
o
0.00 0.00 425.20 283.46 cl
0.00 0.00 425.20 283.46 cl
0.7176 0.6235 0 srgb
1.07 setlinewidth
[] 0 setdash
0 setlinecap
1 setlinejoin
10.00 setmiterlimit
np
379.34 173.93 m
13.82 0 l
o
0.00 0.00 425.20 283.46 cl
0.00 0.00 425.20 283.46 cl
/bg { 0.7176 0.6235 0 srgb } def
0.7176 0.6235 0 srgb
0.71 setlinewidth
[] 0 setdash
1 setlinecap
1 setlinejoin
10.00 setmiterlimit
386.25 173.93 1.95 c p3
0.00 0.00 425.20 283.46 cl
0.00 0.00 425.20 283.46 cl
/bg { 0.7176 0.6235 0 srgb } def
0.7176 0.6235 0 srgb
0.71 setlinewidth
[] 0 setdash
1 setlinecap
1 setlinejoin
10.00 setmiterlimit
386.25 173.93 1.95 c p3
0.00 0.00 425.20 283.46 cl
0.00 0.00 425.20 283.46 cl
/bg { 0.7176 0.6235 0 srgb } def
0.7176 0.6235 0 srgb
0.71 setlinewidth
[] 0 setdash
1 setlinecap
1 setlinejoin
10.00 setmiterlimit
386.25 173.93 1.95 c p3
0.00 0.00 425.20 283.46 cl
0.00 0.00 425.20 283.46 cl
/bg { 0.9490 0.9490 0.9490 srgb } def
1 1 1 srgb
1.07 setlinewidth
[] 0 setdash
1 setlinecap
1 setlinejoin
10.00 setmiterlimit
377.61 148.01 17.28 17.28 r p3
0.00 0.00 425.20 283.46 cl
0.00 0.00 425.20 283.46 cl
0 0.7294 0.2196 srgb
1.07 setlinewidth
[] 0 setdash
0 setlinecap
1 setlinejoin
10.00 setmiterlimit
np
379.34 156.65 m
13.82 0 l
o
0.00 0.00 425.20 283.46 cl
0.00 0.00 425.20 283.46 cl
0 0.7294 0.2196 srgb
1.07 setlinewidth
[] 0 setdash
0 setlinecap
1 setlinejoin
10.00 setmiterlimit
np
379.34 156.65 m
13.82 0 l
o
0.00 0.00 425.20 283.46 cl
0.00 0.00 425.20 283.46 cl
0 0.7294 0.2196 srgb
1.07 setlinewidth
[] 0 setdash
0 setlinecap
1 setlinejoin
10.00 setmiterlimit
np
379.34 156.65 m
13.82 0 l
o
0.00 0.00 425.20 283.46 cl
0.00 0.00 425.20 283.46 cl
0 0.7294 0.2196 srgb
1.07 setlinewidth
[] 0 setdash
0 setlinecap
1 setlinejoin
10.00 setmiterlimit
np
379.34 156.65 m
13.82 0 l
o
0.00 0.00 425.20 283.46 cl
0.00 0.00 425.20 283.46 cl
0 0.7294 0.2196 srgb
1.07 setlinewidth
[] 0 setdash
0 setlinecap
1 setlinejoin
10.00 setmiterlimit
np
379.34 156.65 m
13.82 0 l
o
0.00 0.00 425.20 283.46 cl
0.00 0.00 425.20 283.46 cl
0 0.7294 0.2196 srgb
1.07 setlinewidth
[] 0 setdash
0 setlinecap
1 setlinejoin
10.00 setmiterlimit
np
379.34 156.65 m
13.82 0 l
o
0.00 0.00 425.20 283.46 cl
0.00 0.00 425.20 283.46 cl
/bg { 0 0.7294 0.2196 srgb } def
0 0.7294 0.2196 srgb
0.71 setlinewidth
[] 0 setdash
1 setlinecap
1 setlinejoin
10.00 setmiterlimit
386.25 156.65 1.95 c p3
0.00 0.00 425.20 283.46 cl
0.00 0.00 425.20 283.46 cl
/bg { 0 0.7294 0.2196 srgb } def
0 0.7294 0.2196 srgb
0.71 setlinewidth
[] 0 setdash
1 setlinecap
1 setlinejoin
10.00 setmiterlimit
386.25 156.65 1.95 c p3
0.00 0.00 425.20 283.46 cl
0.00 0.00 425.20 283.46 cl
/bg { 0 0.7294 0.2196 srgb } def
0 0.7294 0.2196 srgb
0.71 setlinewidth
[] 0 setdash
1 setlinecap
1 setlinejoin
10.00 setmiterlimit
386.25 156.65 1.95 c p3
0.00 0.00 425.20 283.46 cl
0.00 0.00 425.20 283.46 cl
/bg { 0.9490 0.9490 0.9490 srgb } def
1 1 1 srgb
1.07 setlinewidth
[] 0 setdash
1 setlinecap
1 setlinejoin
10.00 setmiterlimit
377.61 130.73 17.28 17.28 r p3
0.00 0.00 425.20 283.46 cl
0.00 0.00 425.20 283.46 cl
0 0.7490 0.7686 srgb
1.07 setlinewidth
[] 0 setdash
0 setlinecap
1 setlinejoin
10.00 setmiterlimit
np
379.34 139.37 m
13.82 0 l
o
0.00 0.00 425.20 283.46 cl
0.00 0.00 425.20 283.46 cl
0 0.7490 0.7686 srgb
1.07 setlinewidth
[] 0 setdash
0 setlinecap
1 setlinejoin
10.00 setmiterlimit
np
379.34 139.37 m
13.82 0 l
o
0.00 0.00 425.20 283.46 cl
0.00 0.00 425.20 283.46 cl
0 0.7490 0.7686 srgb
1.07 setlinewidth
[] 0 setdash
0 setlinecap
1 setlinejoin
10.00 setmiterlimit
np
379.34 139.37 m
13.82 0 l
o
0.00 0.00 425.20 283.46 cl
0.00 0.00 425.20 283.46 cl
0 0.7490 0.7686 srgb
1.07 setlinewidth
[] 0 setdash
0 setlinecap
1 setlinejoin
10.00 setmiterlimit
np
379.34 139.37 m
13.82 0 l
o
0.00 0.00 425.20 283.46 cl
0.00 0.00 425.20 283.46 cl
0 0.7490 0.7686 srgb
1.07 setlinewidth
[] 0 setdash
0 setlinecap
1 setlinejoin
10.00 setmiterlimit
np
379.34 139.37 m
13.82 0 l
o
0.00 0.00 425.20 283.46 cl
0.00 0.00 425.20 283.46 cl
0 0.7490 0.7686 srgb
1.07 setlinewidth
[] 0 setdash
0 setlinecap
1 setlinejoin
10.00 setmiterlimit
np
379.34 139.37 m
13.82 0 l
o
0.00 0.00 425.20 283.46 cl
0.00 0.00 425.20 283.46 cl
/bg { 0 0.7490 0.7686 srgb } def
0 0.7490 0.7686 srgb
0.71 setlinewidth
[] 0 setdash
1 setlinecap
1 setlinejoin
10.00 setmiterlimit
386.25 139.37 1.95 c p3
0.00 0.00 425.20 283.46 cl
0.00 0.00 425.20 283.46 cl
/bg { 0 0.7490 0.7686 srgb } def
0 0.7490 0.7686 srgb
0.71 setlinewidth
[] 0 setdash
1 setlinecap
1 setlinejoin
10.00 setmiterlimit
386.25 139.37 1.95 c p3
0.00 0.00 425.20 283.46 cl
0.00 0.00 425.20 283.46 cl
/bg { 0 0.7490 0.7686 srgb } def
0 0.7490 0.7686 srgb
0.71 setlinewidth
[] 0 setdash
1 setlinecap
1 setlinejoin
10.00 setmiterlimit
386.25 139.37 1.95 c p3
0.00 0.00 425.20 283.46 cl
0.00 0.00 425.20 283.46 cl
/bg { 0.9490 0.9490 0.9490 srgb } def
1 1 1 srgb
1.07 setlinewidth
[] 0 setdash
1 setlinecap
1 setlinejoin
10.00 setmiterlimit
377.61 113.45 17.28 17.28 r p3
0.00 0.00 425.20 283.46 cl
0.00 0.00 425.20 283.46 cl
0.3804 0.6118 1 srgb
1.07 setlinewidth
[] 0 setdash
0 setlinecap
1 setlinejoin
10.00 setmiterlimit
np
379.34 122.09 m
13.82 0 l
o
0.00 0.00 425.20 283.46 cl
0.00 0.00 425.20 283.46 cl
0.3804 0.6118 1 srgb
1.07 setlinewidth
[] 0 setdash
0 setlinecap
1 setlinejoin
10.00 setmiterlimit
np
379.34 122.09 m
13.82 0 l
o
0.00 0.00 425.20 283.46 cl
0.00 0.00 425.20 283.46 cl
0.3804 0.6118 1 srgb
1.07 setlinewidth
[] 0 setdash
0 setlinecap
1 setlinejoin
10.00 setmiterlimit
np
379.34 122.09 m
13.82 0 l
o
0.00 0.00 425.20 283.46 cl
0.00 0.00 425.20 283.46 cl
0.3804 0.6118 1 srgb
1.07 setlinewidth
[] 0 setdash
0 setlinecap
1 setlinejoin
10.00 setmiterlimit
np
379.34 122.09 m
13.82 0 l
o
0.00 0.00 425.20 283.46 cl
0.00 0.00 425.20 283.46 cl
0.3804 0.6118 1 srgb
1.07 setlinewidth
[] 0 setdash
0 setlinecap
1 setlinejoin
10.00 setmiterlimit
np
379.34 122.09 m
13.82 0 l
o
0.00 0.00 425.20 283.46 cl
0.00 0.00 425.20 283.46 cl
0.3804 0.6118 1 srgb
1.07 setlinewidth
[] 0 setdash
0 setlinecap
1 setlinejoin
10.00 setmiterlimit
np
379.34 122.09 m
13.82 0 l
o
0.00 0.00 425.20 283.46 cl
0.00 0.00 425.20 283.46 cl
/bg { 0.3804 0.6118 1 srgb } def
0.3804 0.6118 1 srgb
0.71 setlinewidth
[] 0 setdash
1 setlinecap
1 setlinejoin
10.00 setmiterlimit
386.25 122.09 1.95 c p3
0.00 0.00 425.20 283.46 cl
0.00 0.00 425.20 283.46 cl
/bg { 0.3804 0.6118 1 srgb } def
0.3804 0.6118 1 srgb
0.71 setlinewidth
[] 0 setdash
1 setlinecap
1 setlinejoin
10.00 setmiterlimit
386.25 122.09 1.95 c p3
0.00 0.00 425.20 283.46 cl
0.00 0.00 425.20 283.46 cl
/bg { 0.3804 0.6118 1 srgb } def
0.3804 0.6118 1 srgb
0.71 setlinewidth
[] 0 setdash
1 setlinecap
1 setlinejoin
10.00 setmiterlimit
386.25 122.09 1.95 c p3
0.00 0.00 425.20 283.46 cl
0.00 0.00 425.20 283.46 cl
/bg { 0.9490 0.9490 0.9490 srgb } def
1 1 1 srgb
1.07 setlinewidth
[] 0 setdash
1 setlinecap
1 setlinejoin
10.00 setmiterlimit
377.61 96.17 17.28 17.28 r p3
0.00 0.00 425.20 283.46 cl
0.00 0.00 425.20 283.46 cl
0.9608 0.3922 0.8902 srgb
1.07 setlinewidth
[] 0 setdash
0 setlinecap
1 setlinejoin
10.00 setmiterlimit
np
379.34 104.81 m
13.82 0 l
o
0.00 0.00 425.20 283.46 cl
0.00 0.00 425.20 283.46 cl
0.9608 0.3922 0.8902 srgb
1.07 setlinewidth
[] 0 setdash
0 setlinecap
1 setlinejoin
10.00 setmiterlimit
np
379.34 104.81 m
13.82 0 l
o
0.00 0.00 425.20 283.46 cl
0.00 0.00 425.20 283.46 cl
0.9608 0.3922 0.8902 srgb
1.07 setlinewidth
[] 0 setdash
0 setlinecap
1 setlinejoin
10.00 setmiterlimit
np
379.34 104.81 m
13.82 0 l
o
0.00 0.00 425.20 283.46 cl
0.00 0.00 425.20 283.46 cl
0.9608 0.3922 0.8902 srgb
1.07 setlinewidth
[] 0 setdash
0 setlinecap
1 setlinejoin
10.00 setmiterlimit
np
379.34 104.81 m
13.82 0 l
o
0.00 0.00 425.20 283.46 cl
0.00 0.00 425.20 283.46 cl
0.9608 0.3922 0.8902 srgb
1.07 setlinewidth
[] 0 setdash
0 setlinecap
1 setlinejoin
10.00 setmiterlimit
np
379.34 104.81 m
13.82 0 l
o
0.00 0.00 425.20 283.46 cl
0.00 0.00 425.20 283.46 cl
0.9608 0.3922 0.8902 srgb
1.07 setlinewidth
[] 0 setdash
0 setlinecap
1 setlinejoin
10.00 setmiterlimit
np
379.34 104.81 m
13.82 0 l
o
0.00 0.00 425.20 283.46 cl
0.00 0.00 425.20 283.46 cl
/bg { 0.9608 0.3922 0.8902 srgb } def
0.9608 0.3922 0.8902 srgb
0.71 setlinewidth
[] 0 setdash
1 setlinecap
1 setlinejoin
10.00 setmiterlimit
386.25 104.81 1.95 c p3
0.00 0.00 425.20 283.46 cl
0.00 0.00 425.20 283.46 cl
/bg { 0.9608 0.3922 0.8902 srgb } def
0.9608 0.3922 0.8902 srgb
0.71 setlinewidth
[] 0 setdash
1 setlinecap
1 setlinejoin
10.00 setmiterlimit
386.25 104.81 1.95 c p3
0.00 0.00 425.20 283.46 cl
0.00 0.00 425.20 283.46 cl
/bg { 0.9608 0.3922 0.8902 srgb } def
0.9608 0.3922 0.8902 srgb
0.71 setlinewidth
[] 0 setdash
1 setlinecap
1 setlinejoin
10.00 setmiterlimit
386.25 104.81 1.95 c p3
0.00 0.00 425.20 283.46 cl
0.00 0.00 425.20 283.46 cl
/Font1 findfont 9 s
0 0 0 srgb
397.05 187.98 (bf) 0 0 t
0.00 0.00 425.20 283.46 cl
0.00 0.00 425.20 283.46 cl
/Font1 findfont 9 s
0 0 0 srgb
397.05 170.70 (is1) 0 0 t
0.00 0.00 425.20 283.46 cl
0.00 0.00 425.20 283.46 cl
/Font1 findfont 9 s
0 0 0 srgb
397.05 153.42 (is2) 0 0 t
0.00 0.00 425.20 283.46 cl
0.00 0.00 425.20 283.46 cl
/Font1 findfont 9 s
0 0 0 srgb
397.05 136.14 (ms1) 0 0 t
0.00 0.00 425.20 283.46 cl
0.00 0.00 425.20 283.46 cl
/Font1 findfont 9 s
0 0 0 srgb
397.05 118.86 (ms2) 0 0 t
0.00 0.00 425.20 283.46 cl
0.00 0.00 425.20 283.46 cl
/Font1 findfont 9 s
0 0 0 srgb
397.05 101.58 (ms3) 0 0 t
0.00 0.00 425.20 283.46 cl
0.00 0.00 425.20 283.46 cl
0.00 0.00 425.20 283.46 cl
0.00 0.00 425.20 283.46 cl
0.00 0.00 425.20 283.46 cl
0.00 0.00 425.20 283.46 cl
0.00 0.00 425.20 283.46 cl
0.00 0.00 425.20 283.46 cl
0.00 0.00 425.20 283.46 cl
0.00 0.00 425.20 283.46 cl
ep
%%Trailer
%%Pages: 1
%%EOF
