%!PS-Adobe-3.0 EPSF-3.0
%%DocumentNeededResources: font Helvetica
%%+ font Helvetica-Bold
%%+ font Helvetica-Oblique
%%+ font Helvetica-BoldOblique
%%+ font Symbol
%%Title: R Graphics Output
%%Creator: R Software
%%Pages: (atend)
%%BoundingBox: 0 0 425 283
%%EndComments
%%BeginProlog
/bp  { gs sRGB gs } def
% begin .ps.prolog
/gs  { gsave } bind def
/gr  { grestore } bind def
/ep  { showpage gr gr } bind def
/m   { moveto } bind def
/l  { rlineto } bind def
/np  { newpath } bind def
/cp  { closepath } bind def
/f   { fill } bind def
/o   { stroke } bind def
/c   { newpath 0 360 arc } bind def
/r   { 4 2 roll moveto 1 copy 3 -1 roll exch 0 exch rlineto 0 rlineto -1 mul 0 exch rlineto closepath } bind def
/p1  { stroke } bind def
/p2  { gsave bg fill grestore newpath } bind def
/p3  { gsave bg fill grestore stroke } bind def
/p6  { gsave bg eofill grestore newpath } bind def
/p7  { gsave bg eofill grestore stroke } bind def
/t   { 5 -2 roll moveto gsave rotate
       1 index stringwidth pop
       mul neg 0 rmoveto show grestore } bind def
/ta  { 4 -2 roll moveto gsave rotate show } bind def
/tb  { 2 -1 roll 0 rmoveto show } bind def
/cl  { grestore gsave newpath 3 index 3 index moveto 1 index
       4 -1 roll lineto  exch 1 index lineto lineto
       closepath clip newpath } bind def
/rgb { setrgbcolor } bind def
/s   { scalefont setfont } bind def
% end   .ps.prolog
/sRGB { [ /CIEBasedABC
          << /DecodeLMN
               [ { dup 0.03928 le
                        {12.92321 div}
                        {0.055 add 1.055 div 2.4 exp }
                     ifelse
                 } bind dup dup
               ]
             /MatrixLMN [0.412457 0.212673 0.019334
                         0.357576 0.715152 0.119192
                         0.180437 0.072175 0.950301]
             /WhitePoint [0.9505 1.0 1.0890]
           >>
         ] setcolorspace } bind def
/srgb { setcolor } bind def
%%IncludeResource: font Helvetica
/Helvetica findfont
dup length dict begin
  {1 index /FID ne {def} {pop pop} ifelse} forall
  /Encoding ISOLatin1Encoding def
  currentdict
  end
/Font1 exch definefont pop
%%IncludeResource: font Helvetica-Bold
/Helvetica-Bold findfont
dup length dict begin
  {1 index /FID ne {def} {pop pop} ifelse} forall
  /Encoding ISOLatin1Encoding def
  currentdict
  end
/Font2 exch definefont pop
%%IncludeResource: font Helvetica-Oblique
/Helvetica-Oblique findfont
dup length dict begin
  {1 index /FID ne {def} {pop pop} ifelse} forall
  /Encoding ISOLatin1Encoding def
  currentdict
  end
/Font3 exch definefont pop
%%IncludeResource: font Helvetica-BoldOblique
/Helvetica-BoldOblique findfont
dup length dict begin
  {1 index /FID ne {def} {pop pop} ifelse} forall
  /Encoding ISOLatin1Encoding def
  currentdict
  end
/Font4 exch definefont pop
%%IncludeResource: font Symbol
/Symbol findfont
dup length dict begin
  {1 index /FID ne {def} {pop pop} ifelse} forall
  currentdict
  end
/Font5 exch definefont pop
%%EndProlog
%%Page: 1 1
bp
0.00 0.00 425.20 283.46 cl
0.00 0.00 425.20 283.46 cl
0.00 0.00 425.20 283.46 cl
0.00 0.00 425.20 283.46 cl
0.00 0.00 425.20 283.46 cl
0.00 0.00 425.20 283.46 cl
0.00 0.00 425.20 283.46 cl
0.00 0.00 425.20 283.46 cl
0.00 0.00 425.20 283.46 cl
0.00 0.00 425.20 283.46 cl
/bg { 1 1 1 srgb } def
1 1 1 srgb
1.07 setlinewidth
[] 0 setdash
1 setlinecap
1 setlinejoin
10.00 setmiterlimit
0.00 0.00 425.20 283.46 r p3
0.00 0.00 425.20 283.46 cl
41.28 30.25 366.10 277.99 cl
/bg { 0.9216 0.9216 0.9216 srgb } def
41.28 30.25 324.81 247.73 r p2
1 1 1 srgb
0.53 setlinewidth
[] 0 setdash
0 setlinecap
1 setlinejoin
10.00 setmiterlimit
np
41.28 68.04 m
324.82 0 l
o
np
41.28 121.09 m
324.82 0 l
o
np
41.28 174.15 m
324.82 0 l
o
np
41.28 227.20 m
324.82 0 l
o
np
80.15 30.25 m
0 247.74 l
o
np
140.42 30.25 m
0 247.74 l
o
np
200.68 30.25 m
0 247.74 l
o
np
260.94 30.25 m
0 247.74 l
o
np
321.20 30.25 m
0 247.74 l
o
1.07 setlinewidth
[] 0 setdash
np
41.28 41.51 m
324.82 0 l
o
np
41.28 94.56 m
324.82 0 l
o
np
41.28 147.62 m
324.82 0 l
o
np
41.28 200.67 m
324.82 0 l
o
np
41.28 253.73 m
324.82 0 l
o
np
50.02 30.25 m
0 247.74 l
o
np
110.28 30.25 m
0 247.74 l
o
np
170.55 30.25 m
0 247.74 l
o
np
230.81 30.25 m
0 247.74 l
o
np
291.07 30.25 m
0 247.74 l
o
np
351.33 30.25 m
0 247.74 l
o
0.9725 0.4627 0.4275 srgb
1.00 setmiterlimit
np
56.05 41.51 m
6.02 0 l
6.03 0 l
6.03 0 l
6.02 0 l
6.03 0.27 l
6.03 0 l
6.02 0.26 l
6.03 0 l
6.02 0.27 l
6.03 0.26 l
6.03 0.27 l
6.02 0.26 l
6.03 0.27 l
6.03 0.26 l
6.02 0.27 l
6.03 0.26 l
6.02 0.53 l
6.03 0.27 l
6.03 0.53 l
6.02 0.27 l
6.03 0.53 l
6.03 0.53 l
6.02 0.53 l
6.03 0.53 l
6.02 0.53 l
6.03 0.53 l
6.03 0.53 l
6.02 0.53 l
6.03 0.80 l
6.03 0.53 l
6.02 0.79 l
6.03 0.80 l
6.02 0.53 l
6.03 0.53 l
6.03 1.06 l
6.02 0.80 l
6.03 0.79 l
6.03 0.53 l
6.02 1.06 l
6.03 0.80 l
6.02 0.79 l
6.03 1.07 l
6.03 0.53 l
6.02 1.06 l
6.03 1.06 l
6.03 1.06 l
6.02 0.53 l
6.03 1.06 l
6.02 1.06 l
o
0 0.7294 0.2196 srgb
np
56.05 41.51 m
6.02 0.27 l
6.03 0.53 l
6.03 0.53 l
6.02 0.79 l
6.03 1.06 l
6.03 1.33 l
6.02 1.33 l
6.03 1.59 l
6.02 1.86 l
6.03 1.85 l
6.03 2.12 l
6.02 2.39 l
6.03 2.65 l
6.03 2.39 l
6.02 2.65 l
6.03 2.92 l
6.02 3.19 l
6.03 3.44 l
6.03 3.98 l
6.02 3.19 l
6.03 3.71 l
6.03 4.24 l
6.02 3.98 l
6.03 -0.53 l
6.02 12.74 l
6.03 1.85 l
6.03 5.04 l
6.02 4.51 l
6.03 5.84 l
6.03 5.57 l
6.02 5.84 l
6.03 5.30 l
6.02 6.10 l
6.03 6.10 l
6.03 6.37 l
6.02 6.37 l
6.03 6.63 l
6.03 7.16 l
6.02 1.86 l
6.03 9.28 l
6.02 2.39 l
6.03 16.18 l
6.03 7.43 l
6.02 8.22 l
6.03 8.49 l
6.03 7.69 l
6.02 -3.18 l
6.03 19.36 l
6.02 10.61 l
o
0.3804 0.6118 1 srgb
np
56.05 41.51 m
6.02 0 l
6.03 0.27 l
6.03 0.26 l
6.02 0.27 l
6.03 0.53 l
6.03 0.53 l
6.02 0.53 l
6.03 0.53 l
6.02 0.79 l
6.03 1.07 l
6.03 0.79 l
6.02 1.06 l
6.03 1.06 l
6.03 1.33 l
6.02 1.06 l
6.03 1.33 l
6.02 1.32 l
6.03 1.60 l
6.03 1.59 l
6.02 1.32 l
6.03 1.86 l
6.03 1.86 l
6.02 1.59 l
6.03 2.12 l
6.02 1.86 l
6.03 1.85 l
6.03 2.13 l
6.02 2.38 l
6.03 2.13 l
6.03 2.38 l
6.02 2.66 l
6.03 2.12 l
6.02 3.18 l
6.03 2.39 l
6.03 2.39 l
6.02 2.91 l
6.03 4.25 l
6.03 1.59 l
6.02 4.25 l
6.03 1.85 l
6.02 3.19 l
6.03 3.44 l
6.03 3.19 l
6.02 6.36 l
6.03 2.66 l
6.03 1.32 l
6.02 4.25 l
6.03 5.57 l
6.02 2.12 l
o
0.00 0.00 425.20 283.46 cl
0.00 0.00 425.20 283.46 cl
0.00 0.00 425.20 283.46 cl
0.00 0.00 425.20 283.46 cl
0.00 0.00 425.20 283.46 cl
0.00 0.00 425.20 283.46 cl
0.00 0.00 425.20 283.46 cl
0.00 0.00 425.20 283.46 cl
0.00 0.00 425.20 283.46 cl
0.00 0.00 425.20 283.46 cl
0.00 0.00 425.20 283.46 cl
0.00 0.00 425.20 283.46 cl
0.00 0.00 425.20 283.46 cl
0.00 0.00 425.20 283.46 cl
0.00 0.00 425.20 283.46 cl
0.00 0.00 425.20 283.46 cl
/Font1 findfont 9 s
0.3020 0.3020 0.3020 srgb
36.35 38.28 (0) 1 0 t
36.35 91.33 (200) 1 0 t
36.35 144.39 (400) 1 0 t
36.35 197.44 (600) 1 0 t
36.35 250.50 (800) 1 0 t
0.00 0.00 425.20 283.46 cl
0.00 0.00 425.20 283.46 cl
0.2000 0.2000 0.2000 srgb
1.07 setlinewidth
[] 0 setdash
0 setlinecap
1 setlinejoin
10.00 setmiterlimit
np
38.54 41.51 m
2.74 0 l
o
np
38.54 94.56 m
2.74 0 l
o
np
38.54 147.62 m
2.74 0 l
o
np
38.54 200.67 m
2.74 0 l
o
np
38.54 253.73 m
2.74 0 l
o
0.00 0.00 425.20 283.46 cl
0.00 0.00 425.20 283.46 cl
0.00 0.00 425.20 283.46 cl
0.00 0.00 425.20 283.46 cl
0.00 0.00 425.20 283.46 cl
0.00 0.00 425.20 283.46 cl
0.00 0.00 425.20 283.46 cl
0.00 0.00 425.20 283.46 cl
0.00 0.00 425.20 283.46 cl
0.00 0.00 425.20 283.46 cl
0.2000 0.2000 0.2000 srgb
1.07 setlinewidth
[] 0 setdash
0 setlinecap
1 setlinejoin
10.00 setmiterlimit
np
50.02 27.51 m
0 2.74 l
o
np
110.28 27.51 m
0 2.74 l
o
np
170.55 27.51 m
0 2.74 l
o
np
230.81 27.51 m
0 2.74 l
o
np
291.07 27.51 m
0 2.74 l
o
np
351.33 27.51 m
0 2.74 l
o
0.00 0.00 425.20 283.46 cl
0.00 0.00 425.20 283.46 cl
/Font1 findfont 9 s
0.3020 0.3020 0.3020 srgb
50.02 18.86 (0) .5 0 t
110.28 18.86 (10000) .5 0 t
170.55 18.86 (20000) .5 0 t
230.81 18.86 (30000) .5 0 t
291.07 18.86 (40000) .5 0 t
351.33 18.86 (50000) .5 0 t
0.00 0.00 425.20 283.46 cl
0.00 0.00 425.20 283.46 cl
0.00 0.00 425.20 283.46 cl
0.00 0.00 425.20 283.46 cl
0.00 0.00 425.20 283.46 cl
0.00 0.00 425.20 283.46 cl
/Font1 findfont 11 s
0 0 0 srgb
203.69 5.48 (n) .5 0 t
0.00 0.00 425.20 283.46 cl
0.00 0.00 425.20 283.46 cl
/Font1 findfont 11 s
0 0 0 srgb
13.38 154.12 (t\(ms\)) .5 90 t
0.00 0.00 425.20 283.46 cl
0.00 0.00 425.20 283.46 cl
0.00 0.00 425.20 283.46 cl
0.00 0.00 425.20 283.46 cl
0.00 0.00 425.20 283.46 cl
0.00 0.00 425.20 283.46 cl
0.00 0.00 425.20 283.46 cl
0.00 0.00 425.20 283.46 cl
/bg { 1 1 1 srgb } def
377.44 116.42 42.28 75.40 r p2
0.00 0.00 425.20 283.46 cl
0.00 0.00 425.20 283.46 cl
/Font1 findfont 11 s
0 0 0 srgb
383.11 178.25 (colour) 0 0 t
0.00 0.00 425.20 283.46 cl
0.00 0.00 425.20 283.46 cl
/bg { 0.9490 0.9490 0.9490 srgb } def
1 1 1 srgb
1.07 setlinewidth
[] 0 setdash
1 setlinecap
1 setlinejoin
10.00 setmiterlimit
383.11 156.65 17.28 17.28 r p3
0.00 0.00 425.20 283.46 cl
0.00 0.00 425.20 283.46 cl
0.9725 0.4627 0.4275 srgb
1.07 setlinewidth
[] 0 setdash
0 setlinecap
1 setlinejoin
10.00 setmiterlimit
np
384.83 165.29 m
13.83 0 l
o
0.00 0.00 425.20 283.46 cl
0.00 0.00 425.20 283.46 cl
0.9725 0.4627 0.4275 srgb
1.07 setlinewidth
[] 0 setdash
0 setlinecap
1 setlinejoin
10.00 setmiterlimit
np
384.83 165.29 m
13.83 0 l
o
0.00 0.00 425.20 283.46 cl
0.00 0.00 425.20 283.46 cl
0.9725 0.4627 0.4275 srgb
1.07 setlinewidth
[] 0 setdash
0 setlinecap
1 setlinejoin
10.00 setmiterlimit
np
384.83 165.29 m
13.83 0 l
o
0.00 0.00 425.20 283.46 cl
0.00 0.00 425.20 283.46 cl
/bg { 0.9490 0.9490 0.9490 srgb } def
1 1 1 srgb
1.07 setlinewidth
[] 0 setdash
1 setlinecap
1 setlinejoin
10.00 setmiterlimit
383.11 139.37 17.28 17.28 r p3
0.00 0.00 425.20 283.46 cl
0.00 0.00 425.20 283.46 cl
0 0.7294 0.2196 srgb
1.07 setlinewidth
[] 0 setdash
0 setlinecap
1 setlinejoin
10.00 setmiterlimit
np
384.83 148.01 m
13.83 0 l
o
0.00 0.00 425.20 283.46 cl
0.00 0.00 425.20 283.46 cl
0 0.7294 0.2196 srgb
1.07 setlinewidth
[] 0 setdash
0 setlinecap
1 setlinejoin
10.00 setmiterlimit
np
384.83 148.01 m
13.83 0 l
o
0.00 0.00 425.20 283.46 cl
0.00 0.00 425.20 283.46 cl
0 0.7294 0.2196 srgb
1.07 setlinewidth
[] 0 setdash
0 setlinecap
1 setlinejoin
10.00 setmiterlimit
np
384.83 148.01 m
13.83 0 l
o
0.00 0.00 425.20 283.46 cl
0.00 0.00 425.20 283.46 cl
/bg { 0.9490 0.9490 0.9490 srgb } def
1 1 1 srgb
1.07 setlinewidth
[] 0 setdash
1 setlinecap
1 setlinejoin
10.00 setmiterlimit
383.11 122.09 17.28 17.28 r p3
0.00 0.00 425.20 283.46 cl
0.00 0.00 425.20 283.46 cl
0.3804 0.6118 1 srgb
1.07 setlinewidth
[] 0 setdash
0 setlinecap
1 setlinejoin
10.00 setmiterlimit
np
384.83 130.73 m
13.83 0 l
o
0.00 0.00 425.20 283.46 cl
0.00 0.00 425.20 283.46 cl
0.3804 0.6118 1 srgb
1.07 setlinewidth
[] 0 setdash
0 setlinecap
1 setlinejoin
10.00 setmiterlimit
np
384.83 130.73 m
13.83 0 l
o
0.00 0.00 425.20 283.46 cl
0.00 0.00 425.20 283.46 cl
0.3804 0.6118 1 srgb
1.07 setlinewidth
[] 0 setdash
0 setlinecap
1 setlinejoin
10.00 setmiterlimit
np
384.83 130.73 m
13.83 0 l
o
0.00 0.00 425.20 283.46 cl
0.00 0.00 425.20 283.46 cl
/Font1 findfont 9 s
0 0 0 srgb
402.55 162.06 (bf) 0 0 t
0.00 0.00 425.20 283.46 cl
0.00 0.00 425.20 283.46 cl
/Font1 findfont 9 s
0 0 0 srgb
402.55 144.78 (is1) 0 0 t
0.00 0.00 425.20 283.46 cl
0.00 0.00 425.20 283.46 cl
/Font1 findfont 9 s
0 0 0 srgb
402.55 127.50 (is2) 0 0 t
0.00 0.00 425.20 283.46 cl
0.00 0.00 425.20 283.46 cl
0.00 0.00 425.20 283.46 cl
0.00 0.00 425.20 283.46 cl
0.00 0.00 425.20 283.46 cl
0.00 0.00 425.20 283.46 cl
0.00 0.00 425.20 283.46 cl
0.00 0.00 425.20 283.46 cl
0.00 0.00 425.20 283.46 cl
0.00 0.00 425.20 283.46 cl
ep
%%Trailer
%%Pages: 1
%%EOF
