%!PS-Adobe-3.0 EPSF-3.0
%%DocumentNeededResources: font Helvetica
%%+ font Helvetica-Bold
%%+ font Helvetica-Oblique
%%+ font Helvetica-BoldOblique
%%+ font Symbol
%%Title: R Graphics Output
%%Creator: R Software
%%Pages: (atend)
%%BoundingBox: 0 0 425 283
%%EndComments
%%BeginProlog
/bp  { gs sRGB gs } def
% begin .ps.prolog
/gs  { gsave } bind def
/gr  { grestore } bind def
/ep  { showpage gr gr } bind def
/m   { moveto } bind def
/l  { rlineto } bind def
/np  { newpath } bind def
/cp  { closepath } bind def
/f   { fill } bind def
/o   { stroke } bind def
/c   { newpath 0 360 arc } bind def
/r   { 4 2 roll moveto 1 copy 3 -1 roll exch 0 exch rlineto 0 rlineto -1 mul 0 exch rlineto closepath } bind def
/p1  { stroke } bind def
/p2  { gsave bg fill grestore newpath } bind def
/p3  { gsave bg fill grestore stroke } bind def
/p6  { gsave bg eofill grestore newpath } bind def
/p7  { gsave bg eofill grestore stroke } bind def
/t   { 5 -2 roll moveto gsave rotate
       1 index stringwidth pop
       mul neg 0 rmoveto show grestore } bind def
/ta  { 4 -2 roll moveto gsave rotate show } bind def
/tb  { 2 -1 roll 0 rmoveto show } bind def
/cl  { grestore gsave newpath 3 index 3 index moveto 1 index
       4 -1 roll lineto  exch 1 index lineto lineto
       closepath clip newpath } bind def
/rgb { setrgbcolor } bind def
/s   { scalefont setfont } bind def
% end   .ps.prolog
/sRGB { [ /CIEBasedABC
          << /DecodeLMN
               [ { dup 0.03928 le
                        {12.92321 div}
                        {0.055 add 1.055 div 2.4 exp }
                     ifelse
                 } bind dup dup
               ]
             /MatrixLMN [0.412457 0.212673 0.019334
                         0.357576 0.715152 0.119192
                         0.180437 0.072175 0.950301]
             /WhitePoint [0.9505 1.0 1.0890]
           >>
         ] setcolorspace } bind def
/srgb { setcolor } bind def
%%IncludeResource: font Helvetica
/Helvetica findfont
dup length dict begin
  {1 index /FID ne {def} {pop pop} ifelse} forall
  /Encoding ISOLatin1Encoding def
  currentdict
  end
/Font1 exch definefont pop
%%IncludeResource: font Helvetica-Bold
/Helvetica-Bold findfont
dup length dict begin
  {1 index /FID ne {def} {pop pop} ifelse} forall
  /Encoding ISOLatin1Encoding def
  currentdict
  end
/Font2 exch definefont pop
%%IncludeResource: font Helvetica-Oblique
/Helvetica-Oblique findfont
dup length dict begin
  {1 index /FID ne {def} {pop pop} ifelse} forall
  /Encoding ISOLatin1Encoding def
  currentdict
  end
/Font3 exch definefont pop
%%IncludeResource: font Helvetica-BoldOblique
/Helvetica-BoldOblique findfont
dup length dict begin
  {1 index /FID ne {def} {pop pop} ifelse} forall
  /Encoding ISOLatin1Encoding def
  currentdict
  end
/Font4 exch definefont pop
%%IncludeResource: font Symbol
/Symbol findfont
dup length dict begin
  {1 index /FID ne {def} {pop pop} ifelse} forall
  currentdict
  end
/Font5 exch definefont pop
%%EndProlog
%%Page: 1 1
bp
0.00 0.00 425.20 283.46 cl
0.00 0.00 425.20 283.46 cl
0.00 0.00 425.20 283.46 cl
0.00 0.00 425.20 283.46 cl
0.00 0.00 425.20 283.46 cl
0.00 0.00 425.20 283.46 cl
0.00 0.00 425.20 283.46 cl
0.00 0.00 425.20 283.46 cl
0.00 0.00 425.20 283.46 cl
0.00 0.00 425.20 283.46 cl
/bg { 1 1 1 srgb } def
1 1 1 srgb
1.07 setlinewidth
[] 0 setdash
1 setlinecap
1 setlinejoin
10.00 setmiterlimit
0.00 0.00 425.20 283.46 r p3
0.00 0.00 425.20 283.46 cl
41.28 30.25 355.59 277.99 cl
/bg { 0.9216 0.9216 0.9216 srgb } def
41.28 30.25 314.30 247.73 r p2
1 1 1 srgb
0.53 setlinewidth
[] 0 setdash
0 setlinecap
1 setlinejoin
10.00 setmiterlimit
np
41.28 70.53 m
314.31 0 l
o
np
41.28 128.58 m
314.31 0 l
o
np
41.28 186.62 m
314.31 0 l
o
np
41.28 244.67 m
314.31 0 l
o
np
78.90 30.25 m
0 247.74 l
o
np
137.21 30.25 m
0 247.74 l
o
np
195.52 30.25 m
0 247.74 l
o
np
253.83 30.25 m
0 247.74 l
o
np
312.14 30.25 m
0 247.74 l
o
1.07 setlinewidth
[] 0 setdash
np
41.28 41.51 m
314.31 0 l
o
np
41.28 99.56 m
314.31 0 l
o
np
41.28 157.60 m
314.31 0 l
o
np
41.28 215.65 m
314.31 0 l
o
np
41.28 273.69 m
314.31 0 l
o
np
49.74 30.25 m
0 247.74 l
o
np
108.05 30.25 m
0 247.74 l
o
np
166.36 30.25 m
0 247.74 l
o
np
224.68 30.25 m
0 247.74 l
o
np
282.99 30.25 m
0 247.74 l
o
np
341.30 30.25 m
0 247.74 l
o
0.3804 0.6118 1 srgb
1.00 setmiterlimit
np
55.57 41.51 m
5.83 0 l
5.83 0 l
5.83 0 l
5.84 0 l
5.83 2.32 l
5.83 0 l
5.83 2.32 l
5.83 0 l
5.83 2.33 l
5.83 2.32 l
5.83 2.32 l
5.84 2.32 l
5.83 2.32 l
5.83 2.33 l
5.83 2.32 l
5.83 2.32 l
5.83 4.64 l
5.83 2.32 l
5.83 4.65 l
5.83 2.32 l
5.84 4.64 l
5.83 4.65 l
5.83 4.64 l
5.83 4.64 l
5.83 4.65 l
5.83 4.64 l
5.83 4.64 l
5.83 4.65 l
5.84 6.96 l
5.83 4.65 l
5.83 6.96 l
5.83 6.97 l
5.83 4.64 l
5.83 4.65 l
5.83 9.28 l
5.83 6.97 l
5.84 6.96 l
5.83 4.65 l
5.83 9.28 l
5.83 6.97 l
5.83 6.96 l
5.83 9.29 l
5.83 4.65 l
5.83 9.28 l
5.83 9.29 l
5.84 9.29 l
5.83 4.64 l
5.83 9.29 l
5.83 9.28 l
o
0.9725 0.4627 0.4275 srgb
np
55.57 41.51 m
5.83 0 l
5.83 0 l
5.83 0 l
5.84 0 l
5.83 2.32 l
5.83 0 l
5.83 2.32 l
5.83 0 l
5.83 2.33 l
5.83 2.32 l
5.83 2.32 l
5.84 2.32 l
5.83 2.32 l
5.83 2.33 l
5.83 2.32 l
5.83 2.32 l
5.83 4.64 l
5.83 2.32 l
5.83 4.65 l
5.83 2.32 l
5.84 4.64 l
5.83 4.65 l
5.83 4.64 l
5.83 4.64 l
5.83 4.65 l
5.83 4.64 l
5.83 4.64 l
5.83 6.97 l
5.84 4.64 l
5.83 4.65 l
5.83 6.96 l
5.83 4.65 l
5.83 6.96 l
5.83 4.65 l
5.83 9.28 l
5.83 6.97 l
5.84 6.96 l
5.83 4.65 l
5.83 9.28 l
5.83 4.65 l
5.83 9.28 l
5.83 6.97 l
5.83 9.29 l
5.83 6.96 l
5.83 9.29 l
5.84 11.61 l
5.83 4.64 l
5.83 6.97 l
5.83 9.28 l
o
0 0.7294 0.2196 srgb
np
55.57 41.51 m
5.83 0 l
5.83 0 l
5.83 0 l
5.84 0 l
5.83 2.32 l
5.83 0 l
5.83 2.32 l
5.83 0 l
5.83 2.33 l
5.83 2.32 l
5.83 2.32 l
5.84 2.32 l
5.83 2.32 l
5.83 2.33 l
5.83 2.32 l
5.83 4.64 l
5.83 2.32 l
5.83 2.32 l
5.83 4.65 l
5.83 2.32 l
5.84 4.64 l
5.83 4.65 l
5.83 4.64 l
5.83 4.64 l
5.83 4.65 l
5.83 4.64 l
5.83 4.64 l
5.83 4.65 l
5.84 6.96 l
5.83 4.65 l
5.83 6.96 l
5.83 6.97 l
5.83 4.64 l
5.83 4.65 l
5.83 9.28 l
5.83 6.97 l
5.84 6.96 l
5.83 6.97 l
5.83 4.64 l
5.83 9.29 l
5.83 6.96 l
5.83 6.97 l
5.83 6.97 l
5.83 9.28 l
5.83 9.29 l
5.84 6.96 l
5.83 9.29 l
5.83 6.97 l
5.83 9.28 l
o
0.00 0.00 425.20 283.46 cl
0.00 0.00 425.20 283.46 cl
0.00 0.00 425.20 283.46 cl
0.00 0.00 425.20 283.46 cl
0.00 0.00 425.20 283.46 cl
0.00 0.00 425.20 283.46 cl
0.00 0.00 425.20 283.46 cl
0.00 0.00 425.20 283.46 cl
0.00 0.00 425.20 283.46 cl
0.00 0.00 425.20 283.46 cl
0.00 0.00 425.20 283.46 cl
0.00 0.00 425.20 283.46 cl
0.00 0.00 425.20 283.46 cl
0.00 0.00 425.20 283.46 cl
0.00 0.00 425.20 283.46 cl
0.00 0.00 425.20 283.46 cl
/Font1 findfont 9 s
0.3020 0.3020 0.3020 srgb
36.35 38.28 (0) 1 0 t
36.35 96.32 (25) 1 0 t
36.35 154.37 (50) 1 0 t
36.35 212.41 (75) 1 0 t
36.35 270.46 (100) 1 0 t
0.00 0.00 425.20 283.46 cl
0.00 0.00 425.20 283.46 cl
0.2000 0.2000 0.2000 srgb
1.07 setlinewidth
[] 0 setdash
0 setlinecap
1 setlinejoin
10.00 setmiterlimit
np
38.54 41.51 m
2.74 0 l
o
np
38.54 99.56 m
2.74 0 l
o
np
38.54 157.60 m
2.74 0 l
o
np
38.54 215.65 m
2.74 0 l
o
np
38.54 273.69 m
2.74 0 l
o
0.00 0.00 425.20 283.46 cl
0.00 0.00 425.20 283.46 cl
0.00 0.00 425.20 283.46 cl
0.00 0.00 425.20 283.46 cl
0.00 0.00 425.20 283.46 cl
0.00 0.00 425.20 283.46 cl
0.00 0.00 425.20 283.46 cl
0.00 0.00 425.20 283.46 cl
0.00 0.00 425.20 283.46 cl
0.00 0.00 425.20 283.46 cl
0.2000 0.2000 0.2000 srgb
1.07 setlinewidth
[] 0 setdash
0 setlinecap
1 setlinejoin
10.00 setmiterlimit
np
49.74 27.51 m
0 2.74 l
o
np
108.05 27.51 m
0 2.74 l
o
np
166.36 27.51 m
0 2.74 l
o
np
224.68 27.51 m
0 2.74 l
o
np
282.99 27.51 m
0 2.74 l
o
np
341.30 27.51 m
0 2.74 l
o
0.00 0.00 425.20 283.46 cl
0.00 0.00 425.20 283.46 cl
/Font1 findfont 9 s
0.3020 0.3020 0.3020 srgb
49.74 18.86 (0) .5 0 t
108.05 18.86 (10000) .5 0 t
166.36 18.86 (20000) .5 0 t
224.68 18.86 (30000) .5 0 t
282.99 18.86 (40000) .5 0 t
341.30 18.86 (50000) .5 0 t
0.00 0.00 425.20 283.46 cl
0.00 0.00 425.20 283.46 cl
0.00 0.00 425.20 283.46 cl
0.00 0.00 425.20 283.46 cl
0.00 0.00 425.20 283.46 cl
0.00 0.00 425.20 283.46 cl
/Font1 findfont 11 s
0 0 0 srgb
198.44 5.48 (n) .5 0 t
0.00 0.00 425.20 283.46 cl
0.00 0.00 425.20 283.46 cl
/Font1 findfont 11 s
0 0 0 srgb
13.38 154.12 (t\(ms\)) .5 90 t
0.00 0.00 425.20 283.46 cl
0.00 0.00 425.20 283.46 cl
0.00 0.00 425.20 283.46 cl
0.00 0.00 425.20 283.46 cl
0.00 0.00 425.20 283.46 cl
0.00 0.00 425.20 283.46 cl
0.00 0.00 425.20 283.46 cl
0.00 0.00 425.20 283.46 cl
/bg { 1 1 1 srgb } def
366.92 116.42 52.79 75.40 r p2
0.00 0.00 425.20 283.46 cl
0.00 0.00 425.20 283.46 cl
/Font1 findfont 11 s
0 0 0 srgb
372.59 178.25 (colour) 0 0 t
0.00 0.00 425.20 283.46 cl
0.00 0.00 425.20 283.46 cl
/bg { 0.9490 0.9490 0.9490 srgb } def
1 1 1 srgb
1.07 setlinewidth
[] 0 setdash
1 setlinecap
1 setlinejoin
10.00 setmiterlimit
372.59 156.65 17.28 17.28 r p3
0.00 0.00 425.20 283.46 cl
0.00 0.00 425.20 283.46 cl
0.9725 0.4627 0.4275 srgb
1.07 setlinewidth
[] 0 setdash
0 setlinecap
1 setlinejoin
10.00 setmiterlimit
np
374.32 165.29 m
13.83 0 l
o
0.00 0.00 425.20 283.46 cl
0.00 0.00 425.20 283.46 cl
0.9725 0.4627 0.4275 srgb
1.07 setlinewidth
[] 0 setdash
0 setlinecap
1 setlinejoin
10.00 setmiterlimit
np
374.32 165.29 m
13.83 0 l
o
0.00 0.00 425.20 283.46 cl
0.00 0.00 425.20 283.46 cl
0.9725 0.4627 0.4275 srgb
1.07 setlinewidth
[] 0 setdash
0 setlinecap
1 setlinejoin
10.00 setmiterlimit
np
374.32 165.29 m
13.83 0 l
o
0.00 0.00 425.20 283.46 cl
0.00 0.00 425.20 283.46 cl
/bg { 0.9490 0.9490 0.9490 srgb } def
1 1 1 srgb
1.07 setlinewidth
[] 0 setdash
1 setlinecap
1 setlinejoin
10.00 setmiterlimit
372.59 139.37 17.28 17.28 r p3
0.00 0.00 425.20 283.46 cl
0.00 0.00 425.20 283.46 cl
0 0.7294 0.2196 srgb
1.07 setlinewidth
[] 0 setdash
0 setlinecap
1 setlinejoin
10.00 setmiterlimit
np
374.32 148.01 m
13.83 0 l
o
0.00 0.00 425.20 283.46 cl
0.00 0.00 425.20 283.46 cl
0 0.7294 0.2196 srgb
1.07 setlinewidth
[] 0 setdash
0 setlinecap
1 setlinejoin
10.00 setmiterlimit
np
374.32 148.01 m
13.83 0 l
o
0.00 0.00 425.20 283.46 cl
0.00 0.00 425.20 283.46 cl
0 0.7294 0.2196 srgb
1.07 setlinewidth
[] 0 setdash
0 setlinecap
1 setlinejoin
10.00 setmiterlimit
np
374.32 148.01 m
13.83 0 l
o
0.00 0.00 425.20 283.46 cl
0.00 0.00 425.20 283.46 cl
/bg { 0.9490 0.9490 0.9490 srgb } def
1 1 1 srgb
1.07 setlinewidth
[] 0 setdash
1 setlinecap
1 setlinejoin
10.00 setmiterlimit
372.59 122.09 17.28 17.28 r p3
0.00 0.00 425.20 283.46 cl
0.00 0.00 425.20 283.46 cl
0.3804 0.6118 1 srgb
1.07 setlinewidth
[] 0 setdash
0 setlinecap
1 setlinejoin
10.00 setmiterlimit
np
374.32 130.73 m
13.83 0 l
o
0.00 0.00 425.20 283.46 cl
0.00 0.00 425.20 283.46 cl
0.3804 0.6118 1 srgb
1.07 setlinewidth
[] 0 setdash
0 setlinecap
1 setlinejoin
10.00 setmiterlimit
np
374.32 130.73 m
13.83 0 l
o
0.00 0.00 425.20 283.46 cl
0.00 0.00 425.20 283.46 cl
0.3804 0.6118 1 srgb
1.07 setlinewidth
[] 0 setdash
0 setlinecap
1 setlinejoin
10.00 setmiterlimit
np
374.32 130.73 m
13.83 0 l
o
0.00 0.00 425.20 283.46 cl
0.00 0.00 425.20 283.46 cl
/Font1 findfont 9 s
0 0 0 srgb
392.03 162.06 (t_dec) 0 0 t
0.00 0.00 425.20 283.46 cl
0.00 0.00 425.20 283.46 cl
/Font1 findfont 9 s
0 0 0 srgb
392.03 144.78 (t_inc) 0 0 t
0.00 0.00 425.20 283.46 cl
0.00 0.00 425.20 283.46 cl
/Font1 findfont 9 s
0 0 0 srgb
392.03 127.50 (t_r) 0 ta
0.225 (nd) tb gr
0.00 0.00 425.20 283.46 cl
0.00 0.00 425.20 283.46 cl
0.00 0.00 425.20 283.46 cl
0.00 0.00 425.20 283.46 cl
0.00 0.00 425.20 283.46 cl
0.00 0.00 425.20 283.46 cl
0.00 0.00 425.20 283.46 cl
0.00 0.00 425.20 283.46 cl
0.00 0.00 425.20 283.46 cl
0.00 0.00 425.20 283.46 cl
ep
%%Trailer
%%Pages: 1
%%EOF
