%!PS-Adobe-3.0 EPSF-3.0
%%DocumentNeededResources: font Helvetica
%%+ font Helvetica-Bold
%%+ font Helvetica-Oblique
%%+ font Helvetica-BoldOblique
%%+ font Symbol
%%Title: R Graphics Output
%%Creator: R Software
%%Pages: (atend)
%%BoundingBox: 0 0 425 283
%%EndComments
%%BeginProlog
/bp  { gs sRGB gs } def
% begin .ps.prolog
/gs  { gsave } bind def
/gr  { grestore } bind def
/ep  { showpage gr gr } bind def
/m   { moveto } bind def
/l  { rlineto } bind def
/np  { newpath } bind def
/cp  { closepath } bind def
/f   { fill } bind def
/o   { stroke } bind def
/c   { newpath 0 360 arc } bind def
/r   { 4 2 roll moveto 1 copy 3 -1 roll exch 0 exch rlineto 0 rlineto -1 mul 0 exch rlineto closepath } bind def
/p1  { stroke } bind def
/p2  { gsave bg fill grestore newpath } bind def
/p3  { gsave bg fill grestore stroke } bind def
/p6  { gsave bg eofill grestore newpath } bind def
/p7  { gsave bg eofill grestore stroke } bind def
/t   { 5 -2 roll moveto gsave rotate
       1 index stringwidth pop
       mul neg 0 rmoveto show grestore } bind def
/ta  { 4 -2 roll moveto gsave rotate show } bind def
/tb  { 2 -1 roll 0 rmoveto show } bind def
/cl  { grestore gsave newpath 3 index 3 index moveto 1 index
       4 -1 roll lineto  exch 1 index lineto lineto
       closepath clip newpath } bind def
/rgb { setrgbcolor } bind def
/s   { scalefont setfont } bind def
% end   .ps.prolog
/sRGB { [ /CIEBasedABC
          << /DecodeLMN
               [ { dup 0.03928 le
                        {12.92321 div}
                        {0.055 add 1.055 div 2.4 exp }
                     ifelse
                 } bind dup dup
               ]
             /MatrixLMN [0.412457 0.212673 0.019334
                         0.357576 0.715152 0.119192
                         0.180437 0.072175 0.950301]
             /WhitePoint [0.9505 1.0 1.0890]
           >>
         ] setcolorspace } bind def
/srgb { setcolor } bind def
%%IncludeResource: font Helvetica
/Helvetica findfont
dup length dict begin
  {1 index /FID ne {def} {pop pop} ifelse} forall
  /Encoding ISOLatin1Encoding def
  currentdict
  end
/Font1 exch definefont pop
%%IncludeResource: font Helvetica-Bold
/Helvetica-Bold findfont
dup length dict begin
  {1 index /FID ne {def} {pop pop} ifelse} forall
  /Encoding ISOLatin1Encoding def
  currentdict
  end
/Font2 exch definefont pop
%%IncludeResource: font Helvetica-Oblique
/Helvetica-Oblique findfont
dup length dict begin
  {1 index /FID ne {def} {pop pop} ifelse} forall
  /Encoding ISOLatin1Encoding def
  currentdict
  end
/Font3 exch definefont pop
%%IncludeResource: font Helvetica-BoldOblique
/Helvetica-BoldOblique findfont
dup length dict begin
  {1 index /FID ne {def} {pop pop} ifelse} forall
  /Encoding ISOLatin1Encoding def
  currentdict
  end
/Font4 exch definefont pop
%%IncludeResource: font Symbol
/Symbol findfont
dup length dict begin
  {1 index /FID ne {def} {pop pop} ifelse} forall
  currentdict
  end
/Font5 exch definefont pop
%%EndProlog
%%Page: 1 1
bp
0.00 0.00 425.20 283.46 cl
0.00 0.00 425.20 283.46 cl
0.00 0.00 425.20 283.46 cl
0.00 0.00 425.20 283.46 cl
0.00 0.00 425.20 283.46 cl
0.00 0.00 425.20 283.46 cl
0.00 0.00 425.20 283.46 cl
0.00 0.00 425.20 283.46 cl
0.00 0.00 425.20 283.46 cl
0.00 0.00 425.20 283.46 cl
/bg { 1 1 1 srgb } def
1 1 1 srgb
1.07 setlinewidth
[] 0 setdash
1 setlinecap
1 setlinejoin
10.00 setmiterlimit
0.00 0.00 425.20 283.46 r p3
0.00 0.00 425.20 283.46 cl
46.29 30.25 366.10 277.99 cl
/bg { 0.9216 0.9216 0.9216 srgb } def
46.29 30.25 319.81 247.73 r p2
1 1 1 srgb
0.53 setlinewidth
[] 0 setdash
0 setlinecap
1 setlinejoin
10.00 setmiterlimit
np
46.29 76.31 m
319.81 0 l
o
np
46.29 145.91 m
319.81 0 l
o
np
46.29 215.50 m
319.81 0 l
o
np
84.56 30.25 m
0 247.74 l
o
np
143.89 30.25 m
0 247.74 l
o
np
203.23 30.25 m
0 247.74 l
o
np
262.56 30.25 m
0 247.74 l
o
np
321.89 30.25 m
0 247.74 l
o
1.07 setlinewidth
[] 0 setdash
np
46.29 41.51 m
319.81 0 l
o
np
46.29 111.11 m
319.81 0 l
o
np
46.29 180.70 m
319.81 0 l
o
np
46.29 250.30 m
319.81 0 l
o
np
54.89 30.25 m
0 247.74 l
o
np
114.23 30.25 m
0 247.74 l
o
np
173.56 30.25 m
0 247.74 l
o
np
232.89 30.25 m
0 247.74 l
o
np
292.23 30.25 m
0 247.74 l
o
np
351.56 30.25 m
0 247.74 l
o
0.9725 0.4627 0.4275 srgb
1.00 setmiterlimit
np
60.83 41.51 m
5.93 0 l
5.93 0 l
5.94 0 l
5.93 0 l
5.93 0.14 l
5.94 0 l
5.93 0.14 l
5.93 0 l
5.94 0.14 l
5.93 0.14 l
5.93 0.14 l
5.94 0.14 l
5.93 0.14 l
5.93 0.13 l
5.94 0.14 l
5.93 0.14 l
5.93 0.28 l
5.94 0.14 l
5.93 0.28 l
5.93 0.14 l
5.94 0.28 l
5.93 0.27 l
5.93 0.28 l
5.94 0.28 l
5.93 0.28 l
5.93 0.28 l
5.94 0.28 l
5.93 0.41 l
5.93 0.28 l
5.94 0.28 l
5.93 0.42 l
5.93 0.28 l
5.94 0.41 l
5.93 0.28 l
5.93 0.56 l
5.94 0.42 l
5.93 0.42 l
5.93 0.27 l
5.94 0.56 l
5.93 0.28 l
5.93 0.56 l
5.94 0.41 l
5.93 0.56 l
5.93 0.42 l
5.94 0.55 l
5.93 0.70 l
5.93 0.28 l
5.94 0.42 l
5.93 0.55 l
o
0 0.7294 0.2196 srgb
np
60.83 41.51 m
5.93 0.28 l
5.93 0.56 l
5.94 0.69 l
5.93 0.84 l
5.93 1.11 l
5.94 1.25 l
5.93 1.53 l
5.93 1.68 l
5.94 1.67 l
5.93 1.94 l
5.93 2.37 l
5.94 2.23 l
5.93 2.50 l
5.93 2.79 l
5.94 2.36 l
5.93 3.62 l
5.93 3.48 l
5.94 3.34 l
5.93 3.48 l
5.93 4.18 l
5.94 3.90 l
5.93 3.06 l
5.93 5.57 l
5.94 4.45 l
5.93 6.54 l
5.93 4.59 l
5.94 3.76 l
5.93 5.57 l
5.93 1.67 l
5.94 -2.92 l
5.93 18.79 l
5.93 6.26 l
5.94 5.71 l
5.93 6.68 l
5.93 6.54 l
5.94 -1.53 l
5.93 15.45 l
5.93 7.24 l
5.94 7.52 l
5.93 7.51 l
5.93 7.80 l
5.94 11.83 l
5.93 4.31 l
5.93 8.49 l
5.94 8.50 l
5.93 8.63 l
5.93 9.18 l
5.94 8.21 l
5.93 -19.62 l
o
0.3804 0.6118 1 srgb
np
60.83 41.51 m
5.93 0.14 l
5.93 0.14 l
5.94 0.28 l
5.93 0.42 l
5.93 0.41 l
5.94 0.56 l
5.93 0.70 l
5.93 0.69 l
5.94 0.84 l
5.93 0.83 l
5.93 0.98 l
5.94 0.97 l
5.93 1.25 l
5.93 1.12 l
5.94 1.25 l
5.93 1.39 l
5.93 1.39 l
5.94 1.40 l
5.93 1.67 l
5.93 1.53 l
5.94 1.81 l
5.93 1.81 l
5.93 1.81 l
5.94 2.08 l
5.93 1.95 l
5.93 2.23 l
5.94 2.09 l
5.93 2.36 l
5.93 3.07 l
5.94 1.67 l
5.93 2.50 l
5.93 2.51 l
5.94 3.06 l
5.93 2.64 l
5.93 2.93 l
5.94 2.92 l
5.93 2.92 l
5.93 3.62 l
5.94 4.73 l
5.93 1.12 l
5.93 3.48 l
5.94 4.03 l
5.93 2.79 l
5.93 3.76 l
5.94 3.62 l
5.93 3.89 l
5.93 3.76 l
5.94 7.52 l
5.93 0.28 l
o
0.00 0.00 425.20 283.46 cl
0.00 0.00 425.20 283.46 cl
0.00 0.00 425.20 283.46 cl
0.00 0.00 425.20 283.46 cl
0.00 0.00 425.20 283.46 cl
0.00 0.00 425.20 283.46 cl
0.00 0.00 425.20 283.46 cl
0.00 0.00 425.20 283.46 cl
0.00 0.00 425.20 283.46 cl
0.00 0.00 425.20 283.46 cl
0.00 0.00 425.20 283.46 cl
0.00 0.00 425.20 283.46 cl
0.00 0.00 425.20 283.46 cl
0.00 0.00 425.20 283.46 cl
0.00 0.00 425.20 283.46 cl
0.00 0.00 425.20 283.46 cl
/Font1 findfont 9 s
0.3020 0.3020 0.3020 srgb
41.36 38.28 (0) 1 0 t
41.36 107.88 (500) 1 0 t
41.36 177.47 (1000) 1 0 t
41.36 247.07 (1500) 1 0 t
0.00 0.00 425.20 283.46 cl
0.00 0.00 425.20 283.46 cl
0.2000 0.2000 0.2000 srgb
1.07 setlinewidth
[] 0 setdash
0 setlinecap
1 setlinejoin
10.00 setmiterlimit
np
43.55 41.51 m
2.74 0 l
o
np
43.55 111.11 m
2.74 0 l
o
np
43.55 180.70 m
2.74 0 l
o
np
43.55 250.30 m
2.74 0 l
o
0.00 0.00 425.20 283.46 cl
0.00 0.00 425.20 283.46 cl
0.00 0.00 425.20 283.46 cl
0.00 0.00 425.20 283.46 cl
0.00 0.00 425.20 283.46 cl
0.00 0.00 425.20 283.46 cl
0.00 0.00 425.20 283.46 cl
0.00 0.00 425.20 283.46 cl
0.00 0.00 425.20 283.46 cl
0.00 0.00 425.20 283.46 cl
0.2000 0.2000 0.2000 srgb
1.07 setlinewidth
[] 0 setdash
0 setlinecap
1 setlinejoin
10.00 setmiterlimit
np
54.89 27.51 m
0 2.74 l
o
np
114.23 27.51 m
0 2.74 l
o
np
173.56 27.51 m
0 2.74 l
o
np
232.89 27.51 m
0 2.74 l
o
np
292.23 27.51 m
0 2.74 l
o
np
351.56 27.51 m
0 2.74 l
o
0.00 0.00 425.20 283.46 cl
0.00 0.00 425.20 283.46 cl
/Font1 findfont 9 s
0.3020 0.3020 0.3020 srgb
54.89 18.86 (0) .5 0 t
114.23 18.86 (10000) .5 0 t
173.56 18.86 (20000) .5 0 t
232.89 18.86 (30000) .5 0 t
292.23 18.86 (40000) .5 0 t
351.56 18.86 (50000) .5 0 t
0.00 0.00 425.20 283.46 cl
0.00 0.00 425.20 283.46 cl
0.00 0.00 425.20 283.46 cl
0.00 0.00 425.20 283.46 cl
0.00 0.00 425.20 283.46 cl
0.00 0.00 425.20 283.46 cl
/Font1 findfont 11 s
0 0 0 srgb
206.19 5.48 (n) .5 0 t
0.00 0.00 425.20 283.46 cl
0.00 0.00 425.20 283.46 cl
/Font1 findfont 11 s
0 0 0 srgb
13.38 154.12 (t\(ms\)) .5 90 t
0.00 0.00 425.20 283.46 cl
0.00 0.00 425.20 283.46 cl
0.00 0.00 425.20 283.46 cl
0.00 0.00 425.20 283.46 cl
0.00 0.00 425.20 283.46 cl
0.00 0.00 425.20 283.46 cl
0.00 0.00 425.20 283.46 cl
0.00 0.00 425.20 283.46 cl
/bg { 1 1 1 srgb } def
377.44 116.42 42.28 75.40 r p2
0.00 0.00 425.20 283.46 cl
0.00 0.00 425.20 283.46 cl
/Font1 findfont 11 s
0 0 0 srgb
383.11 178.25 (colour) 0 0 t
0.00 0.00 425.20 283.46 cl
0.00 0.00 425.20 283.46 cl
/bg { 0.9490 0.9490 0.9490 srgb } def
1 1 1 srgb
1.07 setlinewidth
[] 0 setdash
1 setlinecap
1 setlinejoin
10.00 setmiterlimit
383.11 156.65 17.28 17.28 r p3
0.00 0.00 425.20 283.46 cl
0.00 0.00 425.20 283.46 cl
0.9725 0.4627 0.4275 srgb
1.07 setlinewidth
[] 0 setdash
0 setlinecap
1 setlinejoin
10.00 setmiterlimit
np
384.83 165.29 m
13.83 0 l
o
0.00 0.00 425.20 283.46 cl
0.00 0.00 425.20 283.46 cl
0.9725 0.4627 0.4275 srgb
1.07 setlinewidth
[] 0 setdash
0 setlinecap
1 setlinejoin
10.00 setmiterlimit
np
384.83 165.29 m
13.83 0 l
o
0.00 0.00 425.20 283.46 cl
0.00 0.00 425.20 283.46 cl
0.9725 0.4627 0.4275 srgb
1.07 setlinewidth
[] 0 setdash
0 setlinecap
1 setlinejoin
10.00 setmiterlimit
np
384.83 165.29 m
13.83 0 l
o
0.00 0.00 425.20 283.46 cl
0.00 0.00 425.20 283.46 cl
/bg { 0.9490 0.9490 0.9490 srgb } def
1 1 1 srgb
1.07 setlinewidth
[] 0 setdash
1 setlinecap
1 setlinejoin
10.00 setmiterlimit
383.11 139.37 17.28 17.28 r p3
0.00 0.00 425.20 283.46 cl
0.00 0.00 425.20 283.46 cl
0 0.7294 0.2196 srgb
1.07 setlinewidth
[] 0 setdash
0 setlinecap
1 setlinejoin
10.00 setmiterlimit
np
384.83 148.01 m
13.83 0 l
o
0.00 0.00 425.20 283.46 cl
0.00 0.00 425.20 283.46 cl
0 0.7294 0.2196 srgb
1.07 setlinewidth
[] 0 setdash
0 setlinecap
1 setlinejoin
10.00 setmiterlimit
np
384.83 148.01 m
13.83 0 l
o
0.00 0.00 425.20 283.46 cl
0.00 0.00 425.20 283.46 cl
0 0.7294 0.2196 srgb
1.07 setlinewidth
[] 0 setdash
0 setlinecap
1 setlinejoin
10.00 setmiterlimit
np
384.83 148.01 m
13.83 0 l
o
0.00 0.00 425.20 283.46 cl
0.00 0.00 425.20 283.46 cl
/bg { 0.9490 0.9490 0.9490 srgb } def
1 1 1 srgb
1.07 setlinewidth
[] 0 setdash
1 setlinecap
1 setlinejoin
10.00 setmiterlimit
383.11 122.09 17.28 17.28 r p3
0.00 0.00 425.20 283.46 cl
0.00 0.00 425.20 283.46 cl
0.3804 0.6118 1 srgb
1.07 setlinewidth
[] 0 setdash
0 setlinecap
1 setlinejoin
10.00 setmiterlimit
np
384.83 130.73 m
13.83 0 l
o
0.00 0.00 425.20 283.46 cl
0.00 0.00 425.20 283.46 cl
0.3804 0.6118 1 srgb
1.07 setlinewidth
[] 0 setdash
0 setlinecap
1 setlinejoin
10.00 setmiterlimit
np
384.83 130.73 m
13.83 0 l
o
0.00 0.00 425.20 283.46 cl
0.00 0.00 425.20 283.46 cl
0.3804 0.6118 1 srgb
1.07 setlinewidth
[] 0 setdash
0 setlinecap
1 setlinejoin
10.00 setmiterlimit
np
384.83 130.73 m
13.83 0 l
o
0.00 0.00 425.20 283.46 cl
0.00 0.00 425.20 283.46 cl
/Font1 findfont 9 s
0 0 0 srgb
402.55 162.06 (bf) 0 0 t
0.00 0.00 425.20 283.46 cl
0.00 0.00 425.20 283.46 cl
/Font1 findfont 9 s
0 0 0 srgb
402.55 144.78 (is1) 0 0 t
0.00 0.00 425.20 283.46 cl
0.00 0.00 425.20 283.46 cl
/Font1 findfont 9 s
0 0 0 srgb
402.55 127.50 (is2) 0 0 t
0.00 0.00 425.20 283.46 cl
0.00 0.00 425.20 283.46 cl
0.00 0.00 425.20 283.46 cl
0.00 0.00 425.20 283.46 cl
0.00 0.00 425.20 283.46 cl
0.00 0.00 425.20 283.46 cl
0.00 0.00 425.20 283.46 cl
0.00 0.00 425.20 283.46 cl
0.00 0.00 425.20 283.46 cl
0.00 0.00 425.20 283.46 cl
ep
%%Trailer
%%Pages: 1
%%EOF
