%!PS-Adobe-3.0 EPSF-3.0
%%DocumentNeededResources: font Helvetica
%%+ font Helvetica-Bold
%%+ font Helvetica-Oblique
%%+ font Helvetica-BoldOblique
%%+ font Symbol
%%Title: R Graphics Output
%%Creator: R Software
%%Pages: (atend)
%%BoundingBox: 0 0 425 283
%%EndComments
%%BeginProlog
/bp  { gs sRGB gs } def
% begin .ps.prolog
/gs  { gsave } bind def
/gr  { grestore } bind def
/ep  { showpage gr gr } bind def
/m   { moveto } bind def
/l  { rlineto } bind def
/np  { newpath } bind def
/cp  { closepath } bind def
/f   { fill } bind def
/o   { stroke } bind def
/c   { newpath 0 360 arc } bind def
/r   { 4 2 roll moveto 1 copy 3 -1 roll exch 0 exch rlineto 0 rlineto -1 mul 0 exch rlineto closepath } bind def
/p1  { stroke } bind def
/p2  { gsave bg fill grestore newpath } bind def
/p3  { gsave bg fill grestore stroke } bind def
/p6  { gsave bg eofill grestore newpath } bind def
/p7  { gsave bg eofill grestore stroke } bind def
/t   { 5 -2 roll moveto gsave rotate
       1 index stringwidth pop
       mul neg 0 rmoveto show grestore } bind def
/ta  { 4 -2 roll moveto gsave rotate show } bind def
/tb  { 2 -1 roll 0 rmoveto show } bind def
/cl  { grestore gsave newpath 3 index 3 index moveto 1 index
       4 -1 roll lineto  exch 1 index lineto lineto
       closepath clip newpath } bind def
/rgb { setrgbcolor } bind def
/s   { scalefont setfont } bind def
% end   .ps.prolog
/sRGB { [ /CIEBasedABC
          << /DecodeLMN
               [ { dup 0.03928 le
                        {12.92321 div}
                        {0.055 add 1.055 div 2.4 exp }
                     ifelse
                 } bind dup dup
               ]
             /MatrixLMN [0.412457 0.212673 0.019334
                         0.357576 0.715152 0.119192
                         0.180437 0.072175 0.950301]
             /WhitePoint [0.9505 1.0 1.0890]
           >>
         ] setcolorspace } bind def
/srgb { setcolor } bind def
%%IncludeResource: font Helvetica
/Helvetica findfont
dup length dict begin
  {1 index /FID ne {def} {pop pop} ifelse} forall
  /Encoding ISOLatin1Encoding def
  currentdict
  end
/Font1 exch definefont pop
%%IncludeResource: font Helvetica-Bold
/Helvetica-Bold findfont
dup length dict begin
  {1 index /FID ne {def} {pop pop} ifelse} forall
  /Encoding ISOLatin1Encoding def
  currentdict
  end
/Font2 exch definefont pop
%%IncludeResource: font Helvetica-Oblique
/Helvetica-Oblique findfont
dup length dict begin
  {1 index /FID ne {def} {pop pop} ifelse} forall
  /Encoding ISOLatin1Encoding def
  currentdict
  end
/Font3 exch definefont pop
%%IncludeResource: font Helvetica-BoldOblique
/Helvetica-BoldOblique findfont
dup length dict begin
  {1 index /FID ne {def} {pop pop} ifelse} forall
  /Encoding ISOLatin1Encoding def
  currentdict
  end
/Font4 exch definefont pop
%%IncludeResource: font Symbol
/Symbol findfont
dup length dict begin
  {1 index /FID ne {def} {pop pop} ifelse} forall
  currentdict
  end
/Font5 exch definefont pop
%%EndProlog
%%Page: 1 1
bp
0.00 0.00 425.20 283.46 cl
0.00 0.00 425.20 283.46 cl
0.00 0.00 425.20 283.46 cl
0.00 0.00 425.20 283.46 cl
0.00 0.00 425.20 283.46 cl
0.00 0.00 425.20 283.46 cl
0.00 0.00 425.20 283.46 cl
0.00 0.00 425.20 283.46 cl
0.00 0.00 425.20 283.46 cl
0.00 0.00 425.20 283.46 cl
/bg { 1 1 1 srgb } def
1 1 1 srgb
1.07 setlinewidth
[] 0 setdash
1 setlinecap
1 setlinejoin
10.00 setmiterlimit
0.00 0.00 425.20 283.46 r p3
0.00 0.00 425.20 283.46 cl
43.79 30.25 360.60 277.99 cl
/bg { 0.9216 0.9216 0.9216 srgb } def
43.79 30.25 316.81 247.73 r p2
1 1 1 srgb
0.53 setlinewidth
[] 0 setdash
0 setlinecap
1 setlinejoin
10.00 setmiterlimit
np
43.79 64.97 m
316.81 0 l
o
np
43.79 111.89 m
316.81 0 l
o
np
43.79 158.81 m
316.81 0 l
o
np
43.79 205.73 m
316.81 0 l
o
np
43.79 252.65 m
316.81 0 l
o
np
81.70 30.25 m
0 247.74 l
o
np
140.48 30.25 m
0 247.74 l
o
np
199.25 30.25 m
0 247.74 l
o
np
258.03 30.25 m
0 247.74 l
o
np
316.81 30.25 m
0 247.74 l
o
1.07 setlinewidth
[] 0 setdash
np
43.79 41.51 m
316.81 0 l
o
np
43.79 88.43 m
316.81 0 l
o
np
43.79 135.35 m
316.81 0 l
o
np
43.79 182.27 m
316.81 0 l
o
np
43.79 229.19 m
316.81 0 l
o
np
43.79 276.11 m
316.81 0 l
o
np
52.31 30.25 m
0 247.74 l
o
np
111.09 30.25 m
0 247.74 l
o
np
169.86 30.25 m
0 247.74 l
o
np
228.64 30.25 m
0 247.74 l
o
np
287.42 30.25 m
0 247.74 l
o
np
346.20 30.25 m
0 247.74 l
o
0.9725 0.4627 0.4275 srgb
1.00 setmiterlimit
np
58.19 41.51 m
5.87 0 l
5.88 0 l
5.88 0 l
5.88 18.77 l
5.88 0 l
5.87 0 l
5.88 0 l
5.88 0 l
5.88 18.77 l
5.87 0 l
5.88 0 l
5.88 0 l
5.88 18.76 l
5.88 0 l
5.87 0 l
5.88 0 l
5.88 18.77 l
5.88 0 l
5.87 0 l
5.88 0 l
5.88 18.77 l
5.88 0 l
5.88 0 l
5.87 0 l
5.88 0 l
5.88 18.77 l
5.88 0 l
5.88 0 l
5.87 0 l
5.88 0 l
5.88 18.77 l
5.88 0 l
5.87 18.76 l
5.88 0 l
5.88 0 l
5.88 0 l
5.88 18.77 l
5.87 0 l
5.88 0 l
5.88 0 l
5.88 18.77 l
5.87 0 l
5.88 0 l
5.88 0 l
5.88 18.77 l
5.88 0 l
5.87 0 l
5.88 0 l
5.88 18.76 l
o
0 0.7294 0.2196 srgb
np
58.19 41.51 m
5.87 0 l
5.88 0 l
5.88 0 l
5.88 0 l
5.88 0 l
5.87 0 l
5.88 0 l
5.88 0 l
5.88 0 l
5.87 0 l
5.88 0 l
5.88 0 l
5.88 18.77 l
5.88 0 l
5.87 0 l
5.88 0 l
5.88 0 l
5.88 0 l
5.87 0 l
5.88 0 l
5.88 0 l
5.88 0 l
5.88 0 l
5.87 0 l
5.88 18.77 l
5.88 0 l
5.88 0 l
5.88 0 l
5.87 0 l
5.88 0 l
5.88 0 l
5.88 0 l
5.87 0 l
5.88 0 l
5.88 0 l
5.88 18.76 l
5.88 0 l
5.87 0 l
5.88 0 l
5.88 0 l
5.88 0 l
5.87 0 l
5.88 0 l
5.88 0 l
5.88 0 l
5.88 18.77 l
5.87 0 l
5.88 0 l
5.88 0 l
o
0.3804 0.6118 1 srgb
np
58.19 41.51 m
5.87 0 l
5.88 0 l
5.88 0 l
5.88 0 l
5.88 0 l
5.87 0 l
5.88 0 l
5.88 0 l
5.88 0 l
5.87 0 l
5.88 0 l
5.88 0 l
5.88 0 l
5.88 0 l
5.87 18.77 l
5.88 0 l
5.88 0 l
5.88 0 l
5.87 0 l
5.88 0 l
5.88 0 l
5.88 0 l
5.88 0 l
5.87 0 l
5.88 0 l
5.88 0 l
5.88 0 l
5.88 0 l
5.87 18.77 l
5.88 0 l
5.88 0 l
5.88 0 l
5.87 0 l
5.88 0 l
5.88 0 l
5.88 0 l
5.88 0 l
5.87 0 l
5.88 0 l
5.88 0 l
5.88 0 l
5.87 18.76 l
5.88 0 l
5.88 0 l
5.88 0 l
5.88 0 l
5.87 0 l
5.88 0 l
5.88 0 l
o
0.00 0.00 425.20 283.46 cl
0.00 0.00 425.20 283.46 cl
0.00 0.00 425.20 283.46 cl
0.00 0.00 425.20 283.46 cl
0.00 0.00 425.20 283.46 cl
0.00 0.00 425.20 283.46 cl
0.00 0.00 425.20 283.46 cl
0.00 0.00 425.20 283.46 cl
0.00 0.00 425.20 283.46 cl
0.00 0.00 425.20 283.46 cl
0.00 0.00 425.20 283.46 cl
0.00 0.00 425.20 283.46 cl
0.00 0.00 425.20 283.46 cl
0.00 0.00 425.20 283.46 cl
0.00 0.00 425.20 283.46 cl
0.00 0.00 425.20 283.46 cl
/Font1 findfont 9 s
0.3020 0.3020 0.3020 srgb
38.85 38.28 (0.0) 1 0 t
38.85 85.20 (2.5) 1 0 t
38.85 132.12 (5.0) 1 0 t
38.85 179.04 (7.5) 1 0 t
38.85 225.96 (10.0) 1 0 t
38.85 272.88 (12.5) 1 0 t
0.00 0.00 425.20 283.46 cl
0.00 0.00 425.20 283.46 cl
0.2000 0.2000 0.2000 srgb
1.07 setlinewidth
[] 0 setdash
0 setlinecap
1 setlinejoin
10.00 setmiterlimit
np
41.05 41.51 m
2.74 0 l
o
np
41.05 88.43 m
2.74 0 l
o
np
41.05 135.35 m
2.74 0 l
o
np
41.05 182.27 m
2.74 0 l
o
np
41.05 229.19 m
2.74 0 l
o
np
41.05 276.11 m
2.74 0 l
o
0.00 0.00 425.20 283.46 cl
0.00 0.00 425.20 283.46 cl
0.00 0.00 425.20 283.46 cl
0.00 0.00 425.20 283.46 cl
0.00 0.00 425.20 283.46 cl
0.00 0.00 425.20 283.46 cl
0.00 0.00 425.20 283.46 cl
0.00 0.00 425.20 283.46 cl
0.00 0.00 425.20 283.46 cl
0.00 0.00 425.20 283.46 cl
0.2000 0.2000 0.2000 srgb
1.07 setlinewidth
[] 0 setdash
0 setlinecap
1 setlinejoin
10.00 setmiterlimit
np
52.31 27.51 m
0 2.74 l
o
np
111.09 27.51 m
0 2.74 l
o
np
169.86 27.51 m
0 2.74 l
o
np
228.64 27.51 m
0 2.74 l
o
np
287.42 27.51 m
0 2.74 l
o
np
346.20 27.51 m
0 2.74 l
o
0.00 0.00 425.20 283.46 cl
0.00 0.00 425.20 283.46 cl
/Font1 findfont 9 s
0.3020 0.3020 0.3020 srgb
52.31 18.86 (0) .5 0 t
111.09 18.86 (10000) .5 0 t
169.86 18.86 (20000) .5 0 t
228.64 18.86 (30000) .5 0 t
287.42 18.86 (40000) .5 0 t
346.20 18.86 (50000) .5 0 t
0.00 0.00 425.20 283.46 cl
0.00 0.00 425.20 283.46 cl
0.00 0.00 425.20 283.46 cl
0.00 0.00 425.20 283.46 cl
0.00 0.00 425.20 283.46 cl
0.00 0.00 425.20 283.46 cl
/Font1 findfont 11 s
0 0 0 srgb
202.19 5.48 (n) .5 0 t
0.00 0.00 425.20 283.46 cl
0.00 0.00 425.20 283.46 cl
/Font1 findfont 11 s
0 0 0 srgb
13.38 154.12 (t\(ms\)) .5 90 t
0.00 0.00 425.20 283.46 cl
0.00 0.00 425.20 283.46 cl
0.00 0.00 425.20 283.46 cl
0.00 0.00 425.20 283.46 cl
0.00 0.00 425.20 283.46 cl
0.00 0.00 425.20 283.46 cl
0.00 0.00 425.20 283.46 cl
0.00 0.00 425.20 283.46 cl
/bg { 1 1 1 srgb } def
371.94 116.42 47.78 75.40 r p2
0.00 0.00 425.20 283.46 cl
0.00 0.00 425.20 283.46 cl
/Font1 findfont 11 s
0 0 0 srgb
377.61 178.25 (colour) 0 0 t
0.00 0.00 425.20 283.46 cl
0.00 0.00 425.20 283.46 cl
/bg { 0.9490 0.9490 0.9490 srgb } def
1 1 1 srgb
1.07 setlinewidth
[] 0 setdash
1 setlinecap
1 setlinejoin
10.00 setmiterlimit
377.61 156.65 17.28 17.28 r p3
0.00 0.00 425.20 283.46 cl
0.00 0.00 425.20 283.46 cl
0.9725 0.4627 0.4275 srgb
1.07 setlinewidth
[] 0 setdash
0 setlinecap
1 setlinejoin
10.00 setmiterlimit
np
379.34 165.29 m
13.82 0 l
o
0.00 0.00 425.20 283.46 cl
0.00 0.00 425.20 283.46 cl
0.9725 0.4627 0.4275 srgb
1.07 setlinewidth
[] 0 setdash
0 setlinecap
1 setlinejoin
10.00 setmiterlimit
np
379.34 165.29 m
13.82 0 l
o
0.00 0.00 425.20 283.46 cl
0.00 0.00 425.20 283.46 cl
0.9725 0.4627 0.4275 srgb
1.07 setlinewidth
[] 0 setdash
0 setlinecap
1 setlinejoin
10.00 setmiterlimit
np
379.34 165.29 m
13.82 0 l
o
0.00 0.00 425.20 283.46 cl
0.00 0.00 425.20 283.46 cl
/bg { 0.9490 0.9490 0.9490 srgb } def
1 1 1 srgb
1.07 setlinewidth
[] 0 setdash
1 setlinecap
1 setlinejoin
10.00 setmiterlimit
377.61 139.37 17.28 17.28 r p3
0.00 0.00 425.20 283.46 cl
0.00 0.00 425.20 283.46 cl
0 0.7294 0.2196 srgb
1.07 setlinewidth
[] 0 setdash
0 setlinecap
1 setlinejoin
10.00 setmiterlimit
np
379.34 148.01 m
13.82 0 l
o
0.00 0.00 425.20 283.46 cl
0.00 0.00 425.20 283.46 cl
0 0.7294 0.2196 srgb
1.07 setlinewidth
[] 0 setdash
0 setlinecap
1 setlinejoin
10.00 setmiterlimit
np
379.34 148.01 m
13.82 0 l
o
0.00 0.00 425.20 283.46 cl
0.00 0.00 425.20 283.46 cl
0 0.7294 0.2196 srgb
1.07 setlinewidth
[] 0 setdash
0 setlinecap
1 setlinejoin
10.00 setmiterlimit
np
379.34 148.01 m
13.82 0 l
o
0.00 0.00 425.20 283.46 cl
0.00 0.00 425.20 283.46 cl
/bg { 0.9490 0.9490 0.9490 srgb } def
1 1 1 srgb
1.07 setlinewidth
[] 0 setdash
1 setlinecap
1 setlinejoin
10.00 setmiterlimit
377.61 122.09 17.28 17.28 r p3
0.00 0.00 425.20 283.46 cl
0.00 0.00 425.20 283.46 cl
0.3804 0.6118 1 srgb
1.07 setlinewidth
[] 0 setdash
0 setlinecap
1 setlinejoin
10.00 setmiterlimit
np
379.34 130.73 m
13.82 0 l
o
0.00 0.00 425.20 283.46 cl
0.00 0.00 425.20 283.46 cl
0.3804 0.6118 1 srgb
1.07 setlinewidth
[] 0 setdash
0 setlinecap
1 setlinejoin
10.00 setmiterlimit
np
379.34 130.73 m
13.82 0 l
o
0.00 0.00 425.20 283.46 cl
0.00 0.00 425.20 283.46 cl
0.3804 0.6118 1 srgb
1.07 setlinewidth
[] 0 setdash
0 setlinecap
1 setlinejoin
10.00 setmiterlimit
np
379.34 130.73 m
13.82 0 l
o
0.00 0.00 425.20 283.46 cl
0.00 0.00 425.20 283.46 cl
/Font1 findfont 9 s
0 0 0 srgb
397.05 162.06 (ms1) 0 0 t
0.00 0.00 425.20 283.46 cl
0.00 0.00 425.20 283.46 cl
/Font1 findfont 9 s
0 0 0 srgb
397.05 144.78 (ms2) 0 0 t
0.00 0.00 425.20 283.46 cl
0.00 0.00 425.20 283.46 cl
/Font1 findfont 9 s
0 0 0 srgb
397.05 127.50 (ms3) 0 0 t
0.00 0.00 425.20 283.46 cl
0.00 0.00 425.20 283.46 cl
0.00 0.00 425.20 283.46 cl
0.00 0.00 425.20 283.46 cl
0.00 0.00 425.20 283.46 cl
0.00 0.00 425.20 283.46 cl
0.00 0.00 425.20 283.46 cl
0.00 0.00 425.20 283.46 cl
0.00 0.00 425.20 283.46 cl
0.00 0.00 425.20 283.46 cl
ep
%%Trailer
%%Pages: 1
%%EOF
