%!PS-Adobe-3.0 EPSF-3.0
%%DocumentNeededResources: font Helvetica
%%+ font Helvetica-Bold
%%+ font Helvetica-Oblique
%%+ font Helvetica-BoldOblique
%%+ font Symbol
%%Title: R Graphics Output
%%Creator: R Software
%%Pages: (atend)
%%BoundingBox: 0 0 594 412
%%EndComments
%%BeginProlog
/bp  { gs sRGB gs } def
% begin .ps.prolog
/gs  { gsave } bind def
/gr  { grestore } bind def
/ep  { showpage gr gr } bind def
/m   { moveto } bind def
/l  { rlineto } bind def
/np  { newpath } bind def
/cp  { closepath } bind def
/f   { fill } bind def
/o   { stroke } bind def
/c   { newpath 0 360 arc } bind def
/r   { 4 2 roll moveto 1 copy 3 -1 roll exch 0 exch rlineto 0 rlineto -1 mul 0 exch rlineto closepath } bind def
/p1  { stroke } bind def
/p2  { gsave bg fill grestore newpath } bind def
/p3  { gsave bg fill grestore stroke } bind def
/p6  { gsave bg eofill grestore newpath } bind def
/p7  { gsave bg eofill grestore stroke } bind def
/t   { 5 -2 roll moveto gsave rotate
       1 index stringwidth pop
       mul neg 0 rmoveto show grestore } bind def
/ta  { 4 -2 roll moveto gsave rotate show } bind def
/tb  { 2 -1 roll 0 rmoveto show } bind def
/cl  { grestore gsave newpath 3 index 3 index moveto 1 index
       4 -1 roll lineto  exch 1 index lineto lineto
       closepath clip newpath } bind def
/rgb { setrgbcolor } bind def
/s   { scalefont setfont } bind def
% end   .ps.prolog
/sRGB { [ /CIEBasedABC
          << /DecodeLMN
               [ { dup 0.03928 le
                        {12.92321 div}
                        {0.055 add 1.055 div 2.4 exp }
                     ifelse
                 } bind dup dup
               ]
             /MatrixLMN [0.412457 0.212673 0.019334
                         0.357576 0.715152 0.119192
                         0.180437 0.072175 0.950301]
             /WhitePoint [0.9505 1.0 1.0890]
           >>
         ] setcolorspace } bind def
/srgb { setcolor } bind def
%%IncludeResource: font Helvetica
/Helvetica findfont
dup length dict begin
  {1 index /FID ne {def} {pop pop} ifelse} forall
  /Encoding ISOLatin1Encoding def
  currentdict
  end
/Font1 exch definefont pop
%%IncludeResource: font Helvetica-Bold
/Helvetica-Bold findfont
dup length dict begin
  {1 index /FID ne {def} {pop pop} ifelse} forall
  /Encoding ISOLatin1Encoding def
  currentdict
  end
/Font2 exch definefont pop
%%IncludeResource: font Helvetica-Oblique
/Helvetica-Oblique findfont
dup length dict begin
  {1 index /FID ne {def} {pop pop} ifelse} forall
  /Encoding ISOLatin1Encoding def
  currentdict
  end
/Font3 exch definefont pop
%%IncludeResource: font Helvetica-BoldOblique
/Helvetica-BoldOblique findfont
dup length dict begin
  {1 index /FID ne {def} {pop pop} ifelse} forall
  /Encoding ISOLatin1Encoding def
  currentdict
  end
/Font4 exch definefont pop
%%IncludeResource: font Symbol
/Symbol findfont
dup length dict begin
  {1 index /FID ne {def} {pop pop} ifelse} forall
  currentdict
  end
/Font5 exch definefont pop
%%EndProlog
%%Page: 1 1
bp
0.00 0.00 594.00 411.75 cl
0.00 0.00 594.00 411.75 cl
0.00 0.00 594.00 411.75 cl
0.00 0.00 594.00 411.75 cl
0.00 0.00 594.00 411.75 cl
0.00 0.00 594.00 411.75 cl
0.00 0.00 594.00 411.75 cl
0.00 0.00 594.00 411.75 cl
0.00 0.00 594.00 411.75 cl
/bg { 1 1 1 srgb } def
1 1 1 srgb
1.07 setlinewidth
[] 0 setdash
1 setlinecap
1 setlinejoin
10.00 setmiterlimit
0.00 0.00 594.00 411.75 r p3
0.00 0.00 594.00 411.75 cl
48.56 30.25 521.65 406.27 cl
/bg { 0.9216 0.9216 0.9216 srgb } def
48.56 30.25 473.10 376.02 r p2
1 1 1 srgb
0.53 setlinewidth
[] 0 setdash
0 setlinecap
1 setlinejoin
10.00 setmiterlimit
np
48.56 82.95 m
473.09 0 l
o
np
48.56 172.32 m
473.09 0 l
o
np
48.56 261.70 m
473.09 0 l
o
np
48.56 351.07 m
473.09 0 l
o
np
164.14 30.25 m
0 376.02 l
o
np
298.55 30.25 m
0 376.02 l
o
np
432.95 30.25 m
0 376.02 l
o
1.07 setlinewidth
[] 0 setdash
np
48.56 38.26 m
473.09 0 l
o
np
48.56 127.64 m
473.09 0 l
o
np
48.56 217.01 m
473.09 0 l
o
np
48.56 306.38 m
473.09 0 l
o
np
48.56 395.76 m
473.09 0 l
o
np
96.94 30.25 m
0 376.02 l
o
np
231.34 30.25 m
0 376.02 l
o
np
365.75 30.25 m
0 376.02 l
o
np
500.15 30.25 m
0 376.02 l
o
0.9725 0.4627 0.4275 srgb
1.00 setmiterlimit
np
70.06 47.34 m
13.44 1.83 l
13.44 1.82 l
13.44 1.64 l
13.44 -1.57 l
13.44 4.90 l
13.44 -1.50 l
13.44 2.11 l
13.44 -0.33 l
13.44 2.83 l
13.44 0.61 l
13.44 2.46 l
13.44 -2.93 l
13.44 3.22 l
13.44 2.36 l
13.44 2.97 l
13.44 -3.15 l
13.45 6.22 l
13.44 0.18 l
13.44 2.50 l
13.44 -3.54 l
13.44 4.51 l
13.44 3.93 l
13.44 3.47 l
13.44 -3.90 l
13.44 4.40 l
13.44 2.79 l
13.44 3.64 l
13.44 0.36 l
13.44 3.97 l
13.44 -0.72 l
13.44 4.40 l
13.44 0.14 l
o
0.7176 0.6235 0 srgb
np
70.06 84.02 m
13.44 5.15 l
13.44 5.18 l
13.44 7.22 l
13.44 5.04 l
13.44 5.55 l
13.44 6.75 l
13.44 6.94 l
13.44 7.29 l
13.44 6.79 l
13.44 8.01 l
13.44 7.65 l
13.44 7.87 l
13.44 8.43 l
13.44 8.94 l
13.44 3.08 l
13.44 14.94 l
13.45 10.01 l
13.44 9.58 l
13.44 9.15 l
13.44 14.30 l
13.44 7.87 l
13.44 9.58 l
13.44 11.58 l
13.44 11.30 l
13.44 11.15 l
13.44 12.58 l
13.44 12.30 l
13.44 12.44 l
13.44 12.16 l
13.44 13.15 l
13.44 15.16 l
13.44 18.02 l
o
0 0.7294 0.2196 srgb
np
70.06 65.00 m
13.44 2.50 l
13.44 2.58 l
13.44 2.72 l
13.44 3.03 l
13.44 3.26 l
13.44 3.47 l
13.44 2.86 l
13.44 3.61 l
13.44 4.72 l
13.44 2.75 l
13.44 4.61 l
13.44 4.04 l
13.44 4.04 l
13.44 1.46 l
13.44 8.83 l
13.44 3.79 l
13.45 7.51 l
13.44 6.94 l
13.44 -2.43 l
13.44 2.93 l
13.44 4.79 l
13.44 4.57 l
13.44 7.15 l
13.44 8.08 l
13.44 6.87 l
13.44 2.21 l
13.44 2.72 l
13.44 7.87 l
13.44 7.22 l
13.44 13.44 l
13.44 -3.15 l
13.44 8.30 l
o
0 0.7490 0.7686 srgb
np
70.06 163.31 m
13.44 6.72 l
13.44 10.87 l
13.44 5.01 l
13.44 9.65 l
13.44 0.57 l
13.44 7.01 l
13.44 7.86 l
13.44 9.16 l
13.44 14.87 l
13.44 10.01 l
13.44 9.58 l
13.44 9.29 l
13.44 7.15 l
13.44 8.87 l
13.44 6.15 l
13.44 19.87 l
13.45 -11.15 l
13.44 22.31 l
13.44 -9.87 l
13.44 5.43 l
13.44 7.73 l
13.44 12.01 l
13.44 6.43 l
13.44 2.29 l
13.44 6.87 l
13.44 14.87 l
13.44 16.58 l
13.44 -15.44 l
13.44 10.58 l
13.44 0.57 l
13.44 7.44 l
13.44 2.00 l
o
0.3804 0.6118 1 srgb
np
70.06 70.62 m
13.44 1.25 l
13.44 2.39 l
13.44 2.08 l
13.44 1.75 l
13.44 2.21 l
13.44 2.36 l
13.44 1.93 l
13.44 1.86 l
13.44 2.61 l
13.44 2.04 l
13.44 2.04 l
13.44 2.39 l
13.44 2.04 l
13.44 1.32 l
13.44 3.83 l
13.44 2.32 l
13.45 1.97 l
13.44 2.54 l
13.44 1.75 l
13.44 1.89 l
13.44 3.15 l
13.44 2.07 l
13.44 2.58 l
13.44 1.86 l
13.44 1.85 l
13.44 1.72 l
13.44 2.36 l
13.44 3.29 l
13.44 2.72 l
13.44 1.78 l
13.44 4.36 l
13.44 2.08 l
o
0.9608 0.3922 0.8902 srgb
np
70.06 64.18 m
13.44 1.43 l
13.44 2.15 l
13.44 1.21 l
13.44 1.54 l
13.44 2.21 l
13.44 2.97 l
13.44 0.57 l
13.44 2.33 l
13.44 2.57 l
13.44 2.93 l
13.44 0.47 l
13.44 3.54 l
13.44 2.28 l
13.44 1.54 l
13.44 1.90 l
13.44 1.10 l
13.45 2.22 l
13.44 1.43 l
13.44 1.79 l
13.44 3.04 l
13.44 2.89 l
13.44 2.26 l
13.44 3.21 l
13.44 1.79 l
13.44 2.07 l
13.44 1.79 l
13.44 1.43 l
13.44 3.43 l
13.44 -0.14 l
13.44 -0.43 l
13.44 5.44 l
13.44 1.85 l
o
0.00 0.00 594.00 411.75 cl
0.00 0.00 594.00 411.75 cl
0.00 0.00 594.00 411.75 cl
0.00 0.00 594.00 411.75 cl
0.00 0.00 594.00 411.75 cl
0.00 0.00 594.00 411.75 cl
0.00 0.00 594.00 411.75 cl
0.00 0.00 594.00 411.75 cl
0.00 0.00 594.00 411.75 cl
0.00 0.00 594.00 411.75 cl
0.00 0.00 594.00 411.75 cl
0.00 0.00 594.00 411.75 cl
0.00 0.00 594.00 411.75 cl
0.00 0.00 594.00 411.75 cl
0.00 0.00 594.00 411.75 cl
0.00 0.00 594.00 411.75 cl
/Font1 findfont 9 s
0.3020 0.3020 0.3020 srgb
43.62 35.03 (0.000) 1 0 t
43.62 124.40 (0.025) 1 0 t
43.62 213.78 (0.050) 1 0 t
43.62 303.15 (0.075) 1 0 t
43.62 392.53 (0.100) 1 0 t
0.00 0.00 594.00 411.75 cl
0.00 0.00 594.00 411.75 cl
0.2000 0.2000 0.2000 srgb
1.07 setlinewidth
[] 0 setdash
0 setlinecap
1 setlinejoin
10.00 setmiterlimit
np
45.82 38.26 m
2.74 0 l
o
np
45.82 127.64 m
2.74 0 l
o
np
45.82 217.01 m
2.74 0 l
o
np
45.82 306.38 m
2.74 0 l
o
np
45.82 395.76 m
2.74 0 l
o
0.00 0.00 594.00 411.75 cl
0.00 0.00 594.00 411.75 cl
0.00 0.00 594.00 411.75 cl
0.00 0.00 594.00 411.75 cl
0.00 0.00 594.00 411.75 cl
0.00 0.00 594.00 411.75 cl
0.00 0.00 594.00 411.75 cl
0.00 0.00 594.00 411.75 cl
0.00 0.00 594.00 411.75 cl
0.00 0.00 594.00 411.75 cl
0.2000 0.2000 0.2000 srgb
1.07 setlinewidth
[] 0 setdash
0 setlinecap
1 setlinejoin
10.00 setmiterlimit
np
96.94 27.51 m
0 2.74 l
o
np
231.34 27.51 m
0 2.74 l
o
np
365.75 27.51 m
0 2.74 l
o
np
500.15 27.51 m
0 2.74 l
o
0.00 0.00 594.00 411.75 cl
0.00 0.00 594.00 411.75 cl
/Font1 findfont 9 s
0.3020 0.3020 0.3020 srgb
96.94 18.86 (200) .5 0 t
231.34 18.86 (300) .5 0 t
365.75 18.86 (400) .5 0 t
500.15 18.86 (500) .5 0 t
0.00 0.00 594.00 411.75 cl
0.00 0.00 594.00 411.75 cl
0.00 0.00 594.00 411.75 cl
0.00 0.00 594.00 411.75 cl
0.00 0.00 594.00 411.75 cl
0.00 0.00 594.00 411.75 cl
/Font1 findfont 11 s
0 0 0 srgb
285.10 5.48 (n) .5 0 t
0.00 0.00 594.00 411.75 cl
0.00 0.00 594.00 411.75 cl
/Font1 findfont 11 s
0 0 0 srgb
13.38 218.26 (t_bf) .5 90 t
0.00 0.00 594.00 411.75 cl
0.00 0.00 594.00 411.75 cl
0.00 0.00 594.00 411.75 cl
0.00 0.00 594.00 411.75 cl
0.00 0.00 594.00 411.75 cl
0.00 0.00 594.00 411.75 cl
0.00 0.00 594.00 411.75 cl
0.00 0.00 594.00 411.75 cl
/bg { 1 1 1 srgb } def
532.99 154.47 55.53 127.59 r p2
0.00 0.00 594.00 411.75 cl
0.00 0.00 594.00 411.75 cl
/Font1 findfont 11 s
0 0 0 srgb
538.66 268.31 (colour) 0 0 t
0.00 0.00 594.00 411.75 cl
0.00 0.00 594.00 411.75 cl
/bg { 0.9490 0.9490 0.9490 srgb } def
1 1 1 srgb
1.07 setlinewidth
[] 0 setdash
1 setlinecap
1 setlinejoin
10.00 setmiterlimit
538.66 246.54 17.28 17.28 r p3
0.00 0.00 594.00 411.75 cl
0.00 0.00 594.00 411.75 cl
0.9725 0.4627 0.4275 srgb
1.07 setlinewidth
[] 0 setdash
0 setlinecap
1 setlinejoin
10.00 setmiterlimit
np
540.39 255.18 m
13.82 0 l
o
0.00 0.00 594.00 411.75 cl
0.00 0.00 594.00 411.75 cl
0.9725 0.4627 0.4275 srgb
1.07 setlinewidth
[] 0 setdash
0 setlinecap
1 setlinejoin
10.00 setmiterlimit
np
540.39 255.18 m
13.82 0 l
o
0.00 0.00 594.00 411.75 cl
0.00 0.00 594.00 411.75 cl
0.9725 0.4627 0.4275 srgb
1.07 setlinewidth
[] 0 setdash
0 setlinecap
1 setlinejoin
10.00 setmiterlimit
np
540.39 255.18 m
13.82 0 l
o
0.00 0.00 594.00 411.75 cl
0.00 0.00 594.00 411.75 cl
0.9725 0.4627 0.4275 srgb
1.07 setlinewidth
[] 0 setdash
0 setlinecap
1 setlinejoin
10.00 setmiterlimit
np
540.39 255.18 m
13.82 0 l
o
0.00 0.00 594.00 411.75 cl
0.00 0.00 594.00 411.75 cl
0.9725 0.4627 0.4275 srgb
1.07 setlinewidth
[] 0 setdash
0 setlinecap
1 setlinejoin
10.00 setmiterlimit
np
540.39 255.18 m
13.82 0 l
o
0.00 0.00 594.00 411.75 cl
0.00 0.00 594.00 411.75 cl
0.9725 0.4627 0.4275 srgb
1.07 setlinewidth
[] 0 setdash
0 setlinecap
1 setlinejoin
10.00 setmiterlimit
np
540.39 255.18 m
13.82 0 l
o
0.00 0.00 594.00 411.75 cl
0.00 0.00 594.00 411.75 cl
/bg { 0.9490 0.9490 0.9490 srgb } def
1 1 1 srgb
1.07 setlinewidth
[] 0 setdash
1 setlinecap
1 setlinejoin
10.00 setmiterlimit
538.66 229.26 17.28 17.28 r p3
0.00 0.00 594.00 411.75 cl
0.00 0.00 594.00 411.75 cl
0.7176 0.6235 0 srgb
1.07 setlinewidth
[] 0 setdash
0 setlinecap
1 setlinejoin
10.00 setmiterlimit
np
540.39 237.90 m
13.82 0 l
o
0.00 0.00 594.00 411.75 cl
0.00 0.00 594.00 411.75 cl
0.7176 0.6235 0 srgb
1.07 setlinewidth
[] 0 setdash
0 setlinecap
1 setlinejoin
10.00 setmiterlimit
np
540.39 237.90 m
13.82 0 l
o
0.00 0.00 594.00 411.75 cl
0.00 0.00 594.00 411.75 cl
0.7176 0.6235 0 srgb
1.07 setlinewidth
[] 0 setdash
0 setlinecap
1 setlinejoin
10.00 setmiterlimit
np
540.39 237.90 m
13.82 0 l
o
0.00 0.00 594.00 411.75 cl
0.00 0.00 594.00 411.75 cl
0.7176 0.6235 0 srgb
1.07 setlinewidth
[] 0 setdash
0 setlinecap
1 setlinejoin
10.00 setmiterlimit
np
540.39 237.90 m
13.82 0 l
o
0.00 0.00 594.00 411.75 cl
0.00 0.00 594.00 411.75 cl
0.7176 0.6235 0 srgb
1.07 setlinewidth
[] 0 setdash
0 setlinecap
1 setlinejoin
10.00 setmiterlimit
np
540.39 237.90 m
13.82 0 l
o
0.00 0.00 594.00 411.75 cl
0.00 0.00 594.00 411.75 cl
0.7176 0.6235 0 srgb
1.07 setlinewidth
[] 0 setdash
0 setlinecap
1 setlinejoin
10.00 setmiterlimit
np
540.39 237.90 m
13.82 0 l
o
0.00 0.00 594.00 411.75 cl
0.00 0.00 594.00 411.75 cl
/bg { 0.9490 0.9490 0.9490 srgb } def
1 1 1 srgb
1.07 setlinewidth
[] 0 setdash
1 setlinecap
1 setlinejoin
10.00 setmiterlimit
538.66 211.98 17.28 17.28 r p3
0.00 0.00 594.00 411.75 cl
0.00 0.00 594.00 411.75 cl
0 0.7294 0.2196 srgb
1.07 setlinewidth
[] 0 setdash
0 setlinecap
1 setlinejoin
10.00 setmiterlimit
np
540.39 220.62 m
13.82 0 l
o
0.00 0.00 594.00 411.75 cl
0.00 0.00 594.00 411.75 cl
0 0.7294 0.2196 srgb
1.07 setlinewidth
[] 0 setdash
0 setlinecap
1 setlinejoin
10.00 setmiterlimit
np
540.39 220.62 m
13.82 0 l
o
0.00 0.00 594.00 411.75 cl
0.00 0.00 594.00 411.75 cl
0 0.7294 0.2196 srgb
1.07 setlinewidth
[] 0 setdash
0 setlinecap
1 setlinejoin
10.00 setmiterlimit
np
540.39 220.62 m
13.82 0 l
o
0.00 0.00 594.00 411.75 cl
0.00 0.00 594.00 411.75 cl
0 0.7294 0.2196 srgb
1.07 setlinewidth
[] 0 setdash
0 setlinecap
1 setlinejoin
10.00 setmiterlimit
np
540.39 220.62 m
13.82 0 l
o
0.00 0.00 594.00 411.75 cl
0.00 0.00 594.00 411.75 cl
0 0.7294 0.2196 srgb
1.07 setlinewidth
[] 0 setdash
0 setlinecap
1 setlinejoin
10.00 setmiterlimit
np
540.39 220.62 m
13.82 0 l
o
0.00 0.00 594.00 411.75 cl
0.00 0.00 594.00 411.75 cl
0 0.7294 0.2196 srgb
1.07 setlinewidth
[] 0 setdash
0 setlinecap
1 setlinejoin
10.00 setmiterlimit
np
540.39 220.62 m
13.82 0 l
o
0.00 0.00 594.00 411.75 cl
0.00 0.00 594.00 411.75 cl
/bg { 0.9490 0.9490 0.9490 srgb } def
1 1 1 srgb
1.07 setlinewidth
[] 0 setdash
1 setlinecap
1 setlinejoin
10.00 setmiterlimit
538.66 194.70 17.28 17.28 r p3
0.00 0.00 594.00 411.75 cl
0.00 0.00 594.00 411.75 cl
0 0.7490 0.7686 srgb
1.07 setlinewidth
[] 0 setdash
0 setlinecap
1 setlinejoin
10.00 setmiterlimit
np
540.39 203.34 m
13.82 0 l
o
0.00 0.00 594.00 411.75 cl
0.00 0.00 594.00 411.75 cl
0 0.7490 0.7686 srgb
1.07 setlinewidth
[] 0 setdash
0 setlinecap
1 setlinejoin
10.00 setmiterlimit
np
540.39 203.34 m
13.82 0 l
o
0.00 0.00 594.00 411.75 cl
0.00 0.00 594.00 411.75 cl
0 0.7490 0.7686 srgb
1.07 setlinewidth
[] 0 setdash
0 setlinecap
1 setlinejoin
10.00 setmiterlimit
np
540.39 203.34 m
13.82 0 l
o
0.00 0.00 594.00 411.75 cl
0.00 0.00 594.00 411.75 cl
0 0.7490 0.7686 srgb
1.07 setlinewidth
[] 0 setdash
0 setlinecap
1 setlinejoin
10.00 setmiterlimit
np
540.39 203.34 m
13.82 0 l
o
0.00 0.00 594.00 411.75 cl
0.00 0.00 594.00 411.75 cl
0 0.7490 0.7686 srgb
1.07 setlinewidth
[] 0 setdash
0 setlinecap
1 setlinejoin
10.00 setmiterlimit
np
540.39 203.34 m
13.82 0 l
o
0.00 0.00 594.00 411.75 cl
0.00 0.00 594.00 411.75 cl
0 0.7490 0.7686 srgb
1.07 setlinewidth
[] 0 setdash
0 setlinecap
1 setlinejoin
10.00 setmiterlimit
np
540.39 203.34 m
13.82 0 l
o
0.00 0.00 594.00 411.75 cl
0.00 0.00 594.00 411.75 cl
/bg { 0.9490 0.9490 0.9490 srgb } def
1 1 1 srgb
1.07 setlinewidth
[] 0 setdash
1 setlinecap
1 setlinejoin
10.00 setmiterlimit
538.66 177.42 17.28 17.28 r p3
0.00 0.00 594.00 411.75 cl
0.00 0.00 594.00 411.75 cl
0.3804 0.6118 1 srgb
1.07 setlinewidth
[] 0 setdash
0 setlinecap
1 setlinejoin
10.00 setmiterlimit
np
540.39 186.06 m
13.82 0 l
o
0.00 0.00 594.00 411.75 cl
0.00 0.00 594.00 411.75 cl
0.3804 0.6118 1 srgb
1.07 setlinewidth
[] 0 setdash
0 setlinecap
1 setlinejoin
10.00 setmiterlimit
np
540.39 186.06 m
13.82 0 l
o
0.00 0.00 594.00 411.75 cl
0.00 0.00 594.00 411.75 cl
0.3804 0.6118 1 srgb
1.07 setlinewidth
[] 0 setdash
0 setlinecap
1 setlinejoin
10.00 setmiterlimit
np
540.39 186.06 m
13.82 0 l
o
0.00 0.00 594.00 411.75 cl
0.00 0.00 594.00 411.75 cl
0.3804 0.6118 1 srgb
1.07 setlinewidth
[] 0 setdash
0 setlinecap
1 setlinejoin
10.00 setmiterlimit
np
540.39 186.06 m
13.82 0 l
o
0.00 0.00 594.00 411.75 cl
0.00 0.00 594.00 411.75 cl
0.3804 0.6118 1 srgb
1.07 setlinewidth
[] 0 setdash
0 setlinecap
1 setlinejoin
10.00 setmiterlimit
np
540.39 186.06 m
13.82 0 l
o
0.00 0.00 594.00 411.75 cl
0.00 0.00 594.00 411.75 cl
0.3804 0.6118 1 srgb
1.07 setlinewidth
[] 0 setdash
0 setlinecap
1 setlinejoin
10.00 setmiterlimit
np
540.39 186.06 m
13.82 0 l
o
0.00 0.00 594.00 411.75 cl
0.00 0.00 594.00 411.75 cl
/bg { 0.9490 0.9490 0.9490 srgb } def
1 1 1 srgb
1.07 setlinewidth
[] 0 setdash
1 setlinecap
1 setlinejoin
10.00 setmiterlimit
538.66 160.14 17.28 17.28 r p3
0.00 0.00 594.00 411.75 cl
0.00 0.00 594.00 411.75 cl
0.9608 0.3922 0.8902 srgb
1.07 setlinewidth
[] 0 setdash
0 setlinecap
1 setlinejoin
10.00 setmiterlimit
np
540.39 168.78 m
13.82 0 l
o
0.00 0.00 594.00 411.75 cl
0.00 0.00 594.00 411.75 cl
0.9608 0.3922 0.8902 srgb
1.07 setlinewidth
[] 0 setdash
0 setlinecap
1 setlinejoin
10.00 setmiterlimit
np
540.39 168.78 m
13.82 0 l
o
0.00 0.00 594.00 411.75 cl
0.00 0.00 594.00 411.75 cl
0.9608 0.3922 0.8902 srgb
1.07 setlinewidth
[] 0 setdash
0 setlinecap
1 setlinejoin
10.00 setmiterlimit
np
540.39 168.78 m
13.82 0 l
o
0.00 0.00 594.00 411.75 cl
0.00 0.00 594.00 411.75 cl
0.9608 0.3922 0.8902 srgb
1.07 setlinewidth
[] 0 setdash
0 setlinecap
1 setlinejoin
10.00 setmiterlimit
np
540.39 168.78 m
13.82 0 l
o
0.00 0.00 594.00 411.75 cl
0.00 0.00 594.00 411.75 cl
0.9608 0.3922 0.8902 srgb
1.07 setlinewidth
[] 0 setdash
0 setlinecap
1 setlinejoin
10.00 setmiterlimit
np
540.39 168.78 m
13.82 0 l
o
0.00 0.00 594.00 411.75 cl
0.00 0.00 594.00 411.75 cl
0.9608 0.3922 0.8902 srgb
1.07 setlinewidth
[] 0 setdash
0 setlinecap
1 setlinejoin
10.00 setmiterlimit
np
540.39 168.78 m
13.82 0 l
o
0.00 0.00 594.00 411.75 cl
0.00 0.00 594.00 411.75 cl
/Font1 findfont 9 s
0 0 0 srgb
558.10 251.94 (t_bf) 0 0 t
0.00 0.00 594.00 411.75 cl
0.00 0.00 594.00 411.75 cl
/Font1 findfont 9 s
0 0 0 srgb
558.10 234.66 (t_is1) 0 0 t
0.00 0.00 594.00 411.75 cl
0.00 0.00 594.00 411.75 cl
/Font1 findfont 9 s
0 0 0 srgb
558.10 217.38 (t_is2) 0 0 t
0.00 0.00 594.00 411.75 cl
0.00 0.00 594.00 411.75 cl
/Font1 findfont 9 s
0 0 0 srgb
558.10 200.10 (t_ms1) 0 0 t
0.00 0.00 594.00 411.75 cl
0.00 0.00 594.00 411.75 cl
/Font1 findfont 9 s
0 0 0 srgb
558.10 182.82 (t_ms2) 0 0 t
0.00 0.00 594.00 411.75 cl
0.00 0.00 594.00 411.75 cl
/Font1 findfont 9 s
0 0 0 srgb
558.10 165.54 (t_ms3) 0 0 t
0.00 0.00 594.00 411.75 cl
0.00 0.00 594.00 411.75 cl
0.00 0.00 594.00 411.75 cl
0.00 0.00 594.00 411.75 cl
0.00 0.00 594.00 411.75 cl
0.00 0.00 594.00 411.75 cl
0.00 0.00 594.00 411.75 cl
0.00 0.00 594.00 411.75 cl
0.00 0.00 594.00 411.75 cl
0.00 0.00 594.00 411.75 cl
ep
%%Trailer
%%Pages: 1
%%EOF
