%!PS-Adobe-3.0 EPSF-3.0
%%DocumentNeededResources: font Helvetica
%%+ font Helvetica-Bold
%%+ font Helvetica-Oblique
%%+ font Helvetica-BoldOblique
%%+ font Symbol
%%Title: R Graphics Output
%%Creator: R Software
%%Pages: (atend)
%%BoundingBox: 0 0 425 283
%%EndComments
%%BeginProlog
/bp  { gs sRGB gs } def
% begin .ps.prolog
/gs  { gsave } bind def
/gr  { grestore } bind def
/ep  { showpage gr gr } bind def
/m   { moveto } bind def
/l  { rlineto } bind def
/np  { newpath } bind def
/cp  { closepath } bind def
/f   { fill } bind def
/o   { stroke } bind def
/c   { newpath 0 360 arc } bind def
/r   { 4 2 roll moveto 1 copy 3 -1 roll exch 0 exch rlineto 0 rlineto -1 mul 0 exch rlineto closepath } bind def
/p1  { stroke } bind def
/p2  { gsave bg fill grestore newpath } bind def
/p3  { gsave bg fill grestore stroke } bind def
/p6  { gsave bg eofill grestore newpath } bind def
/p7  { gsave bg eofill grestore stroke } bind def
/t   { 5 -2 roll moveto gsave rotate
       1 index stringwidth pop
       mul neg 0 rmoveto show grestore } bind def
/ta  { 4 -2 roll moveto gsave rotate show } bind def
/tb  { 2 -1 roll 0 rmoveto show } bind def
/cl  { grestore gsave newpath 3 index 3 index moveto 1 index
       4 -1 roll lineto  exch 1 index lineto lineto
       closepath clip newpath } bind def
/rgb { setrgbcolor } bind def
/s   { scalefont setfont } bind def
% end   .ps.prolog
/sRGB { [ /CIEBasedABC
          << /DecodeLMN
               [ { dup 0.03928 le
                        {12.92321 div}
                        {0.055 add 1.055 div 2.4 exp }
                     ifelse
                 } bind dup dup
               ]
             /MatrixLMN [0.412457 0.212673 0.019334
                         0.357576 0.715152 0.119192
                         0.180437 0.072175 0.950301]
             /WhitePoint [0.9505 1.0 1.0890]
           >>
         ] setcolorspace } bind def
/srgb { setcolor } bind def
%%IncludeResource: font Helvetica
/Helvetica findfont
dup length dict begin
  {1 index /FID ne {def} {pop pop} ifelse} forall
  /Encoding ISOLatin1Encoding def
  currentdict
  end
/Font1 exch definefont pop
%%IncludeResource: font Helvetica-Bold
/Helvetica-Bold findfont
dup length dict begin
  {1 index /FID ne {def} {pop pop} ifelse} forall
  /Encoding ISOLatin1Encoding def
  currentdict
  end
/Font2 exch definefont pop
%%IncludeResource: font Helvetica-Oblique
/Helvetica-Oblique findfont
dup length dict begin
  {1 index /FID ne {def} {pop pop} ifelse} forall
  /Encoding ISOLatin1Encoding def
  currentdict
  end
/Font3 exch definefont pop
%%IncludeResource: font Helvetica-BoldOblique
/Helvetica-BoldOblique findfont
dup length dict begin
  {1 index /FID ne {def} {pop pop} ifelse} forall
  /Encoding ISOLatin1Encoding def
  currentdict
  end
/Font4 exch definefont pop
%%IncludeResource: font Symbol
/Symbol findfont
dup length dict begin
  {1 index /FID ne {def} {pop pop} ifelse} forall
  currentdict
  end
/Font5 exch definefont pop
%%EndProlog
%%Page: 1 1
bp
0.00 0.00 425.20 283.46 cl
0.00 0.00 425.20 283.46 cl
0.00 0.00 425.20 283.46 cl
0.00 0.00 425.20 283.46 cl
0.00 0.00 425.20 283.46 cl
0.00 0.00 425.20 283.46 cl
0.00 0.00 425.20 283.46 cl
0.00 0.00 425.20 283.46 cl
0.00 0.00 425.20 283.46 cl
0.00 0.00 425.20 283.46 cl
/bg { 1 1 1 srgb } def
1 1 1 srgb
1.07 setlinewidth
[] 0 setdash
1 setlinecap
1 setlinejoin
10.00 setmiterlimit
0.00 0.00 425.20 283.46 r p3
0.00 0.00 425.20 283.46 cl
42.80 30.25 353.09 277.99 cl
/bg { 0.9216 0.9216 0.9216 srgb } def
42.80 30.25 310.29 247.73 r p2
1 1 1 srgb
0.53 setlinewidth
[] 0 setdash
0 setlinecap
1 setlinejoin
10.00 setmiterlimit
np
42.80 70.40 m
310.29 0 l
o
np
42.80 128.33 m
310.29 0 l
o
np
42.80 186.27 m
310.29 0 l
o
np
42.80 244.21 m
310.29 0 l
o
np
85.84 30.25 m
0 247.74 l
o
np
158.17 30.25 m
0 247.74 l
o
np
230.50 30.25 m
0 247.74 l
o
np
302.82 30.25 m
0 247.74 l
o
1.07 setlinewidth
[] 0 setdash
np
42.80 41.43 m
310.29 0 l
o
np
42.80 99.37 m
310.29 0 l
o
np
42.80 157.30 m
310.29 0 l
o
np
42.80 215.24 m
310.29 0 l
o
np
42.80 273.17 m
310.29 0 l
o
np
49.67 30.25 m
0 247.74 l
o
np
122.00 30.25 m
0 247.74 l
o
np
194.33 30.25 m
0 247.74 l
o
np
266.66 30.25 m
0 247.74 l
o
np
338.99 30.25 m
0 247.74 l
o
0.9725 0.4627 0.4275 srgb
1.00 setmiterlimit
np
56.91 41.51 m
7.23 0.16 l
7.23 0.25 l
7.24 0.31 l
7.23 0.27 l
7.23 0.21 l
7.23 0.34 l
7.24 0.19 l
7.23 0.16 l
7.23 0.83 l
7.24 0.40 l
7.23 -0.57 l
7.23 1.08 l
7.23 -0.05 l
7.24 0.84 l
7.23 -0.07 l
7.23 0.79 l
7.24 0.50 l
7.23 0.77 l
7.23 0.18 l
7.23 0.04 l
7.24 1.77 l
7.23 -0.97 l
7.23 0.55 l
7.24 1.38 l
7.23 0.08 l
7.23 1.12 l
7.23 2.04 l
7.24 -1.58 l
7.23 -0.22 l
7.23 2.72 l
7.24 -2.08 l
7.23 -0.03 l
7.23 4.40 l
7.23 0.90 l
7.24 -3.30 l
7.23 3.78 l
7.23 -0.40 l
7.24 5.22 l
7.23 -3.48 l
o
0.7176 0.6235 0 srgb
np
56.91 41.75 m
7.23 0.37 l
7.23 0.40 l
7.24 0.51 l
7.23 0.58 l
7.23 0.69 l
7.23 0.78 l
7.24 0.81 l
7.23 0.93 l
7.23 1.14 l
7.24 1.07 l
7.23 1.31 l
7.23 1.43 l
7.23 1.49 l
7.24 1.50 l
7.23 1.56 l
7.23 1.67 l
7.24 1.90 l
7.23 1.65 l
7.23 2.36 l
7.23 1.72 l
7.24 2.08 l
7.23 2.71 l
7.23 2.11 l
7.24 3.23 l
7.23 1.81 l
7.23 3.62 l
7.23 1.52 l
7.24 2.89 l
7.23 3.26 l
7.23 3.86 l
7.24 3.30 l
7.23 2.97 l
7.23 2.81 l
7.23 3.38 l
7.24 4.23 l
7.23 9.86 l
7.23 2.85 l
7.24 12.54 l
7.23 -7.35 l
o
0 0.7294 0.2196 srgb
np
56.91 41.79 m
7.23 0.33 l
7.23 0.35 l
7.24 0.42 l
7.23 0.47 l
7.23 0.57 l
7.23 0.64 l
7.24 0.42 l
7.23 0.69 l
7.23 0.78 l
7.24 0.74 l
7.23 0.66 l
7.23 0.80 l
7.23 0.93 l
7.24 1.05 l
7.23 1.00 l
7.23 1.19 l
7.24 1.56 l
7.23 0.45 l
7.23 1.97 l
7.23 0.90 l
7.24 0.46 l
7.23 1.57 l
7.23 2.94 l
7.24 1.16 l
7.23 0 l
7.23 1.56 l
7.23 1.17 l
7.24 1.54 l
7.23 1.57 l
7.23 2.17 l
7.24 1.37 l
7.23 1.49 l
7.23 3.15 l
7.23 0.67 l
7.24 1.42 l
7.23 2.38 l
7.23 2.48 l
7.24 1.60 l
7.23 1.44 l
o
0 0.7490 0.7686 srgb
np
56.91 43.94 m
7.23 4.21 l
7.23 4.60 l
7.24 5.19 l
7.23 5.19 l
7.23 3.74 l
7.23 8.73 l
7.24 3.61 l
7.23 6.12 l
7.23 3.93 l
7.24 4.71 l
7.23 4.60 l
7.23 4.48 l
7.23 11.05 l
7.24 5.16 l
7.23 6.49 l
7.23 6.37 l
7.24 3.27 l
7.23 5.26 l
7.23 10.01 l
7.23 3.56 l
7.24 0.15 l
7.23 6.38 l
7.23 4.82 l
7.24 0.89 l
7.23 8.90 l
7.23 12.90 l
7.23 6.97 l
7.24 10.68 l
7.23 3.86 l
7.23 2.08 l
7.24 11.86 l
7.23 9.79 l
7.23 -2.52 l
7.23 5.19 l
7.24 5.93 l
7.23 3.27 l
7.23 5.93 l
7.24 8.90 l
7.23 6.52 l
o
0.3804 0.6118 1 srgb
np
56.91 42.23 m
7.23 0.95 l
7.23 0.83 l
7.24 1.01 l
7.23 1.31 l
7.23 1.13 l
7.23 1.31 l
7.24 1.17 l
7.23 1.73 l
7.23 1.50 l
7.24 1.23 l
7.23 1.76 l
7.23 0.74 l
7.23 1.78 l
7.24 1.50 l
7.23 0.96 l
7.23 2.24 l
7.24 1.15 l
7.23 1.02 l
7.23 1.93 l
7.23 2.46 l
7.24 0.37 l
7.23 1.54 l
7.23 2.10 l
7.24 0.92 l
7.23 2.04 l
7.23 0.91 l
7.23 1.95 l
7.24 2.71 l
7.23 2.41 l
7.23 0.96 l
7.24 0.74 l
7.23 2.60 l
7.23 1.11 l
7.23 2.56 l
7.24 3.41 l
7.23 -0.82 l
7.23 1.89 l
7.24 0.93 l
7.23 3.41 l
o
0.9608 0.3922 0.8902 srgb
np
56.91 42.11 m
7.23 0.68 l
7.23 0.86 l
7.24 1.16 l
7.23 0.92 l
7.23 0.74 l
7.23 1.66 l
7.24 1.11 l
7.23 0.86 l
7.23 1.43 l
7.24 0.41 l
7.23 1.00 l
7.23 1.47 l
7.23 1.30 l
7.24 1.66 l
7.23 0.48 l
7.23 1.39 l
7.24 1.05 l
7.23 1.14 l
7.23 1.58 l
7.23 1.02 l
7.24 1.26 l
7.23 1.54 l
7.23 0.96 l
7.24 2.13 l
7.23 1.60 l
7.23 2.02 l
7.23 0.02 l
7.24 2.20 l
7.23 0.60 l
7.23 3.00 l
7.24 0.11 l
7.23 2.26 l
7.23 1.75 l
7.23 1.26 l
7.24 1.59 l
7.23 1.56 l
7.23 0.85 l
7.24 1.23 l
7.23 0.92 l
o
0.00 0.00 425.20 283.46 cl
0.00 0.00 425.20 283.46 cl
0.00 0.00 425.20 283.46 cl
0.00 0.00 425.20 283.46 cl
0.00 0.00 425.20 283.46 cl
0.00 0.00 425.20 283.46 cl
0.00 0.00 425.20 283.46 cl
0.00 0.00 425.20 283.46 cl
0.00 0.00 425.20 283.46 cl
0.00 0.00 425.20 283.46 cl
0.00 0.00 425.20 283.46 cl
0.00 0.00 425.20 283.46 cl
0.00 0.00 425.20 283.46 cl
0.00 0.00 425.20 283.46 cl
0.00 0.00 425.20 283.46 cl
0.00 0.00 425.20 283.46 cl
/Font1 findfont 9 s
0.3020 0.3020 0.3020 srgb
37.87 38.20 (0.00) 1 0 t
37.87 96.13 (0.01) 1 0 t
37.87 154.07 (0.02) 1 0 t
37.87 212.01 (0.03) 1 0 t
37.87 269.94 (0.04) 1 0 t
0.00 0.00 425.20 283.46 cl
0.00 0.00 425.20 283.46 cl
0.2000 0.2000 0.2000 srgb
1.07 setlinewidth
[] 0 setdash
0 setlinecap
1 setlinejoin
10.00 setmiterlimit
np
40.06 41.43 m
2.74 0 l
o
np
40.06 99.37 m
2.74 0 l
o
np
40.06 157.30 m
2.74 0 l
o
np
40.06 215.24 m
2.74 0 l
o
np
40.06 273.17 m
2.74 0 l
o
0.00 0.00 425.20 283.46 cl
0.00 0.00 425.20 283.46 cl
0.00 0.00 425.20 283.46 cl
0.00 0.00 425.20 283.46 cl
0.00 0.00 425.20 283.46 cl
0.00 0.00 425.20 283.46 cl
0.00 0.00 425.20 283.46 cl
0.00 0.00 425.20 283.46 cl
0.00 0.00 425.20 283.46 cl
0.00 0.00 425.20 283.46 cl
0.2000 0.2000 0.2000 srgb
1.07 setlinewidth
[] 0 setdash
0 setlinecap
1 setlinejoin
10.00 setmiterlimit
np
49.67 27.51 m
0 2.74 l
o
np
122.00 27.51 m
0 2.74 l
o
np
194.33 27.51 m
0 2.74 l
o
np
266.66 27.51 m
0 2.74 l
o
np
338.99 27.51 m
0 2.74 l
o
0.00 0.00 425.20 283.46 cl
0.00 0.00 425.20 283.46 cl
/Font1 findfont 9 s
0.3020 0.3020 0.3020 srgb
49.67 18.86 (0) .5 0 t
122.00 18.86 (50) .5 0 t
194.33 18.86 (100) .5 0 t
266.66 18.86 (150) .5 0 t
338.99 18.86 (200) .5 0 t
0.00 0.00 425.20 283.46 cl
0.00 0.00 425.20 283.46 cl
0.00 0.00 425.20 283.46 cl
0.00 0.00 425.20 283.46 cl
0.00 0.00 425.20 283.46 cl
0.00 0.00 425.20 283.46 cl
/Font1 findfont 11 s
0 0 0 srgb
197.95 5.48 (n) .5 0 t
0.00 0.00 425.20 283.46 cl
0.00 0.00 425.20 283.46 cl
/Font1 findfont 11 s
0 0 0 srgb
13.38 154.12 (t_bf) .5 90 t
0.00 0.00 425.20 283.46 cl
0.00 0.00 425.20 283.46 cl
0.00 0.00 425.20 283.46 cl
0.00 0.00 425.20 283.46 cl
0.00 0.00 425.20 283.46 cl
0.00 0.00 425.20 283.46 cl
0.00 0.00 425.20 283.46 cl
0.00 0.00 425.20 283.46 cl
/bg { 1 1 1 srgb } def
364.43 90.50 55.29 127.24 r p2
0.00 0.00 425.20 283.46 cl
0.00 0.00 425.20 283.46 cl
/Font1 findfont 11 s
0 0 0 srgb
370.10 204.17 (colour) 0 0 t
0.00 0.00 425.20 283.46 cl
0.00 0.00 425.20 283.46 cl
/bg { 0.9490 0.9490 0.9490 srgb } def
1 1 1 srgb
1.07 setlinewidth
[] 0 setdash
1 setlinecap
1 setlinejoin
10.00 setmiterlimit
370.10 182.57 17.28 17.28 r p3
0.00 0.00 425.20 283.46 cl
0.00 0.00 425.20 283.46 cl
0.9725 0.4627 0.4275 srgb
1.07 setlinewidth
[] 0 setdash
0 setlinecap
1 setlinejoin
10.00 setmiterlimit
np
371.83 191.21 m
13.82 0 l
o
0.00 0.00 425.20 283.46 cl
0.00 0.00 425.20 283.46 cl
0.9725 0.4627 0.4275 srgb
1.07 setlinewidth
[] 0 setdash
0 setlinecap
1 setlinejoin
10.00 setmiterlimit
np
371.83 191.21 m
13.82 0 l
o
0.00 0.00 425.20 283.46 cl
0.00 0.00 425.20 283.46 cl
0.9725 0.4627 0.4275 srgb
1.07 setlinewidth
[] 0 setdash
0 setlinecap
1 setlinejoin
10.00 setmiterlimit
np
371.83 191.21 m
13.82 0 l
o
0.00 0.00 425.20 283.46 cl
0.00 0.00 425.20 283.46 cl
0.9725 0.4627 0.4275 srgb
1.07 setlinewidth
[] 0 setdash
0 setlinecap
1 setlinejoin
10.00 setmiterlimit
np
371.83 191.21 m
13.82 0 l
o
0.00 0.00 425.20 283.46 cl
0.00 0.00 425.20 283.46 cl
0.9725 0.4627 0.4275 srgb
1.07 setlinewidth
[] 0 setdash
0 setlinecap
1 setlinejoin
10.00 setmiterlimit
np
371.83 191.21 m
13.82 0 l
o
0.00 0.00 425.20 283.46 cl
0.00 0.00 425.20 283.46 cl
0.9725 0.4627 0.4275 srgb
1.07 setlinewidth
[] 0 setdash
0 setlinecap
1 setlinejoin
10.00 setmiterlimit
np
371.83 191.21 m
13.82 0 l
o
0.00 0.00 425.20 283.46 cl
0.00 0.00 425.20 283.46 cl
/bg { 0.9490 0.9490 0.9490 srgb } def
1 1 1 srgb
1.07 setlinewidth
[] 0 setdash
1 setlinecap
1 setlinejoin
10.00 setmiterlimit
370.10 165.29 17.28 17.28 r p3
0.00 0.00 425.20 283.46 cl
0.00 0.00 425.20 283.46 cl
0.7176 0.6235 0 srgb
1.07 setlinewidth
[] 0 setdash
0 setlinecap
1 setlinejoin
10.00 setmiterlimit
np
371.83 173.93 m
13.82 0 l
o
0.00 0.00 425.20 283.46 cl
0.00 0.00 425.20 283.46 cl
0.7176 0.6235 0 srgb
1.07 setlinewidth
[] 0 setdash
0 setlinecap
1 setlinejoin
10.00 setmiterlimit
np
371.83 173.93 m
13.82 0 l
o
0.00 0.00 425.20 283.46 cl
0.00 0.00 425.20 283.46 cl
0.7176 0.6235 0 srgb
1.07 setlinewidth
[] 0 setdash
0 setlinecap
1 setlinejoin
10.00 setmiterlimit
np
371.83 173.93 m
13.82 0 l
o
0.00 0.00 425.20 283.46 cl
0.00 0.00 425.20 283.46 cl
0.7176 0.6235 0 srgb
1.07 setlinewidth
[] 0 setdash
0 setlinecap
1 setlinejoin
10.00 setmiterlimit
np
371.83 173.93 m
13.82 0 l
o
0.00 0.00 425.20 283.46 cl
0.00 0.00 425.20 283.46 cl
0.7176 0.6235 0 srgb
1.07 setlinewidth
[] 0 setdash
0 setlinecap
1 setlinejoin
10.00 setmiterlimit
np
371.83 173.93 m
13.82 0 l
o
0.00 0.00 425.20 283.46 cl
0.00 0.00 425.20 283.46 cl
0.7176 0.6235 0 srgb
1.07 setlinewidth
[] 0 setdash
0 setlinecap
1 setlinejoin
10.00 setmiterlimit
np
371.83 173.93 m
13.82 0 l
o
0.00 0.00 425.20 283.46 cl
0.00 0.00 425.20 283.46 cl
/bg { 0.9490 0.9490 0.9490 srgb } def
1 1 1 srgb
1.07 setlinewidth
[] 0 setdash
1 setlinecap
1 setlinejoin
10.00 setmiterlimit
370.10 148.01 17.28 17.28 r p3
0.00 0.00 425.20 283.46 cl
0.00 0.00 425.20 283.46 cl
0 0.7294 0.2196 srgb
1.07 setlinewidth
[] 0 setdash
0 setlinecap
1 setlinejoin
10.00 setmiterlimit
np
371.83 156.65 m
13.82 0 l
o
0.00 0.00 425.20 283.46 cl
0.00 0.00 425.20 283.46 cl
0 0.7294 0.2196 srgb
1.07 setlinewidth
[] 0 setdash
0 setlinecap
1 setlinejoin
10.00 setmiterlimit
np
371.83 156.65 m
13.82 0 l
o
0.00 0.00 425.20 283.46 cl
0.00 0.00 425.20 283.46 cl
0 0.7294 0.2196 srgb
1.07 setlinewidth
[] 0 setdash
0 setlinecap
1 setlinejoin
10.00 setmiterlimit
np
371.83 156.65 m
13.82 0 l
o
0.00 0.00 425.20 283.46 cl
0.00 0.00 425.20 283.46 cl
0 0.7294 0.2196 srgb
1.07 setlinewidth
[] 0 setdash
0 setlinecap
1 setlinejoin
10.00 setmiterlimit
np
371.83 156.65 m
13.82 0 l
o
0.00 0.00 425.20 283.46 cl
0.00 0.00 425.20 283.46 cl
0 0.7294 0.2196 srgb
1.07 setlinewidth
[] 0 setdash
0 setlinecap
1 setlinejoin
10.00 setmiterlimit
np
371.83 156.65 m
13.82 0 l
o
0.00 0.00 425.20 283.46 cl
0.00 0.00 425.20 283.46 cl
0 0.7294 0.2196 srgb
1.07 setlinewidth
[] 0 setdash
0 setlinecap
1 setlinejoin
10.00 setmiterlimit
np
371.83 156.65 m
13.82 0 l
o
0.00 0.00 425.20 283.46 cl
0.00 0.00 425.20 283.46 cl
/bg { 0.9490 0.9490 0.9490 srgb } def
1 1 1 srgb
1.07 setlinewidth
[] 0 setdash
1 setlinecap
1 setlinejoin
10.00 setmiterlimit
370.10 130.73 17.28 17.28 r p3
0.00 0.00 425.20 283.46 cl
0.00 0.00 425.20 283.46 cl
0 0.7490 0.7686 srgb
1.07 setlinewidth
[] 0 setdash
0 setlinecap
1 setlinejoin
10.00 setmiterlimit
np
371.83 139.37 m
13.82 0 l
o
0.00 0.00 425.20 283.46 cl
0.00 0.00 425.20 283.46 cl
0 0.7490 0.7686 srgb
1.07 setlinewidth
[] 0 setdash
0 setlinecap
1 setlinejoin
10.00 setmiterlimit
np
371.83 139.37 m
13.82 0 l
o
0.00 0.00 425.20 283.46 cl
0.00 0.00 425.20 283.46 cl
0 0.7490 0.7686 srgb
1.07 setlinewidth
[] 0 setdash
0 setlinecap
1 setlinejoin
10.00 setmiterlimit
np
371.83 139.37 m
13.82 0 l
o
0.00 0.00 425.20 283.46 cl
0.00 0.00 425.20 283.46 cl
0 0.7490 0.7686 srgb
1.07 setlinewidth
[] 0 setdash
0 setlinecap
1 setlinejoin
10.00 setmiterlimit
np
371.83 139.37 m
13.82 0 l
o
0.00 0.00 425.20 283.46 cl
0.00 0.00 425.20 283.46 cl
0 0.7490 0.7686 srgb
1.07 setlinewidth
[] 0 setdash
0 setlinecap
1 setlinejoin
10.00 setmiterlimit
np
371.83 139.37 m
13.82 0 l
o
0.00 0.00 425.20 283.46 cl
0.00 0.00 425.20 283.46 cl
0 0.7490 0.7686 srgb
1.07 setlinewidth
[] 0 setdash
0 setlinecap
1 setlinejoin
10.00 setmiterlimit
np
371.83 139.37 m
13.82 0 l
o
0.00 0.00 425.20 283.46 cl
0.00 0.00 425.20 283.46 cl
/bg { 0.9490 0.9490 0.9490 srgb } def
1 1 1 srgb
1.07 setlinewidth
[] 0 setdash
1 setlinecap
1 setlinejoin
10.00 setmiterlimit
370.10 113.45 17.28 17.28 r p3
0.00 0.00 425.20 283.46 cl
0.00 0.00 425.20 283.46 cl
0.3804 0.6118 1 srgb
1.07 setlinewidth
[] 0 setdash
0 setlinecap
1 setlinejoin
10.00 setmiterlimit
np
371.83 122.09 m
13.82 0 l
o
0.00 0.00 425.20 283.46 cl
0.00 0.00 425.20 283.46 cl
0.3804 0.6118 1 srgb
1.07 setlinewidth
[] 0 setdash
0 setlinecap
1 setlinejoin
10.00 setmiterlimit
np
371.83 122.09 m
13.82 0 l
o
0.00 0.00 425.20 283.46 cl
0.00 0.00 425.20 283.46 cl
0.3804 0.6118 1 srgb
1.07 setlinewidth
[] 0 setdash
0 setlinecap
1 setlinejoin
10.00 setmiterlimit
np
371.83 122.09 m
13.82 0 l
o
0.00 0.00 425.20 283.46 cl
0.00 0.00 425.20 283.46 cl
0.3804 0.6118 1 srgb
1.07 setlinewidth
[] 0 setdash
0 setlinecap
1 setlinejoin
10.00 setmiterlimit
np
371.83 122.09 m
13.82 0 l
o
0.00 0.00 425.20 283.46 cl
0.00 0.00 425.20 283.46 cl
0.3804 0.6118 1 srgb
1.07 setlinewidth
[] 0 setdash
0 setlinecap
1 setlinejoin
10.00 setmiterlimit
np
371.83 122.09 m
13.82 0 l
o
0.00 0.00 425.20 283.46 cl
0.00 0.00 425.20 283.46 cl
0.3804 0.6118 1 srgb
1.07 setlinewidth
[] 0 setdash
0 setlinecap
1 setlinejoin
10.00 setmiterlimit
np
371.83 122.09 m
13.82 0 l
o
0.00 0.00 425.20 283.46 cl
0.00 0.00 425.20 283.46 cl
/bg { 0.9490 0.9490 0.9490 srgb } def
1 1 1 srgb
1.07 setlinewidth
[] 0 setdash
1 setlinecap
1 setlinejoin
10.00 setmiterlimit
370.10 96.17 17.28 17.28 r p3
0.00 0.00 425.20 283.46 cl
0.00 0.00 425.20 283.46 cl
0.9608 0.3922 0.8902 srgb
1.07 setlinewidth
[] 0 setdash
0 setlinecap
1 setlinejoin
10.00 setmiterlimit
np
371.83 104.81 m
13.82 0 l
o
0.00 0.00 425.20 283.46 cl
0.00 0.00 425.20 283.46 cl
0.9608 0.3922 0.8902 srgb
1.07 setlinewidth
[] 0 setdash
0 setlinecap
1 setlinejoin
10.00 setmiterlimit
np
371.83 104.81 m
13.82 0 l
o
0.00 0.00 425.20 283.46 cl
0.00 0.00 425.20 283.46 cl
0.9608 0.3922 0.8902 srgb
1.07 setlinewidth
[] 0 setdash
0 setlinecap
1 setlinejoin
10.00 setmiterlimit
np
371.83 104.81 m
13.82 0 l
o
0.00 0.00 425.20 283.46 cl
0.00 0.00 425.20 283.46 cl
0.9608 0.3922 0.8902 srgb
1.07 setlinewidth
[] 0 setdash
0 setlinecap
1 setlinejoin
10.00 setmiterlimit
np
371.83 104.81 m
13.82 0 l
o
0.00 0.00 425.20 283.46 cl
0.00 0.00 425.20 283.46 cl
0.9608 0.3922 0.8902 srgb
1.07 setlinewidth
[] 0 setdash
0 setlinecap
1 setlinejoin
10.00 setmiterlimit
np
371.83 104.81 m
13.82 0 l
o
0.00 0.00 425.20 283.46 cl
0.00 0.00 425.20 283.46 cl
0.9608 0.3922 0.8902 srgb
1.07 setlinewidth
[] 0 setdash
0 setlinecap
1 setlinejoin
10.00 setmiterlimit
np
371.83 104.81 m
13.82 0 l
o
0.00 0.00 425.20 283.46 cl
0.00 0.00 425.20 283.46 cl
/Font1 findfont 9 s
0 0 0 srgb
389.54 187.98 (t_bf) 0 0 t
0.00 0.00 425.20 283.46 cl
0.00 0.00 425.20 283.46 cl
/Font1 findfont 9 s
0 0 0 srgb
389.54 170.70 (t_is1) 0 0 t
0.00 0.00 425.20 283.46 cl
0.00 0.00 425.20 283.46 cl
/Font1 findfont 9 s
0 0 0 srgb
389.54 153.42 (t_is2) 0 0 t
0.00 0.00 425.20 283.46 cl
0.00 0.00 425.20 283.46 cl
/Font1 findfont 9 s
0 0 0 srgb
389.54 136.14 (t_ms1) 0 0 t
0.00 0.00 425.20 283.46 cl
0.00 0.00 425.20 283.46 cl
/Font1 findfont 9 s
0 0 0 srgb
389.54 118.86 (t_ms2) 0 0 t
0.00 0.00 425.20 283.46 cl
0.00 0.00 425.20 283.46 cl
/Font1 findfont 9 s
0 0 0 srgb
389.54 101.58 (t_ms3) 0 0 t
0.00 0.00 425.20 283.46 cl
0.00 0.00 425.20 283.46 cl
0.00 0.00 425.20 283.46 cl
0.00 0.00 425.20 283.46 cl
0.00 0.00 425.20 283.46 cl
0.00 0.00 425.20 283.46 cl
0.00 0.00 425.20 283.46 cl
0.00 0.00 425.20 283.46 cl
0.00 0.00 425.20 283.46 cl
0.00 0.00 425.20 283.46 cl
ep
%%Trailer
%%Pages: 1
%%EOF
