%!PS-Adobe-3.0 EPSF-3.0
%%DocumentNeededResources: font Helvetica
%%+ font Helvetica-Bold
%%+ font Helvetica-Oblique
%%+ font Helvetica-BoldOblique
%%+ font Symbol
%%Title: R Graphics Output
%%Creator: R Software
%%Pages: (atend)
%%BoundingBox: 0 0 594 412
%%EndComments
%%BeginProlog
/bp  { gs sRGB gs } def
% begin .ps.prolog
/gs  { gsave } bind def
/gr  { grestore } bind def
/ep  { showpage gr gr } bind def
/m   { moveto } bind def
/l  { rlineto } bind def
/np  { newpath } bind def
/cp  { closepath } bind def
/f   { fill } bind def
/o   { stroke } bind def
/c   { newpath 0 360 arc } bind def
/r   { 4 2 roll moveto 1 copy 3 -1 roll exch 0 exch rlineto 0 rlineto -1 mul 0 exch rlineto closepath } bind def
/p1  { stroke } bind def
/p2  { gsave bg fill grestore newpath } bind def
/p3  { gsave bg fill grestore stroke } bind def
/p6  { gsave bg eofill grestore newpath } bind def
/p7  { gsave bg eofill grestore stroke } bind def
/t   { 5 -2 roll moveto gsave rotate
       1 index stringwidth pop
       mul neg 0 rmoveto show grestore } bind def
/ta  { 4 -2 roll moveto gsave rotate show } bind def
/tb  { 2 -1 roll 0 rmoveto show } bind def
/cl  { grestore gsave newpath 3 index 3 index moveto 1 index
       4 -1 roll lineto  exch 1 index lineto lineto
       closepath clip newpath } bind def
/rgb { setrgbcolor } bind def
/s   { scalefont setfont } bind def
% end   .ps.prolog
/sRGB { [ /CIEBasedABC
          << /DecodeLMN
               [ { dup 0.03928 le
                        {12.92321 div}
                        {0.055 add 1.055 div 2.4 exp }
                     ifelse
                 } bind dup dup
               ]
             /MatrixLMN [0.412457 0.212673 0.019334
                         0.357576 0.715152 0.119192
                         0.180437 0.072175 0.950301]
             /WhitePoint [0.9505 1.0 1.0890]
           >>
         ] setcolorspace } bind def
/srgb { setcolor } bind def
%%IncludeResource: font Helvetica
/Helvetica findfont
dup length dict begin
  {1 index /FID ne {def} {pop pop} ifelse} forall
  /Encoding ISOLatin1Encoding def
  currentdict
  end
/Font1 exch definefont pop
%%IncludeResource: font Helvetica-Bold
/Helvetica-Bold findfont
dup length dict begin
  {1 index /FID ne {def} {pop pop} ifelse} forall
  /Encoding ISOLatin1Encoding def
  currentdict
  end
/Font2 exch definefont pop
%%IncludeResource: font Helvetica-Oblique
/Helvetica-Oblique findfont
dup length dict begin
  {1 index /FID ne {def} {pop pop} ifelse} forall
  /Encoding ISOLatin1Encoding def
  currentdict
  end
/Font3 exch definefont pop
%%IncludeResource: font Helvetica-BoldOblique
/Helvetica-BoldOblique findfont
dup length dict begin
  {1 index /FID ne {def} {pop pop} ifelse} forall
  /Encoding ISOLatin1Encoding def
  currentdict
  end
/Font4 exch definefont pop
%%IncludeResource: font Symbol
/Symbol findfont
dup length dict begin
  {1 index /FID ne {def} {pop pop} ifelse} forall
  currentdict
  end
/Font5 exch definefont pop
%%EndProlog
%%Page: 1 1
bp
0.00 0.00 594.00 411.75 cl
0.00 0.00 594.00 411.75 cl
0.00 0.00 594.00 411.75 cl
0.00 0.00 594.00 411.75 cl
0.00 0.00 594.00 411.75 cl
0.00 0.00 594.00 411.75 cl
0.00 0.00 594.00 411.75 cl
0.00 0.00 594.00 411.75 cl
0.00 0.00 594.00 411.75 cl
/bg { 1 1 1 srgb } def
1 1 1 srgb
1.07 setlinewidth
[] 0 setdash
1 setlinecap
1 setlinejoin
10.00 setmiterlimit
0.00 0.00 594.00 411.75 r p3
0.00 0.00 594.00 411.75 cl
38.55 30.25 521.65 406.27 cl
/bg { 0.9216 0.9216 0.9216 srgb } def
38.55 30.25 483.10 376.02 r p2
1 1 1 srgb
0.53 setlinewidth
[] 0 setdash
0 setlinecap
1 setlinejoin
10.00 setmiterlimit
np
38.55 108.71 m
483.10 0 l
o
np
38.55 232.92 m
483.10 0 l
o
np
38.55 357.13 m
483.10 0 l
o
np
72.71 30.25 m
0 376.02 l
o
np
194.70 30.25 m
0 376.02 l
o
np
316.70 30.25 m
0 376.02 l
o
np
438.70 30.25 m
0 376.02 l
o
1.07 setlinewidth
[] 0 setdash
np
38.55 46.61 m
483.10 0 l
o
np
38.55 170.82 m
483.10 0 l
o
np
38.55 295.03 m
483.10 0 l
o
np
133.71 30.25 m
0 376.02 l
o
np
255.70 30.25 m
0 376.02 l
o
np
377.70 30.25 m
0 376.02 l
o
np
499.69 30.25 m
0 376.02 l
o
0.9725 0.4627 0.4275 srgb
1.00 setmiterlimit
np
60.51 47.34 m
12.20 0.50 l
12.20 0.17 l
12.20 0.51 l
12.20 0.54 l
12.20 0.59 l
12.20 0.51 l
12.20 0.72 l
12.19 0.46 l
12.20 0.83 l
12.20 0.27 l
12.20 1.24 l
12.20 0.74 l
12.20 1.06 l
12.20 1.02 l
12.20 0.59 l
12.20 0.74 l
12.20 1.29 l
12.20 0.83 l
12.20 1.33 l
12.20 0.80 l
12.20 1.43 l
12.20 0.24 l
12.20 1.64 l
12.20 1.72 l
12.20 1.68 l
12.20 0.32 l
12.20 1.53 l
12.20 1.71 l
12.20 1.86 l
12.20 0.24 l
12.20 2.07 l
12.20 2.07 l
12.20 1.72 l
12.19 0.54 l
12.20 2.35 l
12.20 1.71 l
o
0.7176 0.6235 0 srgb
np
60.51 50.18 m
12.20 1.92 l
12.20 2.37 l
12.20 2.72 l
12.20 3.18 l
12.20 3.71 l
12.20 3.98 l
12.20 4.27 l
12.19 5.08 l
12.20 5.29 l
12.20 5.84 l
12.20 6.00 l
12.20 6.76 l
12.20 7.24 l
12.20 7.98 l
12.20 8.19 l
12.20 7.00 l
12.20 12.28 l
12.20 5.56 l
12.20 10.82 l
12.20 8.26 l
12.20 10.81 l
12.20 11.45 l
12.20 11.92 l
12.20 17.73 l
12.20 7.21 l
12.20 10.98 l
12.20 14.63 l
12.20 15.27 l
12.20 12.72 l
12.20 13.52 l
12.20 12.56 l
12.20 15.27 l
12.20 16.70 l
12.19 20.83 l
12.20 13.52 l
12.20 15.43 l
o
0 0.7294 0.2196 srgb
np
60.51 48.60 m
12.20 0.95 l
12.20 1.15 l
12.20 1.31 l
12.20 1.52 l
12.20 1.64 l
12.20 1.94 l
12.20 2.04 l
12.19 2.65 l
12.20 2.10 l
12.20 2.44 l
12.20 2.86 l
12.20 2.97 l
12.20 3.45 l
12.20 3.09 l
12.20 3.31 l
12.20 3.70 l
12.20 3.66 l
12.20 5.44 l
12.20 3.30 l
12.20 4.69 l
12.20 4.33 l
12.20 5.33 l
12.20 4.05 l
12.20 4.65 l
12.20 5.81 l
12.20 5.09 l
12.20 6.91 l
12.20 5.88 l
12.20 5.49 l
12.20 5.96 l
12.20 5.96 l
12.20 6.84 l
12.20 7.07 l
12.19 7.00 l
12.20 6.84 l
12.20 13.11 l
o
0 0.7490 0.7686 srgb
np
60.51 55.69 m
12.20 1.23 l
12.20 3.39 l
12.20 2.01 l
12.20 2.78 l
12.20 1.37 l
12.20 1.96 l
12.20 4.09 l
12.19 2.47 l
12.20 2.42 l
12.20 2.73 l
12.20 2.46 l
12.20 1.59 l
12.20 2.07 l
12.20 2.20 l
12.20 1.71 l
12.20 2.15 l
12.20 4.61 l
12.20 3.81 l
12.20 2.51 l
12.20 7.99 l
12.20 -1.35 l
12.20 0.95 l
12.20 2.43 l
12.20 2.50 l
12.20 3.18 l
12.20 1.19 l
12.20 1.95 l
12.20 3.06 l
12.20 2.38 l
12.20 1.75 l
12.20 1.51 l
12.20 3.18 l
12.20 3.74 l
12.19 -0.16 l
12.20 1.75 l
12.20 3.18 l
o
0.3804 0.6118 1 srgb
np
60.51 48.90 m
12.20 0.58 l
12.20 0.72 l
12.20 0.68 l
12.20 0.71 l
12.20 0.63 l
12.20 0.77 l
12.20 0.84 l
12.19 0.76 l
12.20 0.75 l
12.20 0.73 l
12.20 0.63 l
12.20 0.78 l
12.20 0.81 l
12.20 0.70 l
12.20 0.88 l
12.20 0.64 l
12.20 0.93 l
12.20 0.80 l
12.20 0.80 l
12.20 0.66 l
12.20 0.73 l
12.20 0.98 l
12.20 0.89 l
12.20 1.09 l
12.20 1.20 l
12.20 -0.06 l
12.20 0.89 l
12.20 0.86 l
12.20 0.95 l
12.20 0.70 l
12.20 0.95 l
12.20 2.27 l
12.20 -0.36 l
12.19 0.76 l
12.20 0.53 l
12.20 1.15 l
o
0.9608 0.3922 0.8902 srgb
np
60.51 48.42 m
12.20 0.53 l
12.20 0.63 l
12.20 0.58 l
12.20 0.58 l
12.20 0.60 l
12.20 0.60 l
12.20 0.72 l
12.19 0.51 l
12.20 0.76 l
12.20 0.54 l
12.20 0.79 l
12.20 0.61 l
12.20 0.44 l
12.20 0.57 l
12.20 0.60 l
12.20 0.70 l
12.20 0.91 l
12.20 0.42 l
12.20 0.52 l
12.20 0.82 l
12.20 1.56 l
12.20 -0.18 l
12.20 0.50 l
12.20 0.57 l
12.20 0.84 l
12.20 0.80 l
12.20 2.02 l
12.20 0.18 l
12.20 2.28 l
12.20 0.48 l
12.20 0.64 l
12.20 0.53 l
12.20 1.41 l
12.19 0.58 l
12.20 1.29 l
12.20 0.64 l
o
0.00 0.00 594.00 411.75 cl
0.00 0.00 594.00 411.75 cl
0.00 0.00 594.00 411.75 cl
0.00 0.00 594.00 411.75 cl
0.00 0.00 594.00 411.75 cl
0.00 0.00 594.00 411.75 cl
0.00 0.00 594.00 411.75 cl
0.00 0.00 594.00 411.75 cl
0.00 0.00 594.00 411.75 cl
0.00 0.00 594.00 411.75 cl
0.00 0.00 594.00 411.75 cl
0.00 0.00 594.00 411.75 cl
0.00 0.00 594.00 411.75 cl
0.00 0.00 594.00 411.75 cl
0.00 0.00 594.00 411.75 cl
0.00 0.00 594.00 411.75 cl
/Font1 findfont 9 s
0.3020 0.3020 0.3020 srgb
33.62 43.38 (0.0) 1 0 t
33.62 167.59 (0.5) 1 0 t
33.62 291.80 (1.0) 1 0 t
0.00 0.00 594.00 411.75 cl
0.00 0.00 594.00 411.75 cl
0.2000 0.2000 0.2000 srgb
1.07 setlinewidth
[] 0 setdash
0 setlinecap
1 setlinejoin
10.00 setmiterlimit
np
35.81 46.61 m
2.74 0 l
o
np
35.81 170.82 m
2.74 0 l
o
np
35.81 295.03 m
2.74 0 l
o
0.00 0.00 594.00 411.75 cl
0.00 0.00 594.00 411.75 cl
0.00 0.00 594.00 411.75 cl
0.00 0.00 594.00 411.75 cl
0.00 0.00 594.00 411.75 cl
0.00 0.00 594.00 411.75 cl
0.00 0.00 594.00 411.75 cl
0.00 0.00 594.00 411.75 cl
0.00 0.00 594.00 411.75 cl
0.00 0.00 594.00 411.75 cl
0.2000 0.2000 0.2000 srgb
1.07 setlinewidth
[] 0 setdash
0 setlinecap
1 setlinejoin
10.00 setmiterlimit
np
133.71 27.51 m
0 2.74 l
o
np
255.70 27.51 m
0 2.74 l
o
np
377.70 27.51 m
0 2.74 l
o
np
499.69 27.51 m
0 2.74 l
o
0.00 0.00 594.00 411.75 cl
0.00 0.00 594.00 411.75 cl
/Font1 findfont 9 s
0.3020 0.3020 0.3020 srgb
133.71 18.86 (500) .5 0 t
255.70 18.86 (1000) .5 0 t
377.70 18.86 (1500) .5 0 t
499.69 18.86 (2000) .5 0 t
0.00 0.00 594.00 411.75 cl
0.00 0.00 594.00 411.75 cl
0.00 0.00 594.00 411.75 cl
0.00 0.00 594.00 411.75 cl
0.00 0.00 594.00 411.75 cl
0.00 0.00 594.00 411.75 cl
/Font1 findfont 11 s
0 0 0 srgb
280.10 5.48 (n) .5 0 t
0.00 0.00 594.00 411.75 cl
0.00 0.00 594.00 411.75 cl
/Font1 findfont 11 s
0 0 0 srgb
13.38 218.26 (t_bf) .5 90 t
0.00 0.00 594.00 411.75 cl
0.00 0.00 594.00 411.75 cl
0.00 0.00 594.00 411.75 cl
0.00 0.00 594.00 411.75 cl
0.00 0.00 594.00 411.75 cl
0.00 0.00 594.00 411.75 cl
0.00 0.00 594.00 411.75 cl
0.00 0.00 594.00 411.75 cl
/bg { 1 1 1 srgb } def
532.99 154.47 55.53 127.59 r p2
0.00 0.00 594.00 411.75 cl
0.00 0.00 594.00 411.75 cl
/Font1 findfont 11 s
0 0 0 srgb
538.66 268.31 (colour) 0 0 t
0.00 0.00 594.00 411.75 cl
0.00 0.00 594.00 411.75 cl
/bg { 0.9490 0.9490 0.9490 srgb } def
1 1 1 srgb
1.07 setlinewidth
[] 0 setdash
1 setlinecap
1 setlinejoin
10.00 setmiterlimit
538.66 246.54 17.28 17.28 r p3
0.00 0.00 594.00 411.75 cl
0.00 0.00 594.00 411.75 cl
0.9725 0.4627 0.4275 srgb
1.07 setlinewidth
[] 0 setdash
0 setlinecap
1 setlinejoin
10.00 setmiterlimit
np
540.39 255.18 m
13.82 0 l
o
0.00 0.00 594.00 411.75 cl
0.00 0.00 594.00 411.75 cl
0.9725 0.4627 0.4275 srgb
1.07 setlinewidth
[] 0 setdash
0 setlinecap
1 setlinejoin
10.00 setmiterlimit
np
540.39 255.18 m
13.82 0 l
o
0.00 0.00 594.00 411.75 cl
0.00 0.00 594.00 411.75 cl
0.9725 0.4627 0.4275 srgb
1.07 setlinewidth
[] 0 setdash
0 setlinecap
1 setlinejoin
10.00 setmiterlimit
np
540.39 255.18 m
13.82 0 l
o
0.00 0.00 594.00 411.75 cl
0.00 0.00 594.00 411.75 cl
0.9725 0.4627 0.4275 srgb
1.07 setlinewidth
[] 0 setdash
0 setlinecap
1 setlinejoin
10.00 setmiterlimit
np
540.39 255.18 m
13.82 0 l
o
0.00 0.00 594.00 411.75 cl
0.00 0.00 594.00 411.75 cl
0.9725 0.4627 0.4275 srgb
1.07 setlinewidth
[] 0 setdash
0 setlinecap
1 setlinejoin
10.00 setmiterlimit
np
540.39 255.18 m
13.82 0 l
o
0.00 0.00 594.00 411.75 cl
0.00 0.00 594.00 411.75 cl
0.9725 0.4627 0.4275 srgb
1.07 setlinewidth
[] 0 setdash
0 setlinecap
1 setlinejoin
10.00 setmiterlimit
np
540.39 255.18 m
13.82 0 l
o
0.00 0.00 594.00 411.75 cl
0.00 0.00 594.00 411.75 cl
/bg { 0.9490 0.9490 0.9490 srgb } def
1 1 1 srgb
1.07 setlinewidth
[] 0 setdash
1 setlinecap
1 setlinejoin
10.00 setmiterlimit
538.66 229.26 17.28 17.28 r p3
0.00 0.00 594.00 411.75 cl
0.00 0.00 594.00 411.75 cl
0.7176 0.6235 0 srgb
1.07 setlinewidth
[] 0 setdash
0 setlinecap
1 setlinejoin
10.00 setmiterlimit
np
540.39 237.90 m
13.82 0 l
o
0.00 0.00 594.00 411.75 cl
0.00 0.00 594.00 411.75 cl
0.7176 0.6235 0 srgb
1.07 setlinewidth
[] 0 setdash
0 setlinecap
1 setlinejoin
10.00 setmiterlimit
np
540.39 237.90 m
13.82 0 l
o
0.00 0.00 594.00 411.75 cl
0.00 0.00 594.00 411.75 cl
0.7176 0.6235 0 srgb
1.07 setlinewidth
[] 0 setdash
0 setlinecap
1 setlinejoin
10.00 setmiterlimit
np
540.39 237.90 m
13.82 0 l
o
0.00 0.00 594.00 411.75 cl
0.00 0.00 594.00 411.75 cl
0.7176 0.6235 0 srgb
1.07 setlinewidth
[] 0 setdash
0 setlinecap
1 setlinejoin
10.00 setmiterlimit
np
540.39 237.90 m
13.82 0 l
o
0.00 0.00 594.00 411.75 cl
0.00 0.00 594.00 411.75 cl
0.7176 0.6235 0 srgb
1.07 setlinewidth
[] 0 setdash
0 setlinecap
1 setlinejoin
10.00 setmiterlimit
np
540.39 237.90 m
13.82 0 l
o
0.00 0.00 594.00 411.75 cl
0.00 0.00 594.00 411.75 cl
0.7176 0.6235 0 srgb
1.07 setlinewidth
[] 0 setdash
0 setlinecap
1 setlinejoin
10.00 setmiterlimit
np
540.39 237.90 m
13.82 0 l
o
0.00 0.00 594.00 411.75 cl
0.00 0.00 594.00 411.75 cl
/bg { 0.9490 0.9490 0.9490 srgb } def
1 1 1 srgb
1.07 setlinewidth
[] 0 setdash
1 setlinecap
1 setlinejoin
10.00 setmiterlimit
538.66 211.98 17.28 17.28 r p3
0.00 0.00 594.00 411.75 cl
0.00 0.00 594.00 411.75 cl
0 0.7294 0.2196 srgb
1.07 setlinewidth
[] 0 setdash
0 setlinecap
1 setlinejoin
10.00 setmiterlimit
np
540.39 220.62 m
13.82 0 l
o
0.00 0.00 594.00 411.75 cl
0.00 0.00 594.00 411.75 cl
0 0.7294 0.2196 srgb
1.07 setlinewidth
[] 0 setdash
0 setlinecap
1 setlinejoin
10.00 setmiterlimit
np
540.39 220.62 m
13.82 0 l
o
0.00 0.00 594.00 411.75 cl
0.00 0.00 594.00 411.75 cl
0 0.7294 0.2196 srgb
1.07 setlinewidth
[] 0 setdash
0 setlinecap
1 setlinejoin
10.00 setmiterlimit
np
540.39 220.62 m
13.82 0 l
o
0.00 0.00 594.00 411.75 cl
0.00 0.00 594.00 411.75 cl
0 0.7294 0.2196 srgb
1.07 setlinewidth
[] 0 setdash
0 setlinecap
1 setlinejoin
10.00 setmiterlimit
np
540.39 220.62 m
13.82 0 l
o
0.00 0.00 594.00 411.75 cl
0.00 0.00 594.00 411.75 cl
0 0.7294 0.2196 srgb
1.07 setlinewidth
[] 0 setdash
0 setlinecap
1 setlinejoin
10.00 setmiterlimit
np
540.39 220.62 m
13.82 0 l
o
0.00 0.00 594.00 411.75 cl
0.00 0.00 594.00 411.75 cl
0 0.7294 0.2196 srgb
1.07 setlinewidth
[] 0 setdash
0 setlinecap
1 setlinejoin
10.00 setmiterlimit
np
540.39 220.62 m
13.82 0 l
o
0.00 0.00 594.00 411.75 cl
0.00 0.00 594.00 411.75 cl
/bg { 0.9490 0.9490 0.9490 srgb } def
1 1 1 srgb
1.07 setlinewidth
[] 0 setdash
1 setlinecap
1 setlinejoin
10.00 setmiterlimit
538.66 194.70 17.28 17.28 r p3
0.00 0.00 594.00 411.75 cl
0.00 0.00 594.00 411.75 cl
0 0.7490 0.7686 srgb
1.07 setlinewidth
[] 0 setdash
0 setlinecap
1 setlinejoin
10.00 setmiterlimit
np
540.39 203.34 m
13.82 0 l
o
0.00 0.00 594.00 411.75 cl
0.00 0.00 594.00 411.75 cl
0 0.7490 0.7686 srgb
1.07 setlinewidth
[] 0 setdash
0 setlinecap
1 setlinejoin
10.00 setmiterlimit
np
540.39 203.34 m
13.82 0 l
o
0.00 0.00 594.00 411.75 cl
0.00 0.00 594.00 411.75 cl
0 0.7490 0.7686 srgb
1.07 setlinewidth
[] 0 setdash
0 setlinecap
1 setlinejoin
10.00 setmiterlimit
np
540.39 203.34 m
13.82 0 l
o
0.00 0.00 594.00 411.75 cl
0.00 0.00 594.00 411.75 cl
0 0.7490 0.7686 srgb
1.07 setlinewidth
[] 0 setdash
0 setlinecap
1 setlinejoin
10.00 setmiterlimit
np
540.39 203.34 m
13.82 0 l
o
0.00 0.00 594.00 411.75 cl
0.00 0.00 594.00 411.75 cl
0 0.7490 0.7686 srgb
1.07 setlinewidth
[] 0 setdash
0 setlinecap
1 setlinejoin
10.00 setmiterlimit
np
540.39 203.34 m
13.82 0 l
o
0.00 0.00 594.00 411.75 cl
0.00 0.00 594.00 411.75 cl
0 0.7490 0.7686 srgb
1.07 setlinewidth
[] 0 setdash
0 setlinecap
1 setlinejoin
10.00 setmiterlimit
np
540.39 203.34 m
13.82 0 l
o
0.00 0.00 594.00 411.75 cl
0.00 0.00 594.00 411.75 cl
/bg { 0.9490 0.9490 0.9490 srgb } def
1 1 1 srgb
1.07 setlinewidth
[] 0 setdash
1 setlinecap
1 setlinejoin
10.00 setmiterlimit
538.66 177.42 17.28 17.28 r p3
0.00 0.00 594.00 411.75 cl
0.00 0.00 594.00 411.75 cl
0.3804 0.6118 1 srgb
1.07 setlinewidth
[] 0 setdash
0 setlinecap
1 setlinejoin
10.00 setmiterlimit
np
540.39 186.06 m
13.82 0 l
o
0.00 0.00 594.00 411.75 cl
0.00 0.00 594.00 411.75 cl
0.3804 0.6118 1 srgb
1.07 setlinewidth
[] 0 setdash
0 setlinecap
1 setlinejoin
10.00 setmiterlimit
np
540.39 186.06 m
13.82 0 l
o
0.00 0.00 594.00 411.75 cl
0.00 0.00 594.00 411.75 cl
0.3804 0.6118 1 srgb
1.07 setlinewidth
[] 0 setdash
0 setlinecap
1 setlinejoin
10.00 setmiterlimit
np
540.39 186.06 m
13.82 0 l
o
0.00 0.00 594.00 411.75 cl
0.00 0.00 594.00 411.75 cl
0.3804 0.6118 1 srgb
1.07 setlinewidth
[] 0 setdash
0 setlinecap
1 setlinejoin
10.00 setmiterlimit
np
540.39 186.06 m
13.82 0 l
o
0.00 0.00 594.00 411.75 cl
0.00 0.00 594.00 411.75 cl
0.3804 0.6118 1 srgb
1.07 setlinewidth
[] 0 setdash
0 setlinecap
1 setlinejoin
10.00 setmiterlimit
np
540.39 186.06 m
13.82 0 l
o
0.00 0.00 594.00 411.75 cl
0.00 0.00 594.00 411.75 cl
0.3804 0.6118 1 srgb
1.07 setlinewidth
[] 0 setdash
0 setlinecap
1 setlinejoin
10.00 setmiterlimit
np
540.39 186.06 m
13.82 0 l
o
0.00 0.00 594.00 411.75 cl
0.00 0.00 594.00 411.75 cl
/bg { 0.9490 0.9490 0.9490 srgb } def
1 1 1 srgb
1.07 setlinewidth
[] 0 setdash
1 setlinecap
1 setlinejoin
10.00 setmiterlimit
538.66 160.14 17.28 17.28 r p3
0.00 0.00 594.00 411.75 cl
0.00 0.00 594.00 411.75 cl
0.9608 0.3922 0.8902 srgb
1.07 setlinewidth
[] 0 setdash
0 setlinecap
1 setlinejoin
10.00 setmiterlimit
np
540.39 168.78 m
13.82 0 l
o
0.00 0.00 594.00 411.75 cl
0.00 0.00 594.00 411.75 cl
0.9608 0.3922 0.8902 srgb
1.07 setlinewidth
[] 0 setdash
0 setlinecap
1 setlinejoin
10.00 setmiterlimit
np
540.39 168.78 m
13.82 0 l
o
0.00 0.00 594.00 411.75 cl
0.00 0.00 594.00 411.75 cl
0.9608 0.3922 0.8902 srgb
1.07 setlinewidth
[] 0 setdash
0 setlinecap
1 setlinejoin
10.00 setmiterlimit
np
540.39 168.78 m
13.82 0 l
o
0.00 0.00 594.00 411.75 cl
0.00 0.00 594.00 411.75 cl
0.9608 0.3922 0.8902 srgb
1.07 setlinewidth
[] 0 setdash
0 setlinecap
1 setlinejoin
10.00 setmiterlimit
np
540.39 168.78 m
13.82 0 l
o
0.00 0.00 594.00 411.75 cl
0.00 0.00 594.00 411.75 cl
0.9608 0.3922 0.8902 srgb
1.07 setlinewidth
[] 0 setdash
0 setlinecap
1 setlinejoin
10.00 setmiterlimit
np
540.39 168.78 m
13.82 0 l
o
0.00 0.00 594.00 411.75 cl
0.00 0.00 594.00 411.75 cl
0.9608 0.3922 0.8902 srgb
1.07 setlinewidth
[] 0 setdash
0 setlinecap
1 setlinejoin
10.00 setmiterlimit
np
540.39 168.78 m
13.82 0 l
o
0.00 0.00 594.00 411.75 cl
0.00 0.00 594.00 411.75 cl
/Font1 findfont 9 s
0 0 0 srgb
558.10 251.94 (t_bf) 0 0 t
0.00 0.00 594.00 411.75 cl
0.00 0.00 594.00 411.75 cl
/Font1 findfont 9 s
0 0 0 srgb
558.10 234.66 (t_is1) 0 0 t
0.00 0.00 594.00 411.75 cl
0.00 0.00 594.00 411.75 cl
/Font1 findfont 9 s
0 0 0 srgb
558.10 217.38 (t_is2) 0 0 t
0.00 0.00 594.00 411.75 cl
0.00 0.00 594.00 411.75 cl
/Font1 findfont 9 s
0 0 0 srgb
558.10 200.10 (t_ms1) 0 0 t
0.00 0.00 594.00 411.75 cl
0.00 0.00 594.00 411.75 cl
/Font1 findfont 9 s
0 0 0 srgb
558.10 182.82 (t_ms2) 0 0 t
0.00 0.00 594.00 411.75 cl
0.00 0.00 594.00 411.75 cl
/Font1 findfont 9 s
0 0 0 srgb
558.10 165.54 (t_ms3) 0 0 t
0.00 0.00 594.00 411.75 cl
0.00 0.00 594.00 411.75 cl
0.00 0.00 594.00 411.75 cl
0.00 0.00 594.00 411.75 cl
0.00 0.00 594.00 411.75 cl
0.00 0.00 594.00 411.75 cl
0.00 0.00 594.00 411.75 cl
0.00 0.00 594.00 411.75 cl
0.00 0.00 594.00 411.75 cl
0.00 0.00 594.00 411.75 cl
ep
%%Trailer
%%Pages: 1
%%EOF
